%YAML 1.1
%TAG !u! tag:unity3d.com,2011:
--- !u!114 &11400000
MonoBehaviour:
  m_ObjectHideFlags: 0
  m_CorrespondingSourceObject: {fileID: 0}
  m_PrefabInstance: {fileID: 0}
  m_PrefabAsset: {fileID: 0}
  m_GameObject: {fileID: 0}
  m_Enabled: 1
  m_EditorHideFlags: 0
  m_Script: {fileID: 11500000, guid: 6bff880bde3de7743a01603c3cf96142, type: 3}
  m_Name: VertexSubPathConfig4
  m_EditorClassIdentifier: 
  vertexPathData:
    vertex:
    - {x: 0.014274316, y: 0.015000207, z: 0.0043848637}
    - {x: 0.01367591, y: 0.015000207, z: 0.0043283957}
    - {x: 0.012872058, y: 0.015000207, z: 0.0060053873}
    - {x: 0.011979382, y: 0.015000206, z: 0.0075798403}
    - {x: 0.010451918, y: 0.015000206, z: 0.0093460735}
    - {x: 0.008724098, y: 0.0150002055, z: 0.010726577}
    - {x: 0.0064769145, y: 0.015000205, z: 0.011994487}
    - {x: 0.005187338, y: 0.015000205, z: 0.012423998}
    - {x: 0.0048142727, y: 0.015000205, z: 0.013442164}
    - {x: 0.0055790152, y: 0.015000205, z: 0.014698392}
    - {x: 0.0075289495, y: 0.015000204, z: 0.017606448}
    - {x: 0.010443324, y: 0.015000204, z: 0.020786949}
    - {x: 0.013674353, y: 0.015000204, z: 0.023190323}
    - {x: 0.016876344, y: 0.015000203, z: 0.02489144}
    - {x: 0.019890863, y: 0.015000203, z: 0.026066784}
    - {x: 0.023057614, y: 0.015000203, z: 0.02652717}
    - {x: 0.026079897, y: 0.015000203, z: 0.026621405}
    - {x: 0.029332478, y: 0.015000203, z: 0.026403312}
    - {x: 0.032387875, y: 0.015000203, z: 0.02598447}
    - {x: 0.03580185, y: 0.015000203, z: 0.02523667}
    - {x: 0.038851537, y: 0.015000203, z: 0.024318997}
    - {x: 0.041100174, y: 0.015000203, z: 0.02345283}
    - {x: 0.041046467, y: 0.015000204, z: 0.023143284}
    - {x: 0.04103932, y: 0.015000204, z: 0.023099013}
    - {x: 0.038667183, y: 0.015000204, z: 0.022985544}
    - {x: 0.035441715, y: 0.015000204, z: 0.02263571}
    - {x: 0.032249622, y: 0.015000204, z: 0.02204967}
    - {x: 0.029091317, y: 0.015000204, z: 0.021281067}
    - {x: 0.026174132, y: 0.015000204, z: 0.02032942}
    - {x: 0.023001883, y: 0.015000204, z: 0.01872683}
    - {x: 0.020263169, y: 0.015000205, z: 0.01651949}
    - {x: 0.018075574, y: 0.015000205, z: 0.013761466}
    - {x: 0.016628515, y: 0.0150002055, z: 0.011057957}
    - {x: 0.015498385, y: 0.015000206, z: 0.008381626}
    - {x: 0.0147876805, y: 0.015000206, z: 0.006328258}
    - {x: 0.014274316, y: 0.015000207, z: 0.0043848637}
    tangents:
    - {x: -0.76270485, y: 0.00000028248783, z: -0.64674664}
    - {x: -0.87036026, y: 0, z: 0.49241552}
    - {x: -0.4630063, y: -0.00000025743654, z: 0.886355}
    - {x: -0.57647437, y: -0.00000025854064, z: 0.81711525}
    - {x: -0.72072875, y: -0.00000021144531, z: 0.69321716}
    - {x: -0.8287594, y: -0.00000039229081, z: 0.5596052}
    - {x: -0.91406405, y: -0.00000018131139, z: 0.40556985}
    - {x: -0.7175324, y: 0, z: 0.6965251}
    - {x: 0.09765359, y: 0, z: 0.9952205}
    - {x: 0.53858256, y: -0.00000013302899, z: 0.84257275}
    - {x: 0.61801606, y: -0.00000013337745, z: 0.7861655}
    - {x: 0.7423058, y: 0, z: 0.67006123}
    - {x: 0.8451512, y: -0.00000012879728, z: 0.53452724}
    - {x: 0.9089423, y: -0.0000001286479, z: 0.416922}
    - {x: 0.9668851, y: 0, z: 0.25521213}
    - {x: 0.99615073, y: 0, z: 0.087657265}
    - {x: 0.99983996, y: 0, z: -0.017890165}
    - {x: 0.9948439, y: 0, z: -0.10141817}
    - {x: 0.9845634, y: 0, z: -0.17502813}
    - {x: 0.9679246, y: 0, z: -0.25124094}
    - {x: 0.94604737, y: 0, z: -0.32402837}
    - {x: 0.4931101, y: 0.000001917796, z: -0.8699669}
    - {x: -0.16514388, y: 0.0000014822198, z: -0.9862695}
    - {x: -0.74564767, y: 0, z: -0.6663404}
    - {x: -0.99696594, y: 0, z: -0.0778388}
    - {x: -0.98953426, y: 0, z: -0.14429802}
    - {x: -0.9780009, y: 0, z: -0.20860069}
    - {x: -0.9618727, y: 0, z: -0.27349752}
    - {x: -0.9243134, y: 0, z: -0.38163427}
    - {x: -0.8402334, y: 0.00000013312089, z: -0.542225}
    - {x: -0.7043404, y: 0.00000013320236, z: -0.70986235}
    - {x: -0.5488665, y: 0.00000015246924, z: -0.83591}
    - {x: -0.43091124, y: 0.00000031247578, z: -0.90239435}
    - {x: -0.35824066, y: 0.00000016037598, z: -0.9336293}
    - {x: -0.29144323, y: 0.00000023182858, z: -0.95658815}
    - {x: -0.76270485, y: 0.00000028248783, z: -0.64674664}
    bitangents:
    - {x: 0.64674664, y: 0, z: -0.76270485}
    - {x: -0.49241552, y: 0, z: -0.87036026}
    - {x: -0.886355, y: 0, z: -0.4630063}
    - {x: -0.81711525, y: 0, z: -0.57647437}
    - {x: -0.69321716, y: 0, z: -0.72072875}
    - {x: -0.5596052, y: 0, z: -0.8287594}
    - {x: -0.40556985, y: 0, z: -0.91406405}
    - {x: -0.6965251, y: 0, z: -0.7175324}
    - {x: -0.9952205, y: 0, z: 0.09765359}
    - {x: -0.84257275, y: 0, z: 0.53858256}
    - {x: -0.7861655, y: 0, z: 0.61801606}
    - {x: -0.67006123, y: 0, z: 0.7423058}
    - {x: -0.53452724, y: 0, z: 0.8451512}
    - {x: -0.416922, y: 0, z: 0.9089423}
    - {x: -0.25521213, y: 0, z: 0.9668851}
    - {x: -0.087657265, y: 0, z: 0.99615073}
    - {x: 0.017890165, y: -0, z: 0.99983996}
    - {x: 0.10141817, y: -0, z: 0.9948439}
    - {x: 0.17502813, y: -0, z: 0.9845634}
    - {x: 0.25124094, y: -0, z: 0.9679246}
    - {x: 0.32402837, y: -0, z: 0.94604737}
    - {x: 0.8699669, y: -0, z: 0.4931101}
    - {x: 0.9862695, y: 0, z: -0.16514388}
    - {x: 0.6663404, y: 0, z: -0.74564767}
    - {x: 0.0778388, y: 0, z: -0.99696594}
    - {x: 0.14429802, y: 0, z: -0.98953426}
    - {x: 0.20860069, y: 0, z: -0.9780009}
    - {x: 0.27349752, y: 0, z: -0.9618727}
    - {x: 0.38163427, y: 0, z: -0.9243134}
    - {x: 0.542225, y: 0, z: -0.8402334}
    - {x: 0.70986235, y: 0, z: -0.7043404}
    - {x: 0.83591, y: 0, z: -0.5488665}
    - {x: 0.90239435, y: 0, z: -0.43091124}
    - {x: 0.9336293, y: 0, z: -0.35824066}
    - {x: 0.95658815, y: 0, z: -0.29144323}
    - {x: 0.64674664, y: 0, z: -0.76270485}
    normals:
    - {x: 0, y: 1, z: 0}
    - {x: 0, y: 1, z: 0}
    - {x: 0, y: 1, z: 0}
    - {x: 0, y: 1, z: 0}
    - {x: 0, y: 1, z: 0}
    - {x: 0, y: 1, z: 0}
    - {x: 0, y: 1, z: 0}
    - {x: 0, y: 1, z: 0}
    - {x: 0, y: 1, z: 0}
    - {x: 0, y: 1, z: 0}
    - {x: 0, y: 1, z: 0}
    - {x: 0, y: 1, z: 0}
    - {x: 0, y: 1, z: 0}
    - {x: 0, y: 1, z: 0}
    - {x: 0, y: 1, z: 0}
    - {x: 0, y: 1, z: 0}
    - {x: 0, y: 1, z: 0}
    - {x: 0, y: 1, z: 0}
    - {x: 0, y: 1, z: 0}
    - {x: 0, y: 1, z: 0}
    - {x: 0, y: 1, z: 0}
    - {x: 0, y: 1, z: 0}
    - {x: 0, y: 1, z: 0}
    - {x: 0, y: 1, z: 0}
    - {x: 0, y: 1, z: 0}
    - {x: 0, y: 1, z: 0}
    - {x: 0, y: 1, z: 0}
    - {x: 0, y: 1, z: 0}
    - {x: 0, y: 1, z: 0}
    - {x: 0, y: 1, z: 0}
    - {x: 0, y: 1, z: 0}
    - {x: 0, y: 1, z: 0}
    - {x: 0, y: 1, z: 0}
    - {x: 0, y: 1, z: 0}
    - {x: 0, y: 1, z: 0}
    - {x: 0, y: 1, z: 0}
    timeTable:
    - Index: 0
      Value: 0
    - Index: 1
      Value: 0.0065360544
    - Index: 2
      Value: 0.026758686
    - Index: 3
      Value: 0.046439905
    - Index: 4
      Value: 0.071832195
    - Index: 5
      Value: 0.09588139
    - Index: 6
      Value: 0.12393885
    - Index: 7
      Value: 0.13871923
    - Index: 8
      Value: 0.15051074
    - Index: 9
      Value: 0.16650327
    - Index: 10
      Value: 0.20457682
    - Index: 11
      Value: 0.25148606
    - Index: 12
      Value: 0.29527494
    - Index: 13
      Value: 0.33470258
    - Index: 14
      Value: 0.3698864
    - Index: 15
      Value: 0.40468407
    - Index: 16
      Value: 0.43756476
    - Index: 17
      Value: 0.47301325
    - Index: 18
      Value: 0.50654876
    - Index: 19
      Value: 0.544553
    - Index: 20
      Value: 0.57918453
    - Index: 21
      Value: 0.60538787
    - Index: 22
      Value: 0.6088042
    - Index: 23
      Value: 0.60929185
    - Index: 24
      Value: 0.63511634
    - Index: 25
      Value: 0.6703962
    - Index: 26
      Value: 0.70568764
    - Index: 27
      Value: 0.74103385
    - Index: 28
      Value: 0.77440095
    - Index: 29
      Value: 0.8130485
    - Index: 30
      Value: 0.85129845
    - Index: 31
      Value: 0.88957834
    - Index: 32
      Value: 0.922923
    - Index: 33
      Value: 0.95451415
    - Index: 34
      Value: 0.9781424
    - Index: 35
      Value: 1
    vertexPathDistance: 0.091961265
  meshThickness: 0.0035
  uvArea: 0.1416668
  uvSize: {x: 0.6791667, y: 0, z: 0.14166671, w: 1}
