%YAML 1.1
%TAG !u! tag:unity3d.com,2011:
--- !u!114 &11400000
MonoBehaviour:
  m_ObjectHideFlags: 0
  m_CorrespondingSourceObject: {fileID: 0}
  m_PrefabInstance: {fileID: 0}
  m_PrefabAsset: {fileID: 0}
  m_GameObject: {fileID: 0}
  m_Enabled: 1
  m_EditorHideFlags: 0
  m_Script: {fileID: 11500000, guid: fb5eabf1a0dd445d9fe7a7f1cb629ab2, type: 3}
  m_Name: VoiceIntroConfig
  m_EditorClassIdentifier: 
  StateEnterClipsTerms:
  - general/voice/intro0
  - general/voice/intro1
  StateInClipsTerms: []
  StateExitClipsTerms:
  - general/voice/intro2
  WrongClipsTerms: []
  GrandDadPrefab: {fileID: 4761596155152581344, guid: 98edeb202af9c8d41ac2190b4c191536, type: 3}
  StateEnterClips:
  - {fileID: 8300000, guid: 201b4033314a2ee448dd60f8822dba17, type: 3}
  - {fileID: 8300000, guid: 2a24ef1297d124d4fb107b17e2e83150, type: 3}
  StateInClips: []
  StateExitClips:
  - {fileID: 8300000, guid: f0c242f31b5584f4e9c30ff336ba3a6b, type: 3}
  WrongClips: []
