%YAML 1.1
%TAG !u! tag:unity3d.com,2011:
--- !u!21 &2100000
Material:
  serializedVersion: 6
  m_ObjectHideFlags: 0
  m_CorrespondingSourceObject: {fileID: 0}
  m_PrefabInstance: {fileID: 0}
  m_PrefabAsset: {fileID: 0}
  m_Name: Unlit_PaintableDiffuseShader
  m_Shader: {fileID: 4800000, guid: 49ada3d5e83f9d544ae4727800a0a6ce, type: 3}
  m_ShaderKeywords: 
  m_LightmapFlags: 4
  m_EnableInstancingVariants: 0
  m_DoubleSidedGI: 0
  m_CustomRenderQueue: -1
  stringTagMap: {}
  disabledShaderPasses: []
  m_SavedProperties:
    serializedVersion: 3
    m_TexEnvs:
    - _MaskTexture:
        m_Texture: {fileID: 0}
        m_Scale: {x: 1, y: 1}
        m_Offset: {x: 0, y: 0}
    m_Floats:
    - _Opacity: 0.5
    m_Colors:
    - _AmbientColor: {r: 0.6981132, g: 0.6981132, b: 0.6981132, a: 1}
    - _Color1: {r: 1, g: 1, b: 1, a: 1}
    - _Color2: {r: 0.25, g: 1, b: 0.28120732, a: 1}
  m_BuildTextureStacks: []
