{
    "name": "PWS.WoodCutting.Stages.InitialPlanksPlacementStage",
    "rootNamespace": "PWS.WoodCutting.Stages.InitialPlanksPlacementStage",
    "references": [
        "Leopotam.Ecs",
        "Modules.Root.ECS",
        "Modules.Root.ContainerComponentModel",
        "Modules.EditorExtensions.Editor",
        "Modules.ViewHub",
        "Modules.StateGroup",
        "Modules.UPhysics",
        "Modules.Audio",
        "Unity.XR.Interaction.Toolkit",
        "PWS.WoodCutting.Common",
        "PWS.Common.ItemDataHolder",
        "PWS.Common.RestartStage",
        "PWS.Common.UI",
        "PWS.Common.Audio",
        "PWS.Tutorial",
        "PWS.Common.ResultsEvaluation",
        "I2.Loc",
        "PWS.Common.TravelPoints",
        "PWS.Features.Achivements"
    ],
    "includePlatforms": [],
    "excludePlatforms": [],
    "allowUnsafeCode": false,
    "overrideReferences": false,
    "precompiledReferences": [],
    "autoReferenced": true,
    "defineConstraints": [],
    "versionDefines": [],
    "noEngineReferences": false
}