%YAML 1.1
%TAG !u! tag:unity3d.com,2011:
--- !u!114 &11400000
MonoBehaviour:
  m_ObjectHideFlags: 0
  m_CorrespondingSourceObject: {fileID: 0}
  m_PrefabInstance: {fileID: 0}
  m_PrefabAsset: {fileID: 0}
  m_GameObject: {fileID: 0}
  m_Enabled: 1
  m_EditorHideFlags: 0
  m_Script: {fileID: 11500000, guid: 6bff880bde3de7743a01603c3cf96142, type: 3}
  m_Name: VertexSubPathConfig1
  m_EditorClassIdentifier: 
  vertexPathData:
    vertex:
    - {x: 0.07363471, y: 0.015000213, z: -0.0054509393}
    - {x: 0.074005954, y: 0.015000213, z: -0.006283439}
    - {x: 0.07393845, y: 0.015000213, z: -0.007505938}
    - {x: 0.07336471, y: 0.015000213, z: -0.009163439}
    - {x: 0.07230346, y: 0.015000213, z: -0.010558439}
    - {x: 0.07096846, y: 0.015000215, z: -0.011942191}
    - {x: 0.06934471, y: 0.015000215, z: -0.013243439}
    - {x: 0.06743596, y: 0.015000215, z: -0.01437219}
    - {x: 0.06523096, y: 0.015000215, z: -0.015249688}
    - {x: 0.062725954, y: 0.015000215, z: -0.015797187}
    - {x: 0.059909705, y: 0.015000215, z: -0.015924688}
    - {x: 0.056785952, y: 0.015000215, z: -0.015557188}
    - {x: 0.0533397, y: 0.015000215, z: -0.014608435}
    - {x: 0.049570944, y: 0.015000215, z: -0.012995936}
    - {x: 0.0454722, y: 0.015000213, z: -0.010640936}
    - {x: 0.041035946, y: 0.015000213, z: -0.0074609346}
    - {x: 0.039610956, y: 0.015000213, z: -0.006358433}
    - {x: 0.038039703, y: 0.015000212, z: -0.005180934}
    - {x: 0.03633346, y: 0.015000212, z: -0.003962183}
    - {x: 0.03450721, y: 0.015000212, z: -0.0027359326}
    - {x: 0.03257971, y: 0.015000212, z: -0.001528434}
    - {x: 0.030558454, y: 0.015000212, z: -0.00036968247}
    - {x: 0.028462203, y: 0.015000211, z: 0.00070656714}
    - {x: 0.026305953, y: 0.015000211, z: 0.0016740679}
    - {x: 0.024100954, y: 0.015000211, z: 0.002499067}
    - {x: 0.021862203, y: 0.015000211, z: 0.0031553179}
    - {x: 0.019604707, y: 0.015000211, z: 0.0036090694}
    - {x: 0.017343456, y: 0.015000211, z: 0.003830318}
    - {x: 0.016098456, y: 0.015000211, z: 0.0040928167}
    - {x: 0.0155697055, y: 0.015000211, z: 0.0046628197}
    - {x: 0.015730957, y: 0.015000211, z: 0.00540907}
    - {x: 0.01655596, y: 0.01500021, z: 0.006204069}
    - {x: 0.018018456, y: 0.01500021, z: 0.0069203195}
    - {x: 0.02008471, y: 0.01500021, z: 0.007426568}
    - {x: 0.0227322, y: 0.01500021, z: 0.0075915684}
    - {x: 0.025930958, y: 0.01500021, z: 0.0072953184}
    - {x: 0.029654706, y: 0.01500021, z: 0.006402817}
    - {x: 0.033873457, y: 0.015000211, z: 0.0047903177}
    - {x: 0.038564708, y: 0.015000211, z: 0.002322816}
    - {x: 0.04369471, y: 0.015000212, z: -0.0011234353}
    - {x: 0.044669706, y: 0.015000212, z: -0.0018846854}
    - {x: 0.045820963, y: 0.015000212, z: -0.0027134337}
    - {x: 0.04711846, y: 0.015000212, z: -0.0035759353}
    - {x: 0.04853971, y: 0.015000212, z: -0.004438435}
    - {x: 0.050058458, y: 0.015000212, z: -0.005270935}
    - {x: 0.051640954, y: 0.015000213, z: -0.006039684}
    - {x: 0.053264704, y: 0.015000213, z: -0.0067146844}
    - {x: 0.05490346, y: 0.015000213, z: -0.0072546876}
    - {x: 0.056527205, y: 0.015000213, z: -0.007633438}
    - {x: 0.058113452, y: 0.015000213, z: -0.007817188}
    - {x: 0.059628457, y: 0.015000213, z: -0.007768437}
    - {x: 0.061049707, y: 0.015000213, z: -0.0074609383}
    - {x: 0.06250096, y: 0.015000213, z: -0.0069734375}
    - {x: 0.06409096, y: 0.015000213, z: -0.0064371875}
    - {x: 0.06575221, y: 0.015000213, z: -0.005904687}
    - {x: 0.06741721, y: 0.015000213, z: -0.0054209395}
    - {x: 0.06902971, y: 0.015000212, z: -0.0050346903}
    - {x: 0.07052221, y: 0.015000212, z: -0.004798438}
    - {x: 0.07183096, y: 0.015000212, z: -0.0047571897}
    - {x: 0.07288846, y: 0.015000212, z: -0.004959689}
    - {x: 0.07363471, y: 0.015000213, z: -0.0054509393}
    tangents:
    - {x: 0.6473059, y: 0.0000005430465, z: -0.76223034}
    - {x: 0.18115148, y: 0, z: -0.9834552}
    - {x: -0.19298111, y: 0, z: -0.9812025}
    - {x: -0.47220764, y: 0, z: -0.8814873}
    - {x: -0.6510061, y: 0.0000004851997, z: -0.7590725}
    - {x: -0.73883545, y: 0.0000004853576, z: -0.6738859}
    - {x: -0.8226089, y: 0, z: -0.56860757}
    - {x: -0.8976482, y: 0, z: -0.4407127}
    - {x: -0.95623004, y: 0, z: -0.29261613}
    - {x: -0.9915346, y: 0, z: -0.1298428}
    - {x: -0.9993545, y: 0, z: 0.035925355}
    - {x: -0.9814568, y: 0, z: 0.19168325}
    - {x: -0.94392675, y: 0, z: 0.33015487}
    - {x: -0.89476156, y: -0.00000019735553, z: 0.44654423}
    - {x: -0.840973, y: -0.00000019726527, z: 0.54107714}
    - {x: -0.801971, y: 0, z: 0.59736294}
    - {x: -0.7955966, y: -0.00000023716554, z: 0.60582674}
    - {x: -0.8070337, y: -0.00000023717404, z: 0.59050536}
    - {x: -0.8220569, y: 0, z: 0.5694054}
    - {x: -0.83893126, y: 0, z: 0.5442373}
    - {x: -0.8576599, y: 0, z: 0.51421744}
    - {x: -0.8788103, y: -0.00000019766905, z: 0.47717127}
    - {x: -0.90129524, y: -0.00000019768451, z: 0.43320525}
    - {x: -0.9249483, y: 0, z: 0.380093}
    - {x: -0.9487357, y: 0, z: 0.31607038}
    - {x: -0.9709206, y: 0, z: 0.23940179}
    - {x: -0.98907626, y: 0, z: 0.14740479}
    - {x: -0.9883692, y: 0, z: 0.1520736}
    - {x: -0.87011445, y: 0, z: 0.49284974}
    - {x: -0.26435086, y: 0, z: 0.9644266}
    - {x: 0.48674816, y: -0.00000042486016, z: 0.87354237}
    - {x: 0.81899166, y: -0.00000041141777, z: 0.5738054}
    - {x: 0.94011045, y: 0, z: 0.34087008}
    - {x: 0.9885822, y: 0, z: 0.1506826}
    - {x: 0.9998867, y: 0, z: -0.015053293}
    - {x: 0.9866154, y: 0, z: -0.16306423}
    - {x: 0.95528805, y: 0.000000103321824, z: -0.2956768}
    - {x: 0.91118264, y: 0.00000010328732, z: -0.41200268}
    - {x: 0.8587989, y: 0.0000000754572, z: -0.5123128}
    - {x: 0.8096615, y: 0.000000075396585, z: -0.58689713}
    - {x: 0.80004895, y: 0, z: -0.59993476}
    - {x: 0.8223305, y: 0, z: -0.56901014}
    - {x: 0.84402114, y: 0, z: -0.5363099}
    - {x: 0.8661075, y: 0, z: -0.49985772}
    - {x: 0.88846123, y: 0.00000026476005, z: -0.45895168}
    - {x: 0.9118245, y: 0.00000026479213, z: -0.41058007}
    - {x: 0.9372486, y: 0, z: -0.34866187}
    - {x: 0.9627673, y: 0, z: -0.27033147}
    - {x: 0.98520285, y: 0, z: -0.17139225}
    - {x: 0.99913573, y: 0, z: -0.04156687}
    - {x: 0.9924915, y: 0, z: 0.1223137}
    - {x: 0.96415037, y: 0, z: 0.2653566}
    - {x: 0.94775313, y: 0, z: 0.31900474}
    - {x: 0.949944, y: 0, z: 0.3124201}
    - {x: 0.95637244, y: 0, z: 0.2921503}
    - {x: 0.9666646, y: -0.0000002809176, z: 0.25604582}
    - {x: 0.98084414, y: -0.00000028105222, z: 0.1947942}
    - {x: 0.99556184, y: 0, z: 0.094109215}
    - {x: 0.9968933, y: 0, z: -0.078764215}
    - {x: 0.9265389, y: 0.00000053143265, z: -0.37619892}
    - {x: 0.6473059, y: 0.0000005430465, z: -0.76223034}
    bitangents:
    - {x: 0.76223034, y: -0, z: 0.6473059}
    - {x: 0.9834552, y: -0, z: 0.18115148}
    - {x: 0.9812025, y: 0, z: -0.19298111}
    - {x: 0.8814873, y: 0, z: -0.47220764}
    - {x: 0.7590725, y: 0, z: -0.6510061}
    - {x: 0.6738859, y: 0, z: -0.73883545}
    - {x: 0.56860757, y: 0, z: -0.8226089}
    - {x: 0.4407127, y: 0, z: -0.8976482}
    - {x: 0.29261613, y: 0, z: -0.95623004}
    - {x: 0.1298428, y: 0, z: -0.9915346}
    - {x: -0.035925355, y: 0, z: -0.9993545}
    - {x: -0.19168325, y: 0, z: -0.9814568}
    - {x: -0.33015487, y: 0, z: -0.94392675}
    - {x: -0.44654423, y: 0, z: -0.89476156}
    - {x: -0.54107714, y: 0, z: -0.840973}
    - {x: -0.59736294, y: 0, z: -0.801971}
    - {x: -0.60582674, y: 0, z: -0.7955966}
    - {x: -0.59050536, y: 0, z: -0.8070337}
    - {x: -0.5694054, y: 0, z: -0.8220569}
    - {x: -0.5442373, y: 0, z: -0.83893126}
    - {x: -0.51421744, y: 0, z: -0.8576599}
    - {x: -0.47717127, y: 0, z: -0.8788103}
    - {x: -0.43320525, y: 0, z: -0.90129524}
    - {x: -0.380093, y: 0, z: -0.9249483}
    - {x: -0.31607038, y: 0, z: -0.9487357}
    - {x: -0.23940179, y: 0, z: -0.9709206}
    - {x: -0.14740479, y: 0, z: -0.98907626}
    - {x: -0.1520736, y: 0, z: -0.9883692}
    - {x: -0.49284974, y: 0, z: -0.87011445}
    - {x: -0.9644266, y: 0, z: -0.26435086}
    - {x: -0.87354237, y: 0, z: 0.48674816}
    - {x: -0.5738054, y: 0, z: 0.81899166}
    - {x: -0.34087008, y: 0, z: 0.94011045}
    - {x: -0.1506826, y: 0, z: 0.9885822}
    - {x: 0.015053293, y: -0, z: 0.9998867}
    - {x: 0.16306423, y: -0, z: 0.9866154}
    - {x: 0.2956768, y: -0, z: 0.95528805}
    - {x: 0.41200268, y: -0, z: 0.91118264}
    - {x: 0.5123128, y: -0, z: 0.8587989}
    - {x: 0.58689713, y: -0, z: 0.8096615}
    - {x: 0.59993476, y: -0, z: 0.80004895}
    - {x: 0.56901014, y: -0, z: 0.8223305}
    - {x: 0.5363099, y: -0, z: 0.84402114}
    - {x: 0.49985772, y: -0, z: 0.8661075}
    - {x: 0.45895168, y: -0, z: 0.88846123}
    - {x: 0.41058007, y: -0, z: 0.9118245}
    - {x: 0.34866187, y: -0, z: 0.9372486}
    - {x: 0.27033147, y: -0, z: 0.9627673}
    - {x: 0.17139225, y: -0, z: 0.98520285}
    - {x: 0.04156687, y: -0, z: 0.99913573}
    - {x: -0.1223137, y: 0, z: 0.9924915}
    - {x: -0.2653566, y: 0, z: 0.96415037}
    - {x: -0.31900474, y: 0, z: 0.94775313}
    - {x: -0.3124201, y: 0, z: 0.949944}
    - {x: -0.2921503, y: 0, z: 0.95637244}
    - {x: -0.25604582, y: 0, z: 0.9666646}
    - {x: -0.1947942, y: 0, z: 0.98084414}
    - {x: -0.094109215, y: 0, z: 0.99556184}
    - {x: 0.078764215, y: -0, z: 0.9968933}
    - {x: 0.37619892, y: -0, z: 0.9265389}
    - {x: 0.76223034, y: -0, z: 0.6473059}
    normals:
    - {x: 0, y: 1, z: 0}
    - {x: 0, y: 1, z: 0}
    - {x: 0, y: 1, z: 0}
    - {x: 0, y: 1, z: 0}
    - {x: 0, y: 1, z: 0}
    - {x: 0, y: 1, z: 0}
    - {x: 0, y: 1, z: 0}
    - {x: 0, y: 1, z: 0}
    - {x: 0, y: 1, z: 0}
    - {x: 0, y: 1, z: 0}
    - {x: 0, y: 1, z: 0}
    - {x: 0, y: 1, z: 0}
    - {x: 0, y: 1, z: 0}
    - {x: 0, y: 1, z: 0}
    - {x: 0, y: 1, z: 0}
    - {x: 0, y: 1, z: 0}
    - {x: 0, y: 1, z: 0}
    - {x: 0, y: 1, z: 0}
    - {x: 0, y: 1, z: 0}
    - {x: 0, y: 1, z: 0}
    - {x: 0, y: 1, z: 0}
    - {x: 0, y: 1, z: 0}
    - {x: 0, y: 1, z: 0}
    - {x: 0, y: 1, z: 0}
    - {x: 0, y: 1, z: 0}
    - {x: 0, y: 1, z: 0}
    - {x: 0, y: 1, z: 0}
    - {x: 0, y: 1, z: 0}
    - {x: 0, y: 1, z: 0}
    - {x: 0, y: 1, z: 0}
    - {x: 0, y: 1, z: 0}
    - {x: 0, y: 1, z: 0}
    - {x: 0, y: 1, z: 0}
    - {x: 0, y: 1, z: 0}
    - {x: 0, y: 1, z: 0}
    - {x: 0, y: 1, z: 0}
    - {x: 0, y: 1, z: 0}
    - {x: 0, y: 1, z: 0}
    - {x: 0, y: 1, z: 0}
    - {x: 0, y: 1, z: 0}
    - {x: 0, y: 1, z: 0}
    - {x: 0, y: 1, z: 0}
    - {x: 0, y: 1, z: 0}
    - {x: 0, y: 1, z: 0}
    - {x: 0, y: 1, z: 0}
    - {x: 0, y: 1, z: 0}
    - {x: 0, y: 1, z: 0}
    - {x: 0, y: 1, z: 0}
    - {x: 0, y: 1, z: 0}
    - {x: 0, y: 1, z: 0}
    - {x: 0, y: 1, z: 0}
    - {x: 0, y: 1, z: 0}
    - {x: 0, y: 1, z: 0}
    - {x: 0, y: 1, z: 0}
    - {x: 0, y: 1, z: 0}
    - {x: 0, y: 1, z: 0}
    - {x: 0, y: 1, z: 0}
    - {x: 0, y: 1, z: 0}
    - {x: 0, y: 1, z: 0}
    - {x: 0, y: 1, z: 0}
    - {x: 0, y: 1, z: 0}
    timeTable:
    - Index: 0
      Value: 0
    - Index: 1
      Value: 0.006858741
    - Index: 2
      Value: 0.016071388
    - Index: 3
      Value: 0.02926922
    - Index: 4
      Value: 0.04245803
    - Index: 5
      Value: 0.056925744
    - Index: 6
      Value: 0.07258277
    - Index: 7
      Value: 0.08926841
    - Index: 8
      Value: 0.107125364
    - Index: 9
      Value: 0.1264191
    - Index: 10
      Value: 0.14763154
    - Index: 11
      Value: 0.17129818
    - Index: 12
      Value: 0.19819406
    - Index: 13
      Value: 0.22903852
    - Index: 14
      Value: 0.26460758
    - Index: 15
      Value: 0.3056781
    - Index: 16
      Value: 0.31923488
    - Index: 17
      Value: 0.33400917
    - Index: 18
      Value: 0.34978655
    - Index: 19
      Value: 0.3663384
    - Index: 20
      Value: 0.38345274
    - Index: 21
      Value: 0.40098354
    - Index: 22
      Value: 0.4187141
    - Index: 23
      Value: 0.43649712
    - Index: 24
      Value: 0.4542118
    - Index: 25
      Value: 0.471766
    - Index: 26
      Value: 0.48909217
    - Index: 27
      Value: 0.5061881
    - Index: 28
      Value: 0.515762
    - Index: 29
      Value: 0.5216121
    - Index: 30
      Value: 0.52735686
    - Index: 31
      Value: 0.5359777
    - Index: 32
      Value: 0.54823107
    - Index: 33
      Value: 0.56423837
    - Index: 34
      Value: 0.5841979
    - Index: 35
      Value: 0.60836977
    - Index: 36
      Value: 0.63718253
    - Index: 37
      Value: 0.67116606
    - Index: 38
      Value: 0.7110502
    - Index: 39
      Value: 0.757552
    - Index: 40
      Value: 0.76685965
    - Index: 41
      Value: 0.7775333
    - Index: 42
      Value: 0.7892565
    - Index: 43
      Value: 0.8017658
    - Index: 44
      Value: 0.8147978
    - Index: 45
      Value: 0.82803583
    - Index: 46
      Value: 0.8412673
    - Index: 47
      Value: 0.85425025
    - Index: 48
      Value: 0.8667961
    - Index: 49
      Value: 0.87881154
    - Index: 50
      Value: 0.890217
    - Index: 51
      Value: 0.90115863
    - Index: 52
      Value: 0.9126781
    - Index: 53
      Value: 0.9253041
    - Index: 54
      Value: 0.93843055
    - Index: 55
      Value: 0.9514768
    - Index: 56
      Value: 0.9639532
    - Index: 57
      Value: 0.97532326
    - Index: 58
      Value: 0.9851757
    - Index: 59
      Value: 0.99327743
    - Index: 60
      Value: 1
    vertexPathDistance: 0.1329
  meshThickness: 0.0035
  uvArea: 0.46250018
  uvSize: {x: 0.5125, y: 0, z: 0.46250004, w: 1}
