%YAML 1.1
%TAG !u! tag:unity3d.com,2011:
--- !u!1 &7573011955465863385
GameObject:
  m_ObjectHideFlags: 0
  m_CorrespondingSourceObject: {fileID: 0}
  m_PrefabInstance: {fileID: 0}
  m_PrefabAsset: {fileID: 0}
  serializedVersion: 6
  m_Component:
  - component: {fileID: 6300044717796536502}
  m_Layer: 0
  m_Name: Polka_Decor_2 1
  m_TagString: Untagged
  m_Icon: {fileID: 0}
  m_NavMeshLayer: 0
  m_StaticEditorFlags: 0
  m_IsActive: 1
--- !u!4 &6300044717796536502
Transform:
  m_ObjectHideFlags: 0
  m_CorrespondingSourceObject: {fileID: 0}
  m_PrefabInstance: {fileID: 0}
  m_PrefabAsset: {fileID: 0}
  m_GameObject: {fileID: 7573011955465863385}
  m_LocalRotation: {x: 0, y: 0, z: 0, w: 1}
  m_LocalPosition: {x: 0, y: 0, z: 0}
  m_LocalScale: {x: 1, y: 1, z: 1}
  m_Children:
  - {fileID: 7524640551391798705}
  - {fileID: 1005405298199323858}
  m_Father: {fileID: 0}
  m_RootOrder: 0
  m_LocalEulerAnglesHint: {x: 0, y: 0, z: 0}
--- !u!1001 &4800281544254277034
PrefabInstance:
  m_ObjectHideFlags: 0
  serializedVersion: 2
  m_Modification:
    m_TransformParent: {fileID: 6300044717796536502}
    m_Modifications:
    - target: {fileID: 2430029256603384481, guid: 297119c271b48fb42b76f3a818d6e0f0, type: 3}
      propertyPath: m_Name
      value: polka_decor_2
      objectReference: {fileID: 0}
    - target: {fileID: 3094784484299956251, guid: 297119c271b48fb42b76f3a818d6e0f0, type: 3}
      propertyPath: m_LocalPosition.x
      value: 0
      objectReference: {fileID: 0}
    - target: {fileID: 3094784484299956251, guid: 297119c271b48fb42b76f3a818d6e0f0, type: 3}
      propertyPath: m_LocalPosition.y
      value: 0
      objectReference: {fileID: 0}
    - target: {fileID: 3094784484299956251, guid: 297119c271b48fb42b76f3a818d6e0f0, type: 3}
      propertyPath: m_LocalPosition.z
      value: 0
      objectReference: {fileID: 0}
    - target: {fileID: 3094784484299956251, guid: 297119c271b48fb42b76f3a818d6e0f0, type: 3}
      propertyPath: m_LocalRotation.x
      value: -0.7071068
      objectReference: {fileID: 0}
    - target: {fileID: 3094784484299956251, guid: 297119c271b48fb42b76f3a818d6e0f0, type: 3}
      propertyPath: m_LocalRotation.y
      value: -0
      objectReference: {fileID: 0}
    - target: {fileID: 3094784484299956251, guid: 297119c271b48fb42b76f3a818d6e0f0, type: 3}
      propertyPath: m_LocalRotation.z
      value: -0
      objectReference: {fileID: 0}
    - target: {fileID: 3094784484299956251, guid: 297119c271b48fb42b76f3a818d6e0f0, type: 3}
      propertyPath: m_LocalRotation.w
      value: 0.7071068
      objectReference: {fileID: 0}
    - target: {fileID: 3094784484299956251, guid: 297119c271b48fb42b76f3a818d6e0f0, type: 3}
      propertyPath: m_RootOrder
      value: 0
      objectReference: {fileID: 0}
    - target: {fileID: 3094784484299956251, guid: 297119c271b48fb42b76f3a818d6e0f0, type: 3}
      propertyPath: m_LocalEulerAnglesHint.x
      value: 0
      objectReference: {fileID: 0}
    - target: {fileID: 3094784484299956251, guid: 297119c271b48fb42b76f3a818d6e0f0, type: 3}
      propertyPath: m_LocalEulerAnglesHint.y
      value: 0
      objectReference: {fileID: 0}
    - target: {fileID: 3094784484299956251, guid: 297119c271b48fb42b76f3a818d6e0f0, type: 3}
      propertyPath: m_LocalEulerAnglesHint.z
      value: 0
      objectReference: {fileID: 0}
    m_RemovedComponents: []
  m_SourcePrefab: {fileID: 100100000, guid: 297119c271b48fb42b76f3a818d6e0f0, type: 3}
--- !u!4 &7524640551391798705 stripped
Transform:
  m_CorrespondingSourceObject: {fileID: 3094784484299956251, guid: 297119c271b48fb42b76f3a818d6e0f0, type: 3}
  m_PrefabInstance: {fileID: 4800281544254277034}
  m_PrefabAsset: {fileID: 0}
--- !u!1001 &4828280100496542011
PrefabInstance:
  m_ObjectHideFlags: 0
  serializedVersion: 2
  m_Modification:
    m_TransformParent: {fileID: 6300044717796536502}
    m_Modifications:
    - target: {fileID: 5024123059123533651, guid: 836e9e97cc0550e41a87db65146cc921, type: 3}
      propertyPath: m_Name
      value: clay_decor_2
      objectReference: {fileID: 0}
    - target: {fileID: 5688774073934966249, guid: 836e9e97cc0550e41a87db65146cc921, type: 3}
      propertyPath: m_LocalPosition.x
      value: 0
      objectReference: {fileID: 0}
    - target: {fileID: 5688774073934966249, guid: 836e9e97cc0550e41a87db65146cc921, type: 3}
      propertyPath: m_LocalPosition.y
      value: 0.125
      objectReference: {fileID: 0}
    - target: {fileID: 5688774073934966249, guid: 836e9e97cc0550e41a87db65146cc921, type: 3}
      propertyPath: m_LocalPosition.z
      value: -0
      objectReference: {fileID: 0}
    - target: {fileID: 5688774073934966249, guid: 836e9e97cc0550e41a87db65146cc921, type: 3}
      propertyPath: m_LocalRotation.x
      value: -0.7071068
      objectReference: {fileID: 0}
    - target: {fileID: 5688774073934966249, guid: 836e9e97cc0550e41a87db65146cc921, type: 3}
      propertyPath: m_LocalRotation.y
      value: -0
      objectReference: {fileID: 0}
    - target: {fileID: 5688774073934966249, guid: 836e9e97cc0550e41a87db65146cc921, type: 3}
      propertyPath: m_LocalRotation.z
      value: -0
      objectReference: {fileID: 0}
    - target: {fileID: 5688774073934966249, guid: 836e9e97cc0550e41a87db65146cc921, type: 3}
      propertyPath: m_LocalRotation.w
      value: 0.7071068
      objectReference: {fileID: 0}
    - target: {fileID: 5688774073934966249, guid: 836e9e97cc0550e41a87db65146cc921, type: 3}
      propertyPath: m_RootOrder
      value: 1
      objectReference: {fileID: 0}
    - target: {fileID: 5688774073934966249, guid: 836e9e97cc0550e41a87db65146cc921, type: 3}
      propertyPath: m_LocalEulerAnglesHint.x
      value: 0
      objectReference: {fileID: 0}
    - target: {fileID: 5688774073934966249, guid: 836e9e97cc0550e41a87db65146cc921, type: 3}
      propertyPath: m_LocalEulerAnglesHint.y
      value: 0
      objectReference: {fileID: 0}
    - target: {fileID: 5688774073934966249, guid: 836e9e97cc0550e41a87db65146cc921, type: 3}
      propertyPath: m_LocalEulerAnglesHint.z
      value: 0
      objectReference: {fileID: 0}
    m_RemovedComponents: []
  m_SourcePrefab: {fileID: 100100000, guid: 836e9e97cc0550e41a87db65146cc921, type: 3}
--- !u!4 &1005405298199323858 stripped
Transform:
  m_CorrespondingSourceObject: {fileID: 5688774073934966249, guid: 836e9e97cc0550e41a87db65146cc921, type: 3}
  m_PrefabInstance: {fileID: 4828280100496542011}
  m_PrefabAsset: {fileID: 0}
