%YAML 1.1
%TAG !u! tag:unity3d.com,2011:
--- !u!114 &11400000
MonoBehaviour:
  m_ObjectHideFlags: 0
  m_CorrespondingSourceObject: {fileID: 0}
  m_PrefabInstance: {fileID: 0}
  m_PrefabAsset: {fileID: 0}
  m_GameObject: {fileID: 0}
  m_Enabled: 1
  m_EditorHideFlags: 0
  m_Script: {fileID: 11500000, guid: 6bff880bde3de7743a01603c3cf96142, type: 3}
  m_Name: VertexPathConfig
  m_EditorClassIdentifier: 
  vertexPathData:
    vertex:
    - {x: -0.0000056028366, y: 0.015000027, z: -0.13385251}
    - {x: -0.0020155907, y: 0.015000027, z: -0.13336876}
    - {x: -0.0044531226, y: 0.015000027, z: -0.13228121}
    - {x: -0.0070706606, y: 0.015000027, z: -0.13047376}
    - {x: -0.009616852, y: 0.015000026, z: -0.12784877}
    - {x: -0.011844397, y: 0.015000026, z: -0.12429002}
    - {x: -0.013540685, y: 0.015000025, z: -0.120619625}
    - {x: -0.015830636, y: 0.015000026, z: -0.12467995}
    - {x: -0.017356873, y: 0.015000026, z: -0.12708381}
    - {x: -0.019096851, y: 0.015000026, z: -0.12923995}
    - {x: -0.021035671, y: 0.015000027, z: -0.13100997}
    - {x: -0.023150623, y: 0.015000027, z: -0.1322588}
    - {x: -0.02542311, y: 0.015000027, z: -0.13284746}
    - {x: -0.027841926, y: 0.015000027, z: -0.13263372}
    - {x: -0.030380607, y: 0.015000027, z: -0.1314787}
    - {x: -0.03302437, y: 0.015000026, z: -0.12924376}
    - {x: -0.035754383, y: 0.015000026, z: -0.12579373}
    - {x: -0.03804922, y: 0.015000025, z: -0.121846944}
    - {x: -0.039175034, y: 0.015000025, z: -0.12176457}
    - {x: -0.041960597, y: 0.015000026, z: -0.12526122}
    - {x: -0.04407561, y: 0.015000026, z: -0.12718871}
    - {x: -0.04640436, y: 0.015000026, z: -0.12879375}
    - {x: -0.048916876, y: 0.015000027, z: -0.12994495}
    - {x: -0.051564336, y: 0.015000027, z: -0.1305075}
    - {x: -0.054309368, y: 0.015000027, z: -0.13034251}
    - {x: -0.057114363, y: 0.015000026, z: -0.12931505}
    - {x: -0.059938073, y: 0.015000026, z: -0.12729374}
    - {x: -0.06273568, y: 0.015000026, z: -0.124140054}
    - {x: -0.06547314, y: 0.015000025, z: -0.119722515}
    - {x: -0.06769681, y: 0.015000023, z: -0.11481336}
    - {x: -0.06872654, y: 0.015000023, z: -0.11468938}
    - {x: -0.070685625, y: 0.015000024, z: -0.11718753}
    - {x: -0.07235062, y: 0.015000025, z: -0.11873248}
    - {x: -0.074233115, y: 0.015000025, z: -0.12009004}
    - {x: -0.076310635, y: 0.015000025, z: -0.12116256}
    - {x: -0.078564405, y: 0.015000025, z: -0.12185255}
    - {x: -0.08096814, y: 0.015000025, z: -0.122062474}
    - {x: -0.08349937, y: 0.015000025, z: -0.12170246}
    - {x: -0.086135626, y: 0.015000025, z: -0.12067118}
    - {x: -0.08885437, y: 0.015000025, z: -0.11887875}
    - {x: -0.091636896, y: 0.015000023, z: -0.11622754}
    - {x: -0.09383488, y: 0.015000023, z: -0.11340526}
    - {x: -0.095092714, y: 0.015000023, z: -0.11338177}
    - {x: -0.0975281, y: 0.015000023, z: -0.11627999}
    - {x: -0.099485636, y: 0.015000024, z: -0.11795631}
    - {x: -0.10167563, y: 0.015000025, z: -0.11938122}
    - {x: -0.104071856, y: 0.015000025, z: -0.120438725}
    - {x: -0.10664064, y: 0.015000025, z: -0.121016294}
    - {x: -0.10935563, y: 0.015000025, z: -0.12100127}
    - {x: -0.112183124, y: 0.015000025, z: -0.12028125}
    - {x: -0.11509314, y: 0.015000025, z: -0.1187475}
    - {x: -0.11805564, y: 0.015000023, z: -0.11627999}
    - {x: -0.1210331, y: 0.015000023, z: -0.112773806}
    - {x: -0.123469055, y: 0.015000022, z: -0.10895553}
    - {x: -0.124543875, y: 0.015000022, z: -0.10895613}
    - {x: -0.12646315, y: 0.015000022, z: -0.11197129}
    - {x: -0.12805685, y: 0.015000023, z: -0.11381248}
    - {x: -0.12986815, y: 0.015000023, z: -0.11545125}
    - {x: -0.13187811, y: 0.015000023, z: -0.11677876}
    - {x: -0.13406059, y: 0.015000024, z: -0.1176863}
    - {x: -0.13640061, y: 0.015000024, z: -0.11805752}
    - {x: -0.1388756, y: 0.015000024, z: -0.11778751}
    - {x: -0.1414631, y: 0.015000023, z: -0.11677125}
    - {x: -0.14414436, y: 0.015000023, z: -0.1148887}
    - {x: -0.14689687, y: 0.015000022, z: -0.11204246}
    - {x: -0.14912418, y: 0.015000022, z: -0.10892609}
    - {x: -0.15051642, y: 0.015000022, z: -0.1086978}
    - {x: -0.15337309, y: 0.015000022, z: -0.11076}
    - {x: -0.15554813, y: 0.015000022, z: -0.11193004}
    - {x: -0.15787312, y: 0.015000023, z: -0.112882525}
    - {x: -0.16029564, y: 0.015000023, z: -0.11353126}
    - {x: -0.16276315, y: 0.015000023, z: -0.113789946}
    - {x: -0.1652194, y: 0.015000023, z: -0.11357251}
    - {x: -0.16761187, y: 0.015000023, z: -0.11279252}
    - {x: -0.16987684, y: 0.015000022, z: -0.1113638}
    - {x: -0.17196938, y: 0.015000022, z: -0.10920003}
    - {x: -0.17382935, y: 0.015000021, z: -0.10621503}
    - {x: -0.1750296, y: 0.015000021, z: -0.103245884}
    - {x: -0.17626956, y: 0.015000021, z: -0.10282031}
    - {x: -0.17942807, y: 0.015000021, z: -0.10465124}
    - {x: -0.18179062, y: 0.015000021, z: -0.105588704}
    - {x: -0.18430689, y: 0.015000021, z: -0.10625246}
    - {x: -0.1869094, y: 0.015000021, z: -0.10656002}
    - {x: -0.18954185, y: 0.015000021, z: -0.10642126}
    - {x: -0.19213685, y: 0.015000021, z: -0.10575369}
    - {x: -0.19463435, y: 0.015000021, z: -0.10446373}
    - {x: -0.19697064, y: 0.015000021, z: -0.102472454}
    - {x: -0.19908184, y: 0.01500002, z: -0.09968248}
    - {x: -0.20091182, y: 0.01500002, z: -0.09601501}
    - {x: -0.20208567, y: 0.015000018, z: -0.09233275}
    - {x: -0.20308346, y: 0.015000018, z: -0.092099935}
    - {x: -0.20591062, y: 0.015000018, z: -0.09503248}
    - {x: -0.20807439, y: 0.01500002, z: -0.096693784}
    - {x: -0.2104519, y: 0.01500002, z: -0.09809247}
    - {x: -0.2130019, y: 0.01500002, z: -0.099116236}
    - {x: -0.21567565, y: 0.01500002, z: -0.099648744}
    - {x: -0.21843189, y: 0.01500002, z: -0.09958127}
    - {x: -0.22122937, y: 0.01500002, z: -0.09879747}
    - {x: -0.22401935, y: 0.01500002, z: -0.097185045}
    - {x: -0.2267682, y: 0.015000018, z: -0.09462753}
    - {x: -0.2294231, y: 0.015000018, z: -0.0910162}
    - {x: -0.2314803, y: 0.015000017, z: -0.087115794}
    - {x: -0.23289245, y: 0.015000017, z: -0.086556464}
    - {x: -0.23610193, y: 0.015000017, z: -0.087659985}
    - {x: -0.2384569, y: 0.015000017, z: -0.08814004}
    - {x: -0.24089807, y: 0.015000017, z: -0.088383704}
    - {x: -0.24334687, y: 0.015000017, z: -0.08832005}
    - {x: -0.24572808, y: 0.015000017, z: -0.08788875}
    - {x: -0.24796683, y: 0.015000017, z: -0.08702627}
    - {x: -0.24999183, y: 0.015000017, z: -0.08566871}
    - {x: -0.25172812, y: 0.015000017, z: -0.08375254}
    - {x: -0.25309318, y: 0.015000016, z: -0.08121374}
    - {x: -0.25402313, y: 0.015000016, z: -0.07798496}
    - {x: -0.25432962, y: 0.0150000155, z: -0.07500103}
    - {x: -0.25538236, y: 0.015000015, z: -0.07431713}
    - {x: -0.25822693, y: 0.0150000155, z: -0.07524744}
    - {x: -0.26037556, y: 0.0150000155, z: -0.075671226}
    - {x: -0.2625994, y: 0.0150000155, z: -0.07589248}
    - {x: -0.26483434, y: 0.0150000155, z: -0.07585499}
    - {x: -0.26700932, y: 0.0150000155, z: -0.075502485}
    - {x: -0.26905686, y: 0.0150000155, z: -0.074778706}
    - {x: -0.27090937, y: 0.015000015, z: -0.07363501}
    - {x: -0.27249557, y: 0.015000014, z: -0.07200745}
    - {x: -0.2737519, y: 0.015000014, z: -0.069847494}
    - {x: -0.27460688, y: 0.015000014, z: -0.06710246}
    - {x: -0.2748801, y: 0.015000013, z: -0.0647023}
    - {x: -0.27599043, y: 0.015000013, z: -0.0637826}
    - {x: -0.27889317, y: 0.015000013, z: -0.06399754}
    - {x: -0.2811882, y: 0.015000013, z: -0.06390372}
    - {x: -0.28362936, y: 0.015000013, z: -0.06360379}
    - {x: -0.28616434, y: 0.015000013, z: -0.06306377}
    - {x: -0.28872555, y: 0.015000013, z: -0.062246233}
    - {x: -0.29125684, y: 0.015000013, z: -0.061113745}
    - {x: -0.29369813, y: 0.015000012, z: -0.059636265}
    - {x: -0.29598564, y: 0.015000012, z: -0.057779998}
    - {x: -0.2980594, y: 0.015000012, z: -0.05549994}
    - {x: -0.29986316, y: 0.01500001, z: -0.05276999}
    - {x: -0.30133694, y: 0.01500001, z: -0.04955247}
    - {x: -0.30366558, y: 0.015000009, z: -0.047602445}
    - {x: -0.30609936, y: 0.015000009, z: -0.044831216}
    - {x: -0.30821067, y: 0.015000008, z: -0.041347474}
    - {x: -0.30957943, y: 0.015000007, z: -0.037252486}
    - {x: -0.30978185, y: 0.015000007, z: -0.032658756}
    - {x: -0.30866855, y: 0.015000005, z: -0.028635025}
    - {x: -0.30940193, y: 0.015000005, z: -0.027671218}
    - {x: -0.3530206, y: 0.015000005, z: -0.027671218}
    - {x: -0.35402066, y: 0.015000005, z: -0.02667123}
    - {x: -0.35402066, y: 0.0150000015, z: -0.010007501}
    - {x: -0.3530206, y: 0.0150000015, z: -0.009007484}
    - {x: -0.3331769, y: 0.0150000015, z: -0.009007484}
    - {x: -0.33175987, y: 0.015000001, z: -0.008098602}
    - {x: -0.32167011, y: 0.014999997, z: 0.013892382}
    - {x: -0.3202532, y: 0.014999996, z: 0.014801264}
    - {x: -0.30940193, y: 0.014999996, z: 0.014801264}
    - {x: -0.30840188, y: 0.014999996, z: 0.01580128}
    - {x: -0.30840188, y: 0.014999973, z: 0.13285252}
    - {x: -0.30740196, y: 0.014999973, z: 0.13385251}
    - {x: 0.3074019, y: 0.014999973, z: 0.13385251}
    - {x: 0.30840188, y: 0.014999973, z: 0.13285252}
    - {x: 0.30840188, y: 0.014999996, z: 0.01580128}
    - {x: 0.30940187, y: 0.014999996, z: 0.014801264}
    - {x: 0.32025313, y: 0.014999996, z: 0.014801264}
    - {x: 0.32167006, y: 0.014999997, z: 0.013892323}
    - {x: 0.33175623, y: 0.015000001, z: -0.008098543}
    - {x: 0.33317316, y: 0.0150000015, z: -0.009007484}
    - {x: 0.35302067, y: 0.0150000015, z: -0.009007484}
    - {x: 0.3540206, y: 0.0150000015, z: -0.010007501}
    - {x: 0.3540206, y: 0.015000005, z: -0.02667123}
    - {x: 0.35302067, y: 0.015000005, z: -0.027671218}
    - {x: 0.30940187, y: 0.015000005, z: -0.027671218}
    - {x: 0.30866855, y: 0.015000005, z: -0.028635025}
    - {x: 0.3097819, y: 0.015000007, z: -0.032658756}
    - {x: 0.30957562, y: 0.015000007, z: -0.037252486}
    - {x: 0.30820692, y: 0.015000008, z: -0.041347474}
    - {x: 0.3060994, y: 0.015000009, z: -0.044831216}
    - {x: 0.30366564, y: 0.015000009, z: -0.047602445}
    - {x: 0.30133313, y: 0.01500001, z: -0.04955247}
    - {x: 0.2998631, y: 0.01500001, z: -0.05276999}
    - {x: 0.29805934, y: 0.015000012, z: -0.05549994}
    - {x: 0.29598188, y: 0.015000012, z: -0.057779998}
    - {x: 0.29369438, y: 0.015000012, z: -0.059636265}
    - {x: 0.2912569, y: 0.015000013, z: -0.061113745}
    - {x: 0.2887256, y: 0.015000013, z: -0.062246233}
    - {x: 0.2861644, y: 0.015000013, z: -0.06306377}
    - {x: 0.28362936, y: 0.015000013, z: -0.06360379}
    - {x: 0.28118438, y: 0.015000013, z: -0.06390372}
    - {x: 0.27888936, y: 0.015000013, z: -0.06399754}
    - {x: 0.27599037, y: 0.015000013, z: -0.0637826}
    - {x: 0.27488005, y: 0.015000013, z: -0.0647023}
    - {x: 0.27460688, y: 0.015000014, z: -0.06710246}
    - {x: 0.27375185, y: 0.015000014, z: -0.069847494}
    - {x: 0.27249563, y: 0.015000014, z: -0.07200745}
    - {x: 0.27090937, y: 0.015000015, z: -0.07363501}
    - {x: 0.26905692, y: 0.0150000155, z: -0.074778706}
    - {x: 0.26700938, y: 0.0150000155, z: -0.075502485}
    - {x: 0.2648344, y: 0.0150000155, z: -0.07585499}
    - {x: 0.26259935, y: 0.0150000155, z: -0.07589248}
    - {x: 0.26037186, y: 0.0150000155, z: -0.075671226}
    - {x: 0.25822312, y: 0.0150000155, z: -0.07524744}
    - {x: 0.25538224, y: 0.015000015, z: -0.074317366}
    - {x: 0.25432873, y: 0.0150000155, z: -0.07500091}
    - {x: 0.25401938, y: 0.015000016, z: -0.07798496}
    - {x: 0.25309312, y: 0.015000016, z: -0.08121374}
    - {x: 0.25172436, y: 0.015000017, z: -0.08375254}
    - {x: 0.2499919, y: 0.015000017, z: -0.08566871}
    - {x: 0.24796689, y: 0.015000017, z: -0.08702627}
    - {x: 0.24572438, y: 0.015000017, z: -0.08788875}
    - {x: 0.24334311, y: 0.015000017, z: -0.08832005}
    - {x: 0.24089813, y: 0.015000017, z: -0.088383704}
    - {x: 0.23845685, y: 0.015000017, z: -0.08814004}
    - {x: 0.23610187, y: 0.015000017, z: -0.087659985}
    - {x: 0.23288888, y: 0.015000017, z: -0.08655611}
    - {x: 0.23147714, y: 0.015000017, z: -0.08711603}
    - {x: 0.22942317, y: 0.015000018, z: -0.0910162}
    - {x: 0.22676438, y: 0.015000018, z: -0.09462753}
    - {x: 0.22401941, y: 0.01500002, z: -0.097185045}
    - {x: 0.22122562, y: 0.01500002, z: -0.09879747}
    - {x: 0.21842813, y: 0.01500002, z: -0.09958127}
    - {x: 0.2156719, y: 0.01500002, z: -0.099648744}
    - {x: 0.21299815, y: 0.01500002, z: -0.099116236}
    - {x: 0.2104519, y: 0.01500002, z: -0.09809247}
    - {x: 0.20807439, y: 0.01500002, z: -0.096693784}
    - {x: 0.20590687, y: 0.015000018, z: -0.09503248}
    - {x: 0.20308304, y: 0.015000018, z: -0.09210029}
    - {x: 0.20208496, y: 0.015000018, z: -0.09233251}
    - {x: 0.20090812, y: 0.01500002, z: -0.09601501}
    - {x: 0.1990819, y: 0.01500002, z: -0.09968248}
    - {x: 0.19696689, y: 0.015000021, z: -0.102472454}
    - {x: 0.19463062, y: 0.015000021, z: -0.10446373}
    - {x: 0.19213313, y: 0.015000021, z: -0.10575369}
    - {x: 0.18953812, y: 0.015000021, z: -0.10642126}
    - {x: 0.18690938, y: 0.015000021, z: -0.10656002}
    - {x: 0.1843031, y: 0.015000021, z: -0.10625246}
    - {x: 0.18179059, y: 0.015000021, z: -0.105588704}
    - {x: 0.1794281, y: 0.015000021, z: -0.10465494}
    - {x: 0.17626917, y: 0.015000021, z: -0.1028209}
    - {x: 0.17502964, y: 0.015000021, z: -0.103245884}
    - {x: 0.17382938, y: 0.015000021, z: -0.10621503}
    - {x: 0.17196941, y: 0.015000022, z: -0.10920003}
    - {x: 0.16987687, y: 0.015000022, z: -0.1113638}
    - {x: 0.16760814, y: 0.015000023, z: -0.11279252}
    - {x: 0.16521937, y: 0.015000023, z: -0.11357251}
    - {x: 0.16276312, y: 0.015000023, z: -0.113789946}
    - {x: 0.1602956, y: 0.015000023, z: -0.11353126}
    - {x: 0.15787315, y: 0.015000023, z: -0.112882525}
    - {x: 0.1555444, y: 0.015000022, z: -0.11193004}
    - {x: 0.15337312, y: 0.015000022, z: -0.11076}
    - {x: 0.15051645, y: 0.015000022, z: -0.1086978}
    - {x: 0.14912415, y: 0.015000022, z: -0.10892609}
    - {x: 0.14689684, y: 0.015000022, z: -0.11204246}
    - {x: 0.1441406, y: 0.015000023, z: -0.1148887}
    - {x: 0.14145935, y: 0.015000023, z: -0.11677125}
    - {x: 0.13887191, y: 0.015000024, z: -0.11778751}
    - {x: 0.13639688, y: 0.015000024, z: -0.11805752}
    - {x: 0.13406062, y: 0.015000024, z: -0.1176863}
    - {x: 0.13187438, y: 0.015000023, z: -0.11677876}
    - {x: 0.12986815, y: 0.015000023, z: -0.11545125}
    - {x: 0.12805688, y: 0.015000023, z: -0.11381248}
    - {x: 0.12646312, y: 0.015000022, z: -0.11197129}
    - {x: 0.12454069, y: 0.015000022, z: -0.10895577}
    - {x: 0.12346578, y: 0.015000022, z: -0.10895589}
    - {x: 0.12103313, y: 0.015000023, z: -0.112773806}
    - {x: 0.11805189, y: 0.015000023, z: -0.11627999}
    - {x: 0.11509311, y: 0.015000025, z: -0.1187475}
    - {x: 0.112183094, y: 0.015000025, z: -0.12028125}
    - {x: 0.10935563, y: 0.015000025, z: -0.12100127}
    - {x: 0.10664058, y: 0.015000025, z: -0.121016294}
    - {x: 0.104071856, y: 0.015000025, z: -0.120438725}
    - {x: 0.10167563, y: 0.015000025, z: -0.11938122}
    - {x: 0.09948188, y: 0.015000024, z: -0.11795631}
    - {x: 0.0975281, y: 0.015000023, z: -0.11627999}
    - {x: 0.09509277, y: 0.015000023, z: -0.11338177}
    - {x: 0.0938344, y: 0.015000023, z: -0.11340478}
    - {x: 0.09163308, y: 0.015000023, z: -0.11622754}
    - {x: 0.08885437, y: 0.015000025, z: -0.11887875}
    - {x: 0.086135626, y: 0.015000025, z: -0.12067118}
    - {x: 0.08349937, y: 0.015000025, z: -0.12170246}
    - {x: 0.08096814, y: 0.015000025, z: -0.122062474}
    - {x: 0.078564405, y: 0.015000025, z: -0.12185255}
    - {x: 0.076310635, y: 0.015000025, z: -0.12116256}
    - {x: 0.074233174, y: 0.015000025, z: -0.12009004}
    - {x: 0.07235062, y: 0.015000025, z: -0.11873248}
    - {x: 0.070685625, y: 0.015000024, z: -0.11718753}
    - {x: 0.06872332, y: 0.015000023, z: -0.1146889}
    - {x: 0.06769347, y: 0.015000023, z: -0.114813596}
    - {x: 0.06547308, y: 0.015000025, z: -0.119722515}
    - {x: 0.06273562, y: 0.015000026, z: -0.124140054}
    - {x: 0.059934378, y: 0.015000026, z: -0.12729374}
    - {x: 0.057114363, y: 0.015000026, z: -0.12931505}
    - {x: 0.054309368, y: 0.015000027, z: -0.13034251}
    - {x: 0.051564395, y: 0.015000027, z: -0.1305075}
    - {x: 0.04891312, y: 0.015000027, z: -0.12994495}
    - {x: 0.04640436, y: 0.015000026, z: -0.12879375}
    - {x: 0.044071913, y: 0.015000026, z: -0.12718871}
    - {x: 0.041960597, y: 0.015000026, z: -0.12526122}
    - {x: 0.039174974, y: 0.015000025, z: -0.12176457}
    - {x: 0.03804922, y: 0.015000025, z: -0.121846944}
    - {x: 0.035754383, y: 0.015000026, z: -0.12579373}
    - {x: 0.03302437, y: 0.015000026, z: -0.12924376}
    - {x: 0.030376852, y: 0.015000027, z: -0.1314787}
    - {x: 0.02783811, y: 0.015000027, z: -0.13263372}
    - {x: 0.02542317, y: 0.015000027, z: -0.13284746}
    - {x: 0.023146868, y: 0.015000027, z: -0.1322588}
    - {x: 0.021031857, y: 0.015000027, z: -0.13100997}
    - {x: 0.019096851, y: 0.015000026, z: -0.12923995}
    - {x: 0.017356873, y: 0.015000026, z: -0.12708381}
    - {x: 0.015830636, y: 0.015000026, z: -0.12467995}
    - {x: 0.013537228, y: 0.015000025, z: -0.120619446}
    - {x: 0.011840582, y: 0.015000026, z: -0.12429002}
    - {x: 0.009613156, y: 0.015000026, z: -0.12784877}
    - {x: 0.007066846, y: 0.015000027, z: -0.13047376}
    - {x: 0.004445672, y: 0.015000027, z: -0.13228121}
    - {x: 0.0020080805, y: 0.015000027, z: -0.13336876}
    - {x: -0.0000056028366, y: 0.015000027, z: -0.13385251}
    tangents:
    - {x: -1, y: 0, z: 0.00020876918}
    - {x: -0.9467137, y: 0, z: 0.32207638}
    - {x: -0.8717678, y: 0, z: 0.48991925}
    - {x: -0.76323986, y: -0.00000012795002, z: 0.64611524}
    - {x: -0.61683565, y: -0.0000001280454, z: 0.787092}
    - {x: -0.4759931, y: -0.00000011539561, z: 0.879449}
    - {x: -0.9991881, y: -0.00000003350851, z: 0.040288538}
    - {x: -0.51379704, y: 0.00000009992789, z: -0.8579118}
    - {x: -0.58293927, y: 0, z: -0.81251574}
    - {x: -0.6852404, y: 0.00000017788996, z: -0.7283169}
    - {x: -0.8040899, y: 0.00000017832713, z: -0.59450775}
    - {x: -0.9236006, y: 0, z: -0.3833562}
    - {x: -0.9965853, y: 0, z: -0.08256948}
    - {x: -0.96701497, y: 0, z: 0.2547195}
    - {x: -0.84491706, y: -0.00000013579208, z: 0.5348974}
    - {x: -0.69556594, y: -0.00000013518473, z: 0.7184622}
    - {x: -0.5630229, y: -0.000000102257076, z: 0.8264413}
    - {x: -0.84800607, y: -0.00000011532613, z: 0.5299866}
    - {x: -0.9161073, y: 0.000000117775734, z: -0.40093315}
    - {x: -0.68326104, y: 0.00000010449204, z: -0.73017424}
    - {x: -0.783044, y: 0, z: -0.62196636}
    - {x: -0.86952835, y: 0.00000016913071, z: -0.493883}
    - {x: -0.94939035, y: 0.00000016951947, z: -0.31409875}
    - {x: -0.9972135, y: 0, z: -0.074601166}
    - {x: -0.97894365, y: -0.00000015754853, z: 0.20413068}
    - {x: -0.884116, y: -0.0000001573158, z: 0.46726745}
    - {x: -0.7430252, y: 0, z: 0.6692635}
    - {x: -0.59735674, y: -0.00000008993073, z: 0.80197567}
    - {x: -0.47066152, y: -0.0000002629629, z: 0.8823139}
    - {x: -0.8064628, y: -0.00000019832177, z: 0.59128475}
    - {x: -0.9237771, y: 0.00000016832895, z: -0.38293076}
    - {x: -0.6771699, y: 0.00000035278916, z: -0.7358267}
    - {x: -0.77353364, y: 0.00000020540388, z: -0.6337552}
    - {x: -0.85217315, y: 0, z: -0.5232599}
    - {x: -0.9261113, y: 0, z: -0.3772505}
    - {x: -0.9816056, y: 0, z: -0.19092008}
    - {x: -0.99963325, y: 0, z: 0.027080536}
    - {x: -0.96713525, y: 0, z: 0.25426257}
    - {x: -0.88797075, y: 0, z: 0.45989993}
    - {x: -0.78254306, y: -0.00000024328705, z: 0.6225965}
    - {x: -0.6710456, y: -0.00000024298413, z: 0.74141604}
    - {x: -0.89431715, y: 0, z: 0.4474336}
    - {x: -0.9103594, y: 0, z: -0.4138186}
    - {x: -0.7038018, y: 0.00000018129207, z: -0.7103963}
    - {x: -0.8006023, y: 0.00000035968654, z: -0.59919614}
    - {x: -0.8793881, y: 0.00000017880743, z: -0.4761057}
    - {x: -0.9497411, y: 0, z: -0.31303647}
    - {x: -0.9941935, y: 0, z: -0.107606925}
    - {x: -0.99189025, y: 0, z: 0.12709703}
    - {x: -0.9333345, y: 0, z: 0.359008}
    - {x: -0.8310658, y: -0.00000024288616, z: 0.5561742}
    - {x: -0.7104714, y: -0.00000024245458, z: 0.7037261}
    - {x: -0.5939438, y: -0.00000010305331, z: 0.80450654}
    - {x: -0.8770142, y: -0.00000011726817, z: 0.4804645}
    - {x: -0.8765025, y: 0, z: -0.48139727}
    - {x: -0.59732723, y: 0.00000019174112, z: -0.80199754}
    - {x: -0.6993006, y: 0.00000019158178, z: -0.7148277}
    - {x: -0.790258, y: 0, z: -0.61277425}
    - {x: -0.8828555, y: 0.00000019789782, z: -0.46964478}
    - {x: -0.9622342, y: 0.00000019839742, z: -0.27222297}
    - {x: -0.999704, y: 0, z: -0.024328915}
    - {x: -0.9709908, y: -0.00000016899703, z: 0.23911688}
    - {x: -0.88082415, y: -0.00000016870126, z: 0.47344354}
    - {x: -0.7602222, y: -0.000000118139596, z: 0.64966315}
    - {x: -0.64007455, y: -0.00000011793024, z: 0.7683129}
    - {x: -0.8491651, y: 0, z: 0.52812755}
    - {x: -0.9733528, y: 0, z: -0.22931275}
    - {x: -0.8475726, y: 0, z: -0.53067946}
    - {x: -0.90425, y: 0.0000001855895, z: -0.42700332}
    - {x: -0.9475756, y: 0.00000018571036, z: -0.31953168}
    - {x: -0.98329216, y: 0, z: -0.18203443}
    - {x: -0.99996734, y: 0, z: -0.008080031}
    - {x: -0.97972286, y: 0, z: 0.20035756}
    - {x: -0.9051977, y: -0.00000017522889, z: 0.4249907}
    - {x: -0.77603525, y: -0.00000017514081, z: 0.63068956}
    - {x: -0.6154443, y: -0.00000013314413, z: 0.78818035}
    - {x: -0.45350736, y: -0.00000013289814, z: 0.8912525}
    - {x: -0.7257796, y: 0, z: 0.68792725}
    - {x: -0.995264, y: 0, z: -0.09720876}
    - {x: -0.8997735, y: 0, z: -0.43635723}
    - {x: -0.94991624, y: 0, z: -0.3125045}
    - {x: -0.98242265, y: 0, z: -0.1866703}
    - {x: -0.99947244, y: 0, z: -0.032479078}
    - {x: -0.9884357, y: 0, z: 0.15164046}
    - {x: -0.9343813, y: 0, z: 0.35627457}
    - {x: -0.83021593, y: 0, z: 0.55744195}
    - {x: -0.68628466, y: -0.00000013388296, z: 0.72733307}
    - {x: -0.527202, y: -0.00000013366554, z: 0.84973997}
    - {x: -0.37622175, y: -0.00000024169177, z: 0.92652965}
    - {x: -0.7346042, y: -0.0000002771205, z: 0.6784959}
    - {x: -0.95903224, y: 0, z: -0.283297}
    - {x: -0.74568206, y: 0.00000034234628, z: -0.6663019}
    - {x: -0.8291129, y: 0.00000034204464, z: -0.55908126}
    - {x: -0.8974797, y: 0, z: -0.44105574}
    - {x: -0.95847684, y: 0, z: -0.28517053}
    - {x: -0.9962993, y: 0, z: -0.085951045}
    - {x: -0.9889459, y: 0, z: 0.14827684}
    - {x: -0.9216026, y: 0, z: 0.3881348}
    - {x: -0.8040638, y: -0.00000024963066, z: 0.59454304}
    - {x: -0.66514516, y: -0.00000024914226, z: 0.74671406}
    - {x: -0.5308843, y: -0.000000105892, z: 0.8474443}
    - {x: -0.7443165, y: -0.0000001125873, z: 0.667827}
    - {x: -0.999736, y: 0, z: 0.02297568}
    - {x: -0.9647957, y: 0, z: -0.26300052}
    - {x: -0.9887279, y: 0, z: -0.14972334}
    - {x: -0.9993249, y: 0, z: -0.036739357}
    - {x: -0.9947426, y: 0, z: 0.10240689}
    - {x: -0.96284354, y: 0, z: 0.27005994}
    - {x: -0.8873857, y: 0, z: 0.46102777}
    - {x: -0.75666827, y: 0, z: 0.65379906}
    - {x: -0.57676387, y: -0.00000016274498, z: 0.8169109}
    - {x: -0.37730348, y: -0.00000016246639, z: 0.9260897}
    - {x: -0.1902252, y: -0.00000015585714, z: 0.9817405}
    - {x: -0.52141875, y: -0.00000058326754, z: 0.8533009}
    - {x: -0.99155915, y: -0.00000023870084, z: 0.12965499}
    - {x: -0.9675598, y: 0.00000015587882, z: -0.25264207}
    - {x: -0.98922217, y: 0, z: -0.14642261}
    - {x: -0.9991516, y: 0, z: -0.04118379}
    - {x: -0.9960666, y: 0, z: 0.088607766}
    - {x: -0.96885633, y: 0, z: 0.2476234}
    - {x: -0.9019909, y: -0.00000021511138, z: 0.43175507}
    - {x: -0.78028, y: -0.00000042195228, z: 0.62543035}
    - {x: -0.604927, y: -0.00000020645287, z: 0.7962809}
    - {x: -0.40262184, y: 0, z: 0.9153664}
    - {x: -0.20615454, y: -0.00000019362778, z: 0.97851944}
    - {x: -0.4760748, y: -0.00000020781133, z: 0.8794048}
    - {x: -0.95265883, y: 0, z: 0.30404124}
    - {x: -0.99986345, y: 0, z: -0.016526338}
    - {x: -0.9966764, y: 0, z: 0.08146313}
    - {x: -0.98624206, y: 0, z: 0.1653075}
    - {x: -0.9665357, y: 0, z: 0.25653222}
    - {x: -0.93418396, y: 0, z: 0.3567917}
    - {x: -0.88585526, y: -0.00000016349772, z: 0.46396163}
    - {x: -0.81794286, y: -0.00000016357205, z: 0.57529944}
    - {x: -0.7267461, y: 0, z: 0.68690616}
    - {x: -0.61387956, y: -0.0000002854793, z: 0.7893997}
    - {x: -0.48529807, y: -0.00000028548126, z: 0.87434876}
    - {x: -0.60645306, y: -0.0000001571741, z: 0.7951193}
    - {x: -0.71537197, y: -0.00000015376439, z: 0.6987438}
    - {x: -0.5913692, y: -0.00000011475538, z: 0.8064009}
    - {x: -0.42024592, y: -0.00000022354115, z: 0.90741026}
    - {x: -0.18228173, y: -0.00000010890414, z: 0.9832463}
    - {x: 0.11270717, y: -0.00000022585353, z: 0.99362826}
    - {x: -0.18911454, y: -0.00000024897795, z: 0.98195505}
    - {x: -0.8959757, y: 0, z: 0.44410312}
    - {x: -0.9238852, y: 0, z: 0.38266966}
    - {x: -0.3826972, y: -0.00000012098883, z: 0.92387384}
    - {x: 0.38269034, y: -0.00000012098845, z: 0.9238767}
    - {x: 0.9238824, y: 0, z: 0.38267654}
    - {x: 0.9596193, y: -0.00000028824772, z: 0.2813021}
    - {x: 0.6558642, y: -0.00000036847322, z: 0.7548789}
    - {x: 0.65584975, y: -0.00000036848834, z: 0.75489146}
    - {x: 0.9596139, y: -0.0000002882665, z: 0.28132042}
    - {x: 0.9238824, y: 0, z: 0.38267654}
    - {x: 0.38269034, y: -0.00000010765151, z: 0.9238767}
    - {x: 0.38266966, y: -0.00000010765051, z: 0.9238852}
    - {x: 0.92387384, y: 0, z: 0.3826972}
    - {x: 0.9238795, y: 0, z: -0.38268343}
    - {x: 0.38268343, y: 0.00000010765117, z: -0.9238795}
    - {x: 0.38267654, y: 0.00000010765084, z: -0.9238824}
    - {x: 0.9238767, y: 0, z: -0.38269034}
    - {x: 0.9596097, y: 0.00000028826227, z: -0.28133476}
    - {x: 0.65578854, y: 0.00000036849366, z: -0.7549446}
    - {x: 0.65578854, y: 0.00000036849366, z: -0.7549446}
    - {x: 0.9596097, y: 0.00000028826227, z: -0.28133476}
    - {x: 0.923871, y: 0, z: -0.38270408}
    - {x: 0.38266277, y: 0.00000012098697, z: -0.9238881}
    - {x: -0.38266966, y: 0.00000012098732, z: -0.9238852}
    - {x: -0.92387384, y: 0, z: -0.3826972}
    - {x: -0.89596695, y: 0, z: -0.44412065}
    - {x: -0.18908854, y: 0.00000024897545, z: -0.98196}
    - {x: 0.112295814, y: 0.00000022586798, z: -0.9936748}
    - {x: -0.1826891, y: 0.00000010889811, z: -0.98317075}
    - {x: -0.4198764, y: 0.00000022358763, z: -0.9075813}
    - {x: -0.5910461, y: 0.00000011481514, z: -0.8066378}
    - {x: -0.7156578, y: 0.00000015361894, z: -0.69845116}
    - {x: -0.60639465, y: 0.00000015705217, z: -0.79516387}
    - {x: -0.4848761, y: 0.00000028549195, z: -0.8745828}
    - {x: -0.6142294, y: 0.00000028548908, z: -0.7891275}
    - {x: -0.7270504, y: 0, z: -0.68658406}
    - {x: -0.8177435, y: 0.00000016375539, z: -0.5755828}
    - {x: -0.8856945, y: 0.00000016368838, z: -0.46426857}
    - {x: -0.93418396, y: 0, z: -0.3567917}
    - {x: -0.9665363, y: 0, z: -0.2565299}
    - {x: -0.9862581, y: 0, z: -0.165212}
    - {x: -0.996684, y: 0, z: -0.08136902}
    - {x: -0.9998626, y: 0, z: 0.016574027}
    - {x: -0.9526734, y: 0, z: -0.30399585}
    - {x: -0.47606403, y: 0.00000020781295, z: -0.8794106}
    - {x: -0.20615223, y: 0.00000019362874, z: -0.9785199}
    - {x: -0.40261203, y: 0, z: -0.91537076}
    - {x: -0.6049181, y: 0.00000020644987, z: -0.79628766}
    - {x: -0.7802814, y: 0.00000042195268, z: -0.6254286}
    - {x: -0.9019878, y: 0.00000021511659, z: -0.43176156}
    - {x: -0.96885633, y: 0, z: -0.2476234}
    - {x: -0.99606663, y: 0, z: -0.08860731}
    - {x: -0.99915487, y: 0, z: 0.041103896}
    - {x: -0.9892347, y: 0, z: 0.14633787}
    - {x: -0.96752214, y: -0.00000015606734, z: 0.2527862}
    - {x: -0.99161637, y: 0.0000002383297, z: -0.129217}
    - {x: -0.52206695, y: 0.00000058304335, z: -0.8529045}
    - {x: -0.19016993, y: 0.00000015582188, z: -0.98175114}
    - {x: -0.37733647, y: 0.00000016238677, z: -0.92607623}
    - {x: -0.5767778, y: 0.00000016262419, z: -0.816901}
    - {x: -0.7563104, y: 0, z: -0.65421295}
    - {x: -0.8875152, y: 0, z: -0.46077845}
    - {x: -0.96291995, y: 0, z: -0.26978734}
    - {x: -0.9947407, y: 0, z: -0.10242487}
    - {x: -0.99932575, y: 0, z: 0.0367167}
    - {x: -0.9887283, y: 0, z: 0.14972095}
    - {x: -0.9648269, y: 0, z: 0.26288617}
    - {x: -0.99972785, y: 0, z: -0.02332712}
    - {x: -0.7439535, y: 0.00000011263422, z: -0.6682313}
    - {x: -0.53091633, y: 0.00000010593832, z: -0.84742427}
    - {x: -0.6651425, y: 0.0000002493142, z: -0.7467165}
    - {x: -0.8040306, y: 0.00000024983768, z: -0.5945879}
    - {x: -0.92171746, y: 0, z: -0.38786212}
    - {x: -0.9889459, y: 0, z: -0.14827684}
    - {x: -0.9962993, y: 0, z: 0.085951045}
    - {x: -0.95840406, y: 0, z: 0.28541481}
    - {x: -0.8973673, y: 0, z: 0.44128448}
    - {x: -0.8293469, y: -0.0000003416627, z: 0.55873406}
    - {x: -0.7457847, y: -0.00000034199033, z: 0.66618705}
    - {x: -0.9588675, y: 0, z: 0.28385407}
    - {x: -0.7350614, y: 0.0000002770327, z: -0.6780005}
    - {x: -0.37617332, y: 0.0000002416066, z: -0.9265493}
    - {x: -0.5272227, y: 0.00000013358812, z: -0.84972715}
    - {x: -0.68659824, y: 0.0000001337885, z: -0.727037}
    - {x: -0.83021414, y: 0, z: -0.5574445}
    - {x: -0.9343813, y: 0, z: -0.35627457}
    - {x: -0.9884301, y: 0, z: -0.151677}
    - {x: -0.9994763, y: 0, z: 0.032358233}
    - {x: -0.98240393, y: 0, z: 0.18676886}
    - {x: -0.9500685, y: 0, z: 0.31204137}
    - {x: -0.8999189, y: 0, z: 0.4360573}
    - {x: -0.99521506, y: 0, z: 0.097708225}
    - {x: -0.72589207, y: 0, z: -0.68780863}
    - {x: -0.45350736, y: 0.00000013289814, z: -0.8912525}
    - {x: -0.6154443, y: 0.00000013314413, z: -0.78818035}
    - {x: -0.7762708, y: 0.00000017494115, z: -0.6303995}
    - {x: -0.9052596, y: 0.0000001750082, z: -0.4248588}
    - {x: -0.97967714, y: 0, z: -0.20058084}
    - {x: -0.99996734, y: 0, z: 0.008080031}
    - {x: -0.98329157, y: 0, z: 0.18203746}
    - {x: -0.947665, y: -0.00000018545049, z: 0.31926653}
    - {x: -0.9042168, y: -0.00000018533943, z: 0.4270736}
    - {x: -0.8473812, y: 0, z: 0.53098506}
    - {x: -0.973352, y: 0, z: 0.22931607}
    - {x: -0.84916687, y: 0, z: -0.52812463}
    - {x: -0.6403341, y: 0.00000011785609, z: -0.76809645}
    - {x: -0.7604417, y: 0.00000011805856, z: -0.6494062}
    - {x: -0.8808223, y: 0.00000016870455, z: -0.47344702}
    - {x: -0.97099, y: 0.00000016900051, z: -0.23912007}
    - {x: -0.99970096, y: 0, z: 0.02445389}
    - {x: -0.96228325, y: -0.00000019809667, z: 0.27204958}
    - {x: -0.8827981, y: -0.00000019762169, z: 0.46975264}
    - {x: -0.78999394, y: 0, z: 0.61311466}
    - {x: -0.6993042, y: -0.00000019157856, z: 0.71482414}
    - {x: -0.59761196, y: -0.00000019173333, z: 0.8017855}
    - {x: -0.87682897, y: 0, z: 0.48080245}
    - {x: -0.8767164, y: 0.00000011731908, z: -0.48100767}
    - {x: -0.59396523, y: 0.00000010310489, z: -0.8044907}
    - {x: -0.71047413, y: 0.00000024262167, z: -0.7037233}
    - {x: -0.83089364, y: 0.00000024307448, z: -0.5564313}
    - {x: -0.93333405, y: 0, z: -0.3590092}
    - {x: -0.99189013, y: 0, z: -0.12709823}
    - {x: -0.99419326, y: 0, z: 0.10760945}
    - {x: -0.94974035, y: 0, z: 0.31303886}
    - {x: -0.87957436, y: -0.00000017858659, z: 0.47576144}
    - {x: -0.80055255, y: -0.0000003596927, z: 0.59926254}
    - {x: -0.7034605, y: -0.00000018148587, z: 0.71073437}
    - {x: -0.91027683, y: 0, z: 0.41400015}
    - {x: -0.89454985, y: 0, z: -0.44696817}
    - {x: -0.67103404, y: 0.0000002431468, z: -0.7414265}
    - {x: -0.78232974, y: 0.00000024346937, z: -0.6228645}
    - {x: -0.88797075, y: 0, z: -0.45989993}
    - {x: -0.96713525, y: 0, z: -0.25426257}
    - {x: -0.99963325, y: 0, z: -0.027080536}
    - {x: -0.9816056, y: 0, z: 0.19092008}
    - {x: -0.9261091, y: 0, z: 0.37725592}
    - {x: -0.85217404, y: 0, z: 0.52325845}
    - {x: -0.7735384, y: -0.00000020540398, z: 0.6337494}
    - {x: -0.67742914, y: -0.00000035266999, z: 0.7355881}
    - {x: -0.9240402, y: -0.0000001682022, z: 0.3822954}
    - {x: -0.8061059, y: 0.000000198372, z: -0.5917713}
    - {x: -0.470425, y: 0.00000026301794, z: -0.88244}
    - {x: -0.59761524, y: 0.00000008993321, z: -0.801783}
    - {x: -0.7430335, y: 0, z: -0.66925424}
    - {x: -0.8839711, y: 0.00000015732243, z: -0.46754152}
    - {x: -0.9789435, y: 0.00000015754851, z: -0.20413132}
    - {x: -0.9972244, y: 0, z: 0.07445465}
    - {x: -0.94934726, y: -0.00000016973718, z: 0.31422886}
    - {x: -0.8695713, y: -0.00000016933025, z: 0.4938074}
    - {x: -0.78300357, y: 0, z: 0.6220172}
    - {x: -0.6829469, y: -0.00000010448751, z: 0.73046803}
    - {x: -0.91611016, y: -0.00000011777455, z: 0.4009266}
    - {x: -0.848005, y: 0.000000115326, z: -0.5299882}
    - {x: -0.5630229, y: 0.000000102257076, z: -0.8264413}
    - {x: -0.6958173, y: 0.00000013507756, z: -0.71821886}
    - {x: -0.8451065, y: 0.00000013567318, z: -0.534598}
    - {x: -0.9669982, y: 0, z: -0.2547832}
    - {x: -0.99660784, y: 0, z: 0.08229666}
    - {x: -0.9236809, y: 0, z: 0.38316262}
    - {x: -0.80380195, y: -0.00000017852781, z: 0.59489703}
    - {x: -0.6848832, y: -0.00000017807433, z: 0.72865283}
    - {x: -0.58293927, y: 0, z: 0.81251574}
    - {x: -0.51406586, y: -0.00000009988733, z: 0.8577507}
    - {x: -0.9991767, y: 0.00000003355366, z: -0.04057102}
    - {x: -0.47600964, y: 0.00000011538639, z: -0.87944}
    - {x: -0.61683536, y: 0.00000012804281, z: -0.78709215}
    - {x: -0.76345706, y: 0.00000012795107, z: -0.6458586}
    - {x: -0.87192893, y: 0, z: -0.48963237}
    - {x: -0.9467824, y: 0, z: -0.3218744}
    - {x: -1, y: 0, z: 0.00020876918}
    bitangents:
    - {x: -0.00020876918, y: 0, z: -1}
    - {x: -0.32207638, y: 0, z: -0.9467137}
    - {x: -0.48991925, y: 0, z: -0.8717678}
    - {x: -0.64611524, y: 0, z: -0.76323986}
    - {x: -0.787092, y: 0, z: -0.61683565}
    - {x: -0.879449, y: 0, z: -0.4759931}
    - {x: -0.040288538, y: 0, z: -0.9991881}
    - {x: 0.8579118, y: 0, z: -0.51379704}
    - {x: 0.81251574, y: 0, z: -0.58293927}
    - {x: 0.7283169, y: 0, z: -0.6852404}
    - {x: 0.59450775, y: 0, z: -0.8040899}
    - {x: 0.3833562, y: 0, z: -0.9236006}
    - {x: 0.08256948, y: 0, z: -0.9965853}
    - {x: -0.2547195, y: 0, z: -0.96701497}
    - {x: -0.5348974, y: 0, z: -0.84491706}
    - {x: -0.7184622, y: 0, z: -0.69556594}
    - {x: -0.8264413, y: 0, z: -0.5630229}
    - {x: -0.5299866, y: 0, z: -0.84800607}
    - {x: 0.40093315, y: 0, z: -0.9161073}
    - {x: 0.73017424, y: 0, z: -0.68326104}
    - {x: 0.62196636, y: 0, z: -0.783044}
    - {x: 0.493883, y: 0, z: -0.86952835}
    - {x: 0.31409875, y: 0, z: -0.94939035}
    - {x: 0.074601166, y: 0, z: -0.9972135}
    - {x: -0.20413068, y: 0, z: -0.97894365}
    - {x: -0.46726745, y: 0, z: -0.884116}
    - {x: -0.6692635, y: 0, z: -0.7430252}
    - {x: -0.80197567, y: 0, z: -0.59735674}
    - {x: -0.8823139, y: 0, z: -0.47066152}
    - {x: -0.59128475, y: 0, z: -0.8064628}
    - {x: 0.38293076, y: 0, z: -0.9237771}
    - {x: 0.7358267, y: 0, z: -0.6771699}
    - {x: 0.6337552, y: 0, z: -0.77353364}
    - {x: 0.5232599, y: 0, z: -0.85217315}
    - {x: 0.3772505, y: 0, z: -0.9261113}
    - {x: 0.19092008, y: 0, z: -0.9816056}
    - {x: -0.027080536, y: 0, z: -0.99963325}
    - {x: -0.25426257, y: 0, z: -0.96713525}
    - {x: -0.45989993, y: 0, z: -0.88797075}
    - {x: -0.6225965, y: 0, z: -0.78254306}
    - {x: -0.74141604, y: 0, z: -0.6710456}
    - {x: -0.4474336, y: 0, z: -0.89431715}
    - {x: 0.4138186, y: 0, z: -0.9103594}
    - {x: 0.7103963, y: 0, z: -0.7038018}
    - {x: 0.59919614, y: 0, z: -0.8006023}
    - {x: 0.4761057, y: 0, z: -0.8793881}
    - {x: 0.31303647, y: 0, z: -0.9497411}
    - {x: 0.107606925, y: 0, z: -0.9941935}
    - {x: -0.12709703, y: 0, z: -0.99189025}
    - {x: -0.359008, y: 0, z: -0.9333345}
    - {x: -0.5561742, y: 0, z: -0.8310658}
    - {x: -0.7037261, y: 0, z: -0.7104714}
    - {x: -0.80450654, y: 0, z: -0.5939438}
    - {x: -0.4804645, y: 0, z: -0.8770142}
    - {x: 0.48139727, y: 0, z: -0.8765025}
    - {x: 0.80199754, y: 0, z: -0.59732723}
    - {x: 0.7148277, y: 0, z: -0.6993006}
    - {x: 0.61277425, y: 0, z: -0.790258}
    - {x: 0.46964478, y: 0, z: -0.8828555}
    - {x: 0.27222297, y: 0, z: -0.9622342}
    - {x: 0.024328915, y: 0, z: -0.999704}
    - {x: -0.23911688, y: 0, z: -0.9709908}
    - {x: -0.47344354, y: 0, z: -0.88082415}
    - {x: -0.64966315, y: 0, z: -0.7602222}
    - {x: -0.7683129, y: 0, z: -0.64007455}
    - {x: -0.52812755, y: 0, z: -0.8491651}
    - {x: 0.22931275, y: 0, z: -0.9733528}
    - {x: 0.53067946, y: 0, z: -0.8475726}
    - {x: 0.42700332, y: 0, z: -0.90425}
    - {x: 0.31953168, y: 0, z: -0.9475756}
    - {x: 0.18203443, y: 0, z: -0.98329216}
    - {x: 0.008080031, y: 0, z: -0.99996734}
    - {x: -0.20035756, y: 0, z: -0.97972286}
    - {x: -0.4249907, y: 0, z: -0.9051977}
    - {x: -0.63068956, y: 0, z: -0.77603525}
    - {x: -0.78818035, y: 0, z: -0.6154443}
    - {x: -0.8912525, y: 0, z: -0.45350736}
    - {x: -0.68792725, y: 0, z: -0.7257796}
    - {x: 0.09720876, y: 0, z: -0.995264}
    - {x: 0.43635723, y: 0, z: -0.8997735}
    - {x: 0.3125045, y: 0, z: -0.94991624}
    - {x: 0.1866703, y: 0, z: -0.98242265}
    - {x: 0.032479078, y: 0, z: -0.99947244}
    - {x: -0.15164046, y: 0, z: -0.9884357}
    - {x: -0.35627457, y: 0, z: -0.9343813}
    - {x: -0.55744195, y: 0, z: -0.83021593}
    - {x: -0.72733307, y: 0, z: -0.68628466}
    - {x: -0.84973997, y: 0, z: -0.527202}
    - {x: -0.92652965, y: 0, z: -0.37622175}
    - {x: -0.6784959, y: 0, z: -0.7346042}
    - {x: 0.283297, y: 0, z: -0.95903224}
    - {x: 0.6663019, y: 0, z: -0.74568206}
    - {x: 0.55908126, y: 0, z: -0.8291129}
    - {x: 0.44105574, y: 0, z: -0.8974797}
    - {x: 0.28517053, y: 0, z: -0.95847684}
    - {x: 0.085951045, y: 0, z: -0.9962993}
    - {x: -0.14827684, y: 0, z: -0.9889459}
    - {x: -0.3881348, y: 0, z: -0.9216026}
    - {x: -0.59454304, y: 0, z: -0.8040638}
    - {x: -0.74671406, y: 0, z: -0.66514516}
    - {x: -0.8474443, y: 0, z: -0.5308843}
    - {x: -0.667827, y: 0, z: -0.7443165}
    - {x: -0.02297568, y: 0, z: -0.999736}
    - {x: 0.26300052, y: 0, z: -0.9647957}
    - {x: 0.14972334, y: 0, z: -0.9887279}
    - {x: 0.036739357, y: 0, z: -0.9993249}
    - {x: -0.10240689, y: 0, z: -0.9947426}
    - {x: -0.27005994, y: 0, z: -0.96284354}
    - {x: -0.46102777, y: 0, z: -0.8873857}
    - {x: -0.65379906, y: 0, z: -0.75666827}
    - {x: -0.8169109, y: 0, z: -0.57676387}
    - {x: -0.9260897, y: 0, z: -0.37730348}
    - {x: -0.9817405, y: 0, z: -0.1902252}
    - {x: -0.8533009, y: 0, z: -0.52141875}
    - {x: -0.12965499, y: 0, z: -0.99155915}
    - {x: 0.25264207, y: 0, z: -0.9675598}
    - {x: 0.14642261, y: 0, z: -0.98922217}
    - {x: 0.04118379, y: 0, z: -0.9991516}
    - {x: -0.088607766, y: 0, z: -0.9960666}
    - {x: -0.2476234, y: 0, z: -0.96885633}
    - {x: -0.43175507, y: 0, z: -0.9019909}
    - {x: -0.62543035, y: 0, z: -0.78028}
    - {x: -0.7962809, y: 0, z: -0.604927}
    - {x: -0.9153664, y: 0, z: -0.40262184}
    - {x: -0.97851944, y: 0, z: -0.20615454}
    - {x: -0.8794048, y: 0, z: -0.4760748}
    - {x: -0.30404124, y: 0, z: -0.95265883}
    - {x: 0.016526338, y: 0, z: -0.99986345}
    - {x: -0.08146313, y: 0, z: -0.9966764}
    - {x: -0.1653075, y: 0, z: -0.98624206}
    - {x: -0.25653222, y: 0, z: -0.9665357}
    - {x: -0.3567917, y: 0, z: -0.93418396}
    - {x: -0.46396163, y: 0, z: -0.88585526}
    - {x: -0.57529944, y: 0, z: -0.81794286}
    - {x: -0.68690616, y: 0, z: -0.7267461}
    - {x: -0.7893997, y: 0, z: -0.61387956}
    - {x: -0.87434876, y: 0, z: -0.48529807}
    - {x: -0.7951193, y: 0, z: -0.60645306}
    - {x: -0.6987438, y: 0, z: -0.71537197}
    - {x: -0.8064009, y: 0, z: -0.5913692}
    - {x: -0.90741026, y: 0, z: -0.42024592}
    - {x: -0.9832463, y: 0, z: -0.18228173}
    - {x: -0.99362826, y: 0, z: 0.11270717}
    - {x: -0.98195505, y: 0, z: -0.18911454}
    - {x: -0.44410312, y: 0, z: -0.8959757}
    - {x: -0.38266966, y: 0, z: -0.9238852}
    - {x: -0.92387384, y: 0, z: -0.3826972}
    - {x: -0.9238767, y: 0, z: 0.38269034}
    - {x: -0.38267654, y: 0, z: 0.9238824}
    - {x: -0.2813021, y: 0, z: 0.9596193}
    - {x: -0.7548789, y: 0, z: 0.6558642}
    - {x: -0.75489146, y: 0, z: 0.65584975}
    - {x: -0.28132042, y: 0, z: 0.9596139}
    - {x: -0.38267654, y: 0, z: 0.9238824}
    - {x: -0.9238767, y: 0, z: 0.38269034}
    - {x: -0.9238852, y: 0, z: 0.38266966}
    - {x: -0.3826972, y: 0, z: 0.92387384}
    - {x: 0.38268343, y: -0, z: 0.9238795}
    - {x: 0.9238795, y: -0, z: 0.38268343}
    - {x: 0.9238824, y: -0, z: 0.38267654}
    - {x: 0.38269034, y: -0, z: 0.9238767}
    - {x: 0.28133476, y: -0, z: 0.9596097}
    - {x: 0.7549446, y: -0, z: 0.65578854}
    - {x: 0.7549446, y: -0, z: 0.65578854}
    - {x: 0.28133476, y: -0, z: 0.9596097}
    - {x: 0.38270408, y: -0, z: 0.923871}
    - {x: 0.9238881, y: -0, z: 0.38266277}
    - {x: 0.9238852, y: 0, z: -0.38266966}
    - {x: 0.3826972, y: 0, z: -0.92387384}
    - {x: 0.44412065, y: 0, z: -0.89596695}
    - {x: 0.98196, y: 0, z: -0.18908854}
    - {x: 0.9936748, y: -0, z: 0.112295814}
    - {x: 0.98317075, y: 0, z: -0.1826891}
    - {x: 0.9075813, y: 0, z: -0.4198764}
    - {x: 0.8066378, y: 0, z: -0.5910461}
    - {x: 0.69845116, y: 0, z: -0.7156578}
    - {x: 0.79516387, y: 0, z: -0.60639465}
    - {x: 0.8745828, y: 0, z: -0.4848761}
    - {x: 0.7891275, y: 0, z: -0.6142294}
    - {x: 0.68658406, y: 0, z: -0.7270504}
    - {x: 0.5755828, y: 0, z: -0.8177435}
    - {x: 0.46426857, y: 0, z: -0.8856945}
    - {x: 0.3567917, y: 0, z: -0.93418396}
    - {x: 0.2565299, y: 0, z: -0.9665363}
    - {x: 0.165212, y: 0, z: -0.9862581}
    - {x: 0.08136902, y: 0, z: -0.996684}
    - {x: -0.016574027, y: 0, z: -0.9998626}
    - {x: 0.30399585, y: 0, z: -0.9526734}
    - {x: 0.8794106, y: 0, z: -0.47606403}
    - {x: 0.9785199, y: 0, z: -0.20615223}
    - {x: 0.91537076, y: 0, z: -0.40261203}
    - {x: 0.79628766, y: 0, z: -0.6049181}
    - {x: 0.6254286, y: 0, z: -0.7802814}
    - {x: 0.43176156, y: 0, z: -0.9019878}
    - {x: 0.2476234, y: 0, z: -0.96885633}
    - {x: 0.08860731, y: 0, z: -0.99606663}
    - {x: -0.041103896, y: 0, z: -0.99915487}
    - {x: -0.14633787, y: 0, z: -0.9892347}
    - {x: -0.2527862, y: 0, z: -0.96752214}
    - {x: 0.129217, y: 0, z: -0.99161637}
    - {x: 0.8529045, y: 0, z: -0.52206695}
    - {x: 0.98175114, y: 0, z: -0.19016993}
    - {x: 0.92607623, y: 0, z: -0.37733647}
    - {x: 0.816901, y: 0, z: -0.5767778}
    - {x: 0.65421295, y: 0, z: -0.7563104}
    - {x: 0.46077845, y: 0, z: -0.8875152}
    - {x: 0.26978734, y: 0, z: -0.96291995}
    - {x: 0.10242487, y: 0, z: -0.9947407}
    - {x: -0.0367167, y: 0, z: -0.99932575}
    - {x: -0.14972095, y: 0, z: -0.9887283}
    - {x: -0.26288617, y: 0, z: -0.9648269}
    - {x: 0.02332712, y: 0, z: -0.99972785}
    - {x: 0.6682313, y: 0, z: -0.7439535}
    - {x: 0.84742427, y: 0, z: -0.53091633}
    - {x: 0.7467165, y: 0, z: -0.6651425}
    - {x: 0.5945879, y: 0, z: -0.8040306}
    - {x: 0.38786212, y: 0, z: -0.92171746}
    - {x: 0.14827684, y: 0, z: -0.9889459}
    - {x: -0.085951045, y: 0, z: -0.9962993}
    - {x: -0.28541481, y: 0, z: -0.95840406}
    - {x: -0.44128448, y: 0, z: -0.8973673}
    - {x: -0.55873406, y: 0, z: -0.8293469}
    - {x: -0.66618705, y: 0, z: -0.7457847}
    - {x: -0.28385407, y: 0, z: -0.9588675}
    - {x: 0.6780005, y: 0, z: -0.7350614}
    - {x: 0.9265493, y: 0, z: -0.37617332}
    - {x: 0.84972715, y: 0, z: -0.5272227}
    - {x: 0.727037, y: 0, z: -0.68659824}
    - {x: 0.5574445, y: 0, z: -0.83021414}
    - {x: 0.35627457, y: 0, z: -0.9343813}
    - {x: 0.151677, y: 0, z: -0.9884301}
    - {x: -0.032358233, y: 0, z: -0.9994763}
    - {x: -0.18676886, y: 0, z: -0.98240393}
    - {x: -0.31204137, y: 0, z: -0.9500685}
    - {x: -0.4360573, y: 0, z: -0.8999189}
    - {x: -0.097708225, y: 0, z: -0.99521506}
    - {x: 0.68780863, y: 0, z: -0.72589207}
    - {x: 0.8912525, y: 0, z: -0.45350736}
    - {x: 0.78818035, y: 0, z: -0.6154443}
    - {x: 0.6303995, y: 0, z: -0.7762708}
    - {x: 0.4248588, y: 0, z: -0.9052596}
    - {x: 0.20058084, y: 0, z: -0.97967714}
    - {x: -0.008080031, y: 0, z: -0.99996734}
    - {x: -0.18203746, y: 0, z: -0.98329157}
    - {x: -0.31926653, y: 0, z: -0.947665}
    - {x: -0.4270736, y: 0, z: -0.9042168}
    - {x: -0.53098506, y: 0, z: -0.8473812}
    - {x: -0.22931607, y: 0, z: -0.973352}
    - {x: 0.52812463, y: 0, z: -0.84916687}
    - {x: 0.76809645, y: 0, z: -0.6403341}
    - {x: 0.6494062, y: 0, z: -0.7604417}
    - {x: 0.47344702, y: 0, z: -0.8808223}
    - {x: 0.23912007, y: 0, z: -0.97099}
    - {x: -0.02445389, y: 0, z: -0.99970096}
    - {x: -0.27204958, y: 0, z: -0.96228325}
    - {x: -0.46975264, y: 0, z: -0.8827981}
    - {x: -0.61311466, y: 0, z: -0.78999394}
    - {x: -0.71482414, y: 0, z: -0.6993042}
    - {x: -0.8017855, y: 0, z: -0.59761196}
    - {x: -0.48080245, y: 0, z: -0.87682897}
    - {x: 0.48100767, y: 0, z: -0.8767164}
    - {x: 0.8044907, y: 0, z: -0.59396523}
    - {x: 0.7037233, y: 0, z: -0.71047413}
    - {x: 0.5564313, y: 0, z: -0.83089364}
    - {x: 0.3590092, y: 0, z: -0.93333405}
    - {x: 0.12709823, y: 0, z: -0.99189013}
    - {x: -0.10760945, y: 0, z: -0.99419326}
    - {x: -0.31303886, y: 0, z: -0.94974035}
    - {x: -0.47576144, y: 0, z: -0.87957436}
    - {x: -0.59926254, y: 0, z: -0.80055255}
    - {x: -0.71073437, y: 0, z: -0.7034605}
    - {x: -0.41400015, y: 0, z: -0.91027683}
    - {x: 0.44696817, y: 0, z: -0.89454985}
    - {x: 0.7414265, y: 0, z: -0.67103404}
    - {x: 0.6228645, y: 0, z: -0.78232974}
    - {x: 0.45989993, y: 0, z: -0.88797075}
    - {x: 0.25426257, y: 0, z: -0.96713525}
    - {x: 0.027080536, y: 0, z: -0.99963325}
    - {x: -0.19092008, y: 0, z: -0.9816056}
    - {x: -0.37725592, y: 0, z: -0.9261091}
    - {x: -0.52325845, y: 0, z: -0.85217404}
    - {x: -0.6337494, y: 0, z: -0.7735384}
    - {x: -0.7355881, y: 0, z: -0.67742914}
    - {x: -0.3822954, y: 0, z: -0.9240402}
    - {x: 0.5917713, y: 0, z: -0.8061059}
    - {x: 0.88244, y: 0, z: -0.470425}
    - {x: 0.801783, y: 0, z: -0.59761524}
    - {x: 0.66925424, y: 0, z: -0.7430335}
    - {x: 0.46754152, y: 0, z: -0.8839711}
    - {x: 0.20413132, y: 0, z: -0.9789435}
    - {x: -0.07445465, y: 0, z: -0.9972244}
    - {x: -0.31422886, y: 0, z: -0.94934726}
    - {x: -0.4938074, y: 0, z: -0.8695713}
    - {x: -0.6220172, y: 0, z: -0.78300357}
    - {x: -0.73046803, y: 0, z: -0.6829469}
    - {x: -0.4009266, y: 0, z: -0.91611016}
    - {x: 0.5299882, y: 0, z: -0.848005}
    - {x: 0.8264413, y: 0, z: -0.5630229}
    - {x: 0.71821886, y: 0, z: -0.6958173}
    - {x: 0.534598, y: 0, z: -0.8451065}
    - {x: 0.2547832, y: 0, z: -0.9669982}
    - {x: -0.08229666, y: 0, z: -0.99660784}
    - {x: -0.38316262, y: 0, z: -0.9236809}
    - {x: -0.59489703, y: 0, z: -0.80380195}
    - {x: -0.72865283, y: 0, z: -0.6848832}
    - {x: -0.81251574, y: 0, z: -0.58293927}
    - {x: -0.8577507, y: 0, z: -0.51406586}
    - {x: 0.04057102, y: 0, z: -0.9991767}
    - {x: 0.87944, y: 0, z: -0.47600964}
    - {x: 0.78709215, y: 0, z: -0.61683536}
    - {x: 0.6458586, y: 0, z: -0.76345706}
    - {x: 0.48963237, y: 0, z: -0.87192893}
    - {x: 0.3218744, y: 0, z: -0.9467824}
    - {x: -0.00020876918, y: 0, z: -1}
    normals:
    - {x: 0, y: 1, z: 0}
    - {x: 0, y: 1, z: 0}
    - {x: 0, y: 1, z: 0}
    - {x: 0, y: 1, z: 0}
    - {x: 0, y: 1, z: 0}
    - {x: 0, y: 1, z: 0}
    - {x: 0, y: 1, z: 0}
    - {x: 0, y: 1, z: 0}
    - {x: 0, y: 1, z: 0}
    - {x: 0, y: 1, z: 0}
    - {x: 0, y: 1, z: 0}
    - {x: 0, y: 1, z: 0}
    - {x: 0, y: 1, z: 0}
    - {x: 0, y: 1, z: 0}
    - {x: 0, y: 1, z: 0}
    - {x: 0, y: 1, z: 0}
    - {x: 0, y: 1, z: 0}
    - {x: 0, y: 1, z: 0}
    - {x: 0, y: 1, z: 0}
    - {x: 0, y: 1, z: 0}
    - {x: 0, y: 1, z: 0}
    - {x: 0, y: 1, z: 0}
    - {x: 0, y: 1, z: 0}
    - {x: 0, y: 1, z: 0}
    - {x: 0, y: 1, z: 0}
    - {x: 0, y: 1, z: 0}
    - {x: 0, y: 1, z: 0}
    - {x: 0, y: 1, z: 0}
    - {x: 0, y: 1, z: 0}
    - {x: 0, y: 1, z: 0}
    - {x: 0, y: 1, z: 0}
    - {x: 0, y: 1, z: 0}
    - {x: 0, y: 1, z: 0}
    - {x: 0, y: 1, z: 0}
    - {x: 0, y: 1, z: 0}
    - {x: 0, y: 1, z: 0}
    - {x: 0, y: 1, z: 0}
    - {x: 0, y: 1, z: 0}
    - {x: 0, y: 1, z: 0}
    - {x: 0, y: 1, z: 0}
    - {x: 0, y: 1, z: 0}
    - {x: 0, y: 1, z: 0}
    - {x: 0, y: 1, z: 0}
    - {x: 0, y: 1, z: 0}
    - {x: 0, y: 1, z: 0}
    - {x: 0, y: 1, z: 0}
    - {x: 0, y: 1, z: 0}
    - {x: 0, y: 1, z: 0}
    - {x: 0, y: 1, z: 0}
    - {x: 0, y: 1, z: 0}
    - {x: 0, y: 1, z: 0}
    - {x: 0, y: 1, z: 0}
    - {x: 0, y: 1, z: 0}
    - {x: 0, y: 1, z: 0}
    - {x: 0, y: 1, z: 0}
    - {x: 0, y: 1, z: 0}
    - {x: 0, y: 1, z: 0}
    - {x: 0, y: 1, z: 0}
    - {x: 0, y: 1, z: 0}
    - {x: 0, y: 1, z: 0}
    - {x: 0, y: 1, z: 0}
    - {x: 0, y: 1, z: 0}
    - {x: 0, y: 1, z: 0}
    - {x: 0, y: 1, z: 0}
    - {x: 0, y: 1, z: 0}
    - {x: 0, y: 1, z: 0}
    - {x: 0, y: 1, z: 0}
    - {x: 0, y: 1, z: 0}
    - {x: 0, y: 1, z: 0}
    - {x: 0, y: 1, z: 0}
    - {x: 0, y: 1, z: 0}
    - {x: 0, y: 1, z: 0}
    - {x: 0, y: 1, z: 0}
    - {x: 0, y: 1, z: 0}
    - {x: 0, y: 1, z: 0}
    - {x: 0, y: 1, z: 0}
    - {x: 0, y: 1, z: 0}
    - {x: 0, y: 1, z: 0}
    - {x: 0, y: 1, z: 0}
    - {x: 0, y: 1, z: 0}
    - {x: 0, y: 1, z: 0}
    - {x: 0, y: 1, z: 0}
    - {x: 0, y: 1, z: 0}
    - {x: 0, y: 1, z: 0}
    - {x: 0, y: 1, z: 0}
    - {x: 0, y: 1, z: 0}
    - {x: 0, y: 1, z: 0}
    - {x: 0, y: 1, z: 0}
    - {x: 0, y: 1, z: 0}
    - {x: 0, y: 1, z: 0}
    - {x: 0, y: 1, z: 0}
    - {x: 0, y: 1, z: 0}
    - {x: 0, y: 1, z: 0}
    - {x: 0, y: 1, z: 0}
    - {x: 0, y: 1, z: 0}
    - {x: 0, y: 1, z: 0}
    - {x: 0, y: 1, z: 0}
    - {x: 0, y: 1, z: 0}
    - {x: 0, y: 1, z: 0}
    - {x: 0, y: 1, z: 0}
    - {x: 0, y: 1, z: 0}
    - {x: 0, y: 1, z: 0}
    - {x: 0, y: 1, z: 0}
    - {x: 0, y: 1, z: 0}
    - {x: 0, y: 1, z: 0}
    - {x: 0, y: 1, z: 0}
    - {x: 0, y: 1, z: 0}
    - {x: 0, y: 1, z: 0}
    - {x: 0, y: 1, z: 0}
    - {x: 0, y: 1, z: 0}
    - {x: 0, y: 1, z: 0}
    - {x: 0, y: 1, z: 0}
    - {x: 0, y: 1, z: 0}
    - {x: 0, y: 1, z: 0}
    - {x: 0, y: 1, z: 0}
    - {x: 0, y: 1, z: 0}
    - {x: 0, y: 1, z: 0}
    - {x: 0, y: 1, z: 0}
    - {x: 0, y: 1, z: 0}
    - {x: 0, y: 1, z: 0}
    - {x: 0, y: 1, z: 0}
    - {x: 0, y: 1, z: 0}
    - {x: 0, y: 1, z: 0}
    - {x: 0, y: 1, z: 0}
    - {x: 0, y: 1, z: 0}
    - {x: 0, y: 1, z: 0}
    - {x: 0, y: 1, z: 0}
    - {x: 0, y: 1, z: 0}
    - {x: 0, y: 1, z: 0}
    - {x: 0, y: 1, z: 0}
    - {x: 0, y: 1, z: 0}
    - {x: 0, y: 1, z: 0}
    - {x: 0, y: 1, z: 0}
    - {x: 0, y: 1, z: 0}
    - {x: 0, y: 1, z: 0}
    - {x: 0, y: 1, z: 0}
    - {x: 0, y: 1, z: 0}
    - {x: 0, y: 1, z: 0}
    - {x: 0, y: 1, z: 0}
    - {x: 0, y: 1, z: 0}
    - {x: 0, y: 1, z: 0}
    - {x: 0, y: 1, z: 0}
    - {x: 0, y: 1, z: 0}
    - {x: 0, y: 1, z: 0}
    - {x: 0, y: 1, z: 0}
    - {x: 0, y: 1, z: 0}
    - {x: 0, y: 1, z: 0}
    - {x: 0, y: 1, z: 0}
    - {x: 0, y: 1, z: 0}
    - {x: 0, y: 1, z: 0}
    - {x: 0, y: 1, z: 0}
    - {x: 0, y: 1, z: 0}
    - {x: 0, y: 1, z: 0}
    - {x: 0, y: 1, z: 0}
    - {x: 0, y: 1, z: 0}
    - {x: 0, y: 1, z: 0}
    - {x: 0, y: 1, z: 0}
    - {x: 0, y: 1, z: 0}
    - {x: 0, y: 1, z: 0}
    - {x: 0, y: 1, z: 0}
    - {x: 0, y: 1, z: 0}
    - {x: 0, y: 1, z: 0}
    - {x: 0, y: 1, z: 0}
    - {x: 0, y: 1, z: 0}
    - {x: 0, y: 1, z: 0}
    - {x: 0, y: 1, z: 0}
    - {x: 0, y: 1, z: 0}
    - {x: 0, y: 1, z: 0}
    - {x: 0, y: 1, z: 0}
    - {x: 0, y: 1, z: 0}
    - {x: 0, y: 1, z: 0}
    - {x: 0, y: 1, z: 0}
    - {x: 0, y: 1, z: 0}
    - {x: 0, y: 1, z: 0}
    - {x: 0, y: 1, z: 0}
    - {x: 0, y: 1, z: 0}
    - {x: 0, y: 1, z: 0}
    - {x: 0, y: 1, z: 0}
    - {x: 0, y: 1, z: 0}
    - {x: 0, y: 1, z: 0}
    - {x: 0, y: 1, z: 0}
    - {x: 0, y: 1, z: 0}
    - {x: 0, y: 1, z: 0}
    - {x: 0, y: 1, z: 0}
    - {x: 0, y: 1, z: 0}
    - {x: 0, y: 1, z: 0}
    - {x: 0, y: 1, z: 0}
    - {x: 0, y: 1, z: 0}
    - {x: 0, y: 1, z: 0}
    - {x: 0, y: 1, z: 0}
    - {x: 0, y: 1, z: 0}
    - {x: 0, y: 1, z: 0}
    - {x: 0, y: 1, z: 0}
    - {x: 0, y: 1, z: 0}
    - {x: 0, y: 1, z: 0}
    - {x: 0, y: 1, z: 0}
    - {x: 0, y: 1, z: 0}
    - {x: 0, y: 1, z: 0}
    - {x: 0, y: 1, z: 0}
    - {x: 0, y: 1, z: 0}
    - {x: 0, y: 1, z: 0}
    - {x: 0, y: 1, z: 0}
    - {x: 0, y: 1, z: 0}
    - {x: 0, y: 1, z: 0}
    - {x: 0, y: 1, z: 0}
    - {x: 0, y: 1, z: 0}
    - {x: 0, y: 1, z: 0}
    - {x: 0, y: 1, z: 0}
    - {x: 0, y: 1, z: 0}
    - {x: 0, y: 1, z: 0}
    - {x: 0, y: 1, z: 0}
    - {x: 0, y: 1, z: 0}
    - {x: 0, y: 1, z: 0}
    - {x: 0, y: 1, z: 0}
    - {x: 0, y: 1, z: 0}
    - {x: 0, y: 1, z: 0}
    - {x: 0, y: 1, z: 0}
    - {x: 0, y: 1, z: 0}
    - {x: 0, y: 1, z: 0}
    - {x: 0, y: 1, z: 0}
    - {x: 0, y: 1, z: 0}
    - {x: 0, y: 1, z: 0}
    - {x: 0, y: 1, z: 0}
    - {x: 0, y: 1, z: 0}
    - {x: 0, y: 1, z: 0}
    - {x: 0, y: 1, z: 0}
    - {x: 0, y: 1, z: 0}
    - {x: 0, y: 1, z: 0}
    - {x: 0, y: 1, z: 0}
    - {x: 0, y: 1, z: 0}
    - {x: 0, y: 1, z: 0}
    - {x: 0, y: 1, z: 0}
    - {x: 0, y: 1, z: 0}
    - {x: 0, y: 1, z: 0}
    - {x: 0, y: 1, z: 0}
    - {x: 0, y: 1, z: 0}
    - {x: 0, y: 1, z: 0}
    - {x: 0, y: 1, z: 0}
    - {x: 0, y: 1, z: 0}
    - {x: 0, y: 1, z: 0}
    - {x: 0, y: 1, z: 0}
    - {x: 0, y: 1, z: 0}
    - {x: 0, y: 1, z: 0}
    - {x: 0, y: 1, z: 0}
    - {x: 0, y: 1, z: 0}
    - {x: 0, y: 1, z: 0}
    - {x: 0, y: 1, z: 0}
    - {x: 0, y: 1, z: 0}
    - {x: 0, y: 1, z: 0}
    - {x: 0, y: 1, z: 0}
    - {x: 0, y: 1, z: 0}
    - {x: 0, y: 1, z: 0}
    - {x: 0, y: 1, z: 0}
    - {x: 0, y: 1, z: 0}
    - {x: 0, y: 1, z: 0}
    - {x: 0, y: 1, z: 0}
    - {x: 0, y: 1, z: 0}
    - {x: 0, y: 1, z: 0}
    - {x: 0, y: 1, z: 0}
    - {x: 0, y: 1, z: 0}
    - {x: 0, y: 1, z: 0}
    - {x: 0, y: 1, z: 0}
    - {x: 0, y: 1, z: 0}
    - {x: 0, y: 1, z: 0}
    - {x: 0, y: 1, z: 0}
    - {x: 0, y: 1, z: 0}
    - {x: 0, y: 1, z: 0}
    - {x: 0, y: 1, z: 0}
    - {x: 0, y: 1, z: 0}
    - {x: 0, y: 1, z: 0}
    - {x: 0, y: 1, z: 0}
    - {x: 0, y: 1, z: 0}
    - {x: 0, y: 1, z: 0}
    - {x: 0, y: 1, z: 0}
    - {x: 0, y: 1, z: 0}
    - {x: 0, y: 1, z: 0}
    - {x: 0, y: 1, z: 0}
    - {x: 0, y: 1, z: 0}
    - {x: 0, y: 1, z: 0}
    - {x: 0, y: 1, z: 0}
    - {x: 0, y: 1, z: 0}
    - {x: 0, y: 1, z: 0}
    - {x: 0, y: 1, z: 0}
    - {x: 0, y: 1, z: 0}
    - {x: 0, y: 1, z: 0}
    - {x: 0, y: 1, z: 0}
    - {x: 0, y: 1, z: 0}
    - {x: 0, y: 1, z: 0}
    - {x: 0, y: 1, z: 0}
    - {x: 0, y: 1, z: 0}
    - {x: 0, y: 1, z: 0}
    - {x: 0, y: 1, z: 0}
    - {x: 0, y: 1, z: 0}
    - {x: 0, y: 1, z: 0}
    - {x: 0, y: 1, z: 0}
    - {x: 0, y: 1, z: 0}
    - {x: 0, y: 1, z: 0}
    - {x: 0, y: 1, z: 0}
    - {x: 0, y: 1, z: 0}
    - {x: 0, y: 1, z: 0}
    - {x: 0, y: 1, z: 0}
    - {x: 0, y: 1, z: 0}
    - {x: 0, y: 1, z: 0}
    - {x: 0, y: 1, z: 0}
    - {x: 0, y: 1, z: 0}
    - {x: 0, y: 1, z: 0}
    - {x: 0, y: 1, z: 0}
    - {x: 0, y: 1, z: 0}
    - {x: 0, y: 1, z: 0}
    - {x: 0, y: 1, z: 0}
    - {x: 0, y: 1, z: 0}
    - {x: 0, y: 1, z: 0}
    - {x: 0, y: 1, z: 0}
    - {x: 0, y: 1, z: 0}
    timeTable:
    - Index: 0
      Value: 0
    - Index: 1
      Value: 0.0010667385
    - Index: 2
      Value: 0.0024439767
    - Index: 3
      Value: 0.0040852954
    - Index: 4
      Value: 0.0059722546
    - Index: 5
      Value: 0.008138575
    - Index: 6
      Value: 0.010224917
    - Index: 7
      Value: 0.012630213
    - Index: 8
      Value: 0.014099451
    - Index: 9
      Value: 0.015529062
    - Index: 10
      Value: 0.016883656
    - Index: 11
      Value: 0.018150989
    - Index: 12
      Value: 0.01936226
    - Index: 13
      Value: 0.020615196
    - Index: 14
      Value: 0.02205432
    - Index: 15
      Value: 0.023840586
    - Index: 16
      Value: 0.02611067
    - Index: 17
      Value: 0.028466377
    - Index: 18
      Value: 0.029048832
    - Index: 19
      Value: 0.031355575
    - Index: 20
      Value: 0.0328321
    - Index: 21
      Value: 0.034291457
    - Index: 22
      Value: 0.035717484
    - Index: 23
      Value: 0.03711403
    - Index: 24
      Value: 0.038532984
    - Index: 25
      Value: 0.04007436
    - Index: 26
      Value: 0.04186618
    - Index: 27
      Value: 0.044041425
    - Index: 28
      Value: 0.046722982
    - Index: 29
      Value: 0.049503777
    - Index: 30
      Value: 0.05003894
    - Index: 31
      Value: 0.05167704
    - Index: 32
      Value: 0.052849032
    - Index: 33
      Value: 0.0540466
    - Index: 34
      Value: 0.055252995
    - Index: 35
      Value: 0.056469183
    - Index: 36
      Value: 0.057714194
    - Index: 37
      Value: 0.059033416
    - Index: 38
      Value: 0.06049406
    - Index: 39
      Value: 0.06217434
    - Index: 40
      Value: 0.06415745
    - Index: 41
      Value: 0.06600323
    - Index: 42
      Value: 0.06665237
    - Index: 43
      Value: 0.068605684
    - Index: 44
      Value: 0.069935486
    - Index: 45
      Value: 0.07128362
    - Index: 46
      Value: 0.07263509
    - Index: 47
      Value: 0.07399364
    - Index: 48
      Value: 0.075394556
    - Index: 49
      Value: 0.076900065
    - Index: 50
      Value: 0.07859738
    - Index: 51
      Value: 0.08058677
    - Index: 52
      Value: 0.082960226
    - Index: 53
      Value: 0.08529719
    - Index: 54
      Value: 0.08585178
    - Index: 55
      Value: 0.08769601
    - Index: 56
      Value: 0.0889525
    - Index: 57
      Value: 0.09021285
    - Index: 58
      Value: 0.09145575
    - Index: 59
      Value: 0.09267536
    - Index: 60
      Value: 0.09389788
    - Index: 61
      Value: 0.09518251
    - Index: 62
      Value: 0.09661691
    - Index: 63
      Value: 0.09830735
    - Index: 64
      Value: 0.10035038
    - Index: 65
      Value: 0.102326855
    - Index: 66
      Value: 0.10305483
    - Index: 67
      Value: 0.10487277
    - Index: 68
      Value: 0.10614713
    - Index: 69
      Value: 0.10744356
    - Index: 70
      Value: 0.10873758
    - Index: 71
      Value: 0.11001776
    - Index: 72
      Value: 0.111290105
    - Index: 73
      Value: 0.11258853
    - Index: 74
      Value: 0.11397032
    - Index: 75
      Value: 0.11552347
    - Index: 76
      Value: 0.117338225
    - Index: 77
      Value: 0.118990704
    - Index: 78
      Value: 0.119667135
    - Index: 79
      Value: 0.12155091
    - Index: 80
      Value: 0.12286242
    - Index: 81
      Value: 0.12420519
    - Index: 82
      Value: 0.1255574
    - Index: 83
      Value: 0.12691757
    - Index: 84
      Value: 0.12830016
    - Index: 85
      Value: 0.12975056
    - Index: 86
      Value: 0.13133451
    - Index: 87
      Value: 0.13313982
    - Index: 88
      Value: 0.13525467
    - Index: 89
      Value: 0.13724886
    - Index: 90
      Value: 0.13777754
    - Index: 91
      Value: 0.13987935
    - Index: 92
      Value: 0.14128694
    - Index: 93
      Value: 0.14271024
    - Index: 94
      Value: 0.14412808
    - Index: 95
      Value: 0.14553478
    - Index: 96
      Value: 0.1469574
    - Index: 97
      Value: 0.14845644
    - Index: 98
      Value: 0.15011916
    - Index: 99
      Value: 0.15205649
    - Index: 100
      Value: 0.15436924
    - Index: 101
      Value: 0.15664457
    - Index: 102
      Value: 0.15742828
    - Index: 103
      Value: 0.15917948
    - Index: 104
      Value: 0.1604196
    - Index: 105
      Value: 0.16168547
    - Index: 106
      Value: 0.16294944
    - Index: 107
      Value: 0.1641981
    - Index: 108
      Value: 0.16543603
    - Index: 109
      Value: 0.16669397
    - Index: 110
      Value: 0.1680282
    - Index: 111
      Value: 0.16951554
    - Index: 112
      Value: 0.17124927
    - Index: 113
      Value: 0.17279704
    - Index: 114
      Value: 0.1734448
    - Index: 115
      Value: 0.17498906
    - Index: 116
      Value: 0.17611907
    - Index: 117
      Value: 0.17727222
    - Index: 118
      Value: 0.17842558
    - Index: 119
      Value: 0.17956246
    - Index: 120
      Value: 0.18068303
    - Index: 121
      Value: 0.18180639
    - Index: 122
      Value: 0.18297906
    - Index: 123
      Value: 0.18426837
    - Index: 124
      Value: 0.18575187
    - Index: 125
      Value: 0.18699832
    - Index: 126
      Value: 0.18774223
    - Index: 127
      Value: 0.18924412
    - Index: 128
      Value: 0.1904293
    - Index: 129
      Value: 0.19169837
    - Index: 130
      Value: 0.19303575
    - Index: 131
      Value: 0.19442299
    - Index: 132
      Value: 0.19585386
    - Index: 133
      Value: 0.19732626
    - Index: 134
      Value: 0.19884631
    - Index: 135
      Value: 0.20043662
    - Index: 136
      Value: 0.20212494
    - Index: 137
      Value: 0.203951
    - Index: 138
      Value: 0.2055182
    - Index: 139
      Value: 0.20742127
    - Index: 140
      Value: 0.20952319
    - Index: 141
      Value: 0.21175106
    - Index: 142
      Value: 0.21412367
    - Index: 143
      Value: 0.21627785
    - Index: 144
      Value: 0.21690276
    - Index: 145
      Value: 0.23940937
    - Index: 146
      Value: 0.2401391
    - Index: 147
      Value: 0.24873734
    - Index: 148
      Value: 0.24946707
    - Index: 149
      Value: 0.25970614
    - Index: 150
      Value: 0.2605748
    - Index: 151
      Value: 0.27305916
    - Index: 152
      Value: 0.27392775
    - Index: 153
      Value: 0.27952683
    - Index: 154
      Value: 0.28025657
    - Index: 155
      Value: 0.3406533
    - Index: 156
      Value: 0.34138298
    - Index: 157
      Value: 0.6586127
    - Index: 158
      Value: 0.6593424
    - Index: 159
      Value: 0.71973914
    - Index: 160
      Value: 0.7204689
    - Index: 161
      Value: 0.72606796
    - Index: 162
      Value: 0.7269365
    - Index: 163
      Value: 0.73942006
    - Index: 164
      Value: 0.7402886
    - Index: 165
      Value: 0.75052965
    - Index: 166
      Value: 0.7512593
    - Index: 167
      Value: 0.75985754
    - Index: 168
      Value: 0.7605873
    - Index: 169
      Value: 0.7830939
    - Index: 170
      Value: 0.78371876
    - Index: 171
      Value: 0.785873
    - Index: 172
      Value: 0.7882457
    - Index: 173
      Value: 0.7904735
    - Index: 174
      Value: 0.7925744
    - Index: 175
      Value: 0.79447746
    - Index: 176
      Value: 0.79604626
    - Index: 177
      Value: 0.7978715
    - Index: 178
      Value: 0.79955983
    - Index: 179
      Value: 0.8011514
    - Index: 180
      Value: 0.80267143
    - Index: 181
      Value: 0.8041422
    - Index: 182
      Value: 0.805573
    - Index: 183
      Value: 0.8069602
    - Index: 184
      Value: 0.8082977
    - Index: 185
      Value: 0.8095687
    - Index: 186
      Value: 0.8107539
    - Index: 187
      Value: 0.81225383
    - Index: 188
      Value: 0.81299776
    - Index: 189
      Value: 0.81424415
    - Index: 190
      Value: 0.81572765
    - Index: 191
      Value: 0.817017
    - Index: 192
      Value: 0.8181897
    - Index: 193
      Value: 0.81931305
    - Index: 194
      Value: 0.8204336
    - Index: 195
      Value: 0.8215705
    - Index: 196
      Value: 0.822724
    - Index: 197
      Value: 0.82387894
    - Index: 198
      Value: 0.82500905
    - Index: 199
      Value: 0.82655144
    - Index: 200
      Value: 0.82719946
    - Index: 201
      Value: 0.82874745
    - Index: 202
      Value: 0.8304806
    - Index: 203
      Value: 0.83196884
    - Index: 204
      Value: 0.8333018
    - Index: 205
      Value: 0.83455974
    - Index: 206
      Value: 0.83579946
    - Index: 207
      Value: 0.8370482
    - Index: 208
      Value: 0.8383102
    - Index: 209
      Value: 0.8395761
    - Index: 210
      Value: 0.8408162
    - Index: 211
      Value: 0.84256923
    - Index: 212
      Value: 0.84335285
    - Index: 213
      Value: 0.8456273
    - Index: 214
      Value: 0.8479413
    - Index: 215
      Value: 0.8498771
    - Index: 216
      Value: 0.8515415
    - Index: 217
      Value: 0.8530406
    - Index: 218
      Value: 0.8544632
    - Index: 219
      Value: 0.85586995
    - Index: 220
      Value: 0.857286
    - Index: 221
      Value: 0.8587093
    - Index: 222
      Value: 0.8601184
    - Index: 223
      Value: 0.8622189
    - Index: 224
      Value: 0.86274767
    - Index: 225
      Value: 0.8647424
    - Index: 226
      Value: 0.8668564
    - Index: 227
      Value: 0.8686629
    - Index: 228
      Value: 0.8702468
    - Index: 229
      Value: 0.87169725
    - Index: 230
      Value: 0.87307984
    - Index: 231
      Value: 0.8744381
    - Index: 232
      Value: 0.87579226
    - Index: 233
      Value: 0.8771332
    - Index: 234
      Value: 0.87844396
    - Index: 235
      Value: 0.8803287
    - Index: 236
      Value: 0.8810048
    - Index: 237
      Value: 0.8826573
    - Index: 238
      Value: 0.884472
    - Index: 239
      Value: 0.88602513
    - Index: 240
      Value: 0.88740855
    - Index: 241
      Value: 0.8887052
    - Index: 242
      Value: 0.8899776
    - Index: 243
      Value: 0.8912577
    - Index: 244
      Value: 0.8925517
    - Index: 245
      Value: 0.8938499
    - Index: 246
      Value: 0.8951226
    - Index: 247
      Value: 0.8969405
    - Index: 248
      Value: 0.8976685
    - Index: 249
      Value: 0.8996449
    - Index: 250
      Value: 0.9016893
    - Index: 251
      Value: 0.90337974
    - Index: 252
      Value: 0.90481406
    - Index: 253
      Value: 0.9060987
    - Index: 254
      Value: 0.9073193
    - Index: 255
      Value: 0.9085407
    - Index: 256
      Value: 0.909782
    - Index: 257
      Value: 0.91104233
    - Index: 258
      Value: 0.91229886
    - Index: 259
      Value: 0.9141441
    - Index: 260
      Value: 0.9146988
    - Index: 261
      Value: 0.9170347
    - Index: 262
      Value: 0.9194094
    - Index: 263
      Value: 0.92139727
    - Index: 264
      Value: 0.92309463
    - Index: 265
      Value: 0.92460006
    - Index: 266
      Value: 0.926001
    - Index: 267
      Value: 0.9273595
    - Index: 268
      Value: 0.928711
    - Index: 269
      Value: 0.93006074
    - Index: 270
      Value: 0.9313891
    - Index: 271
      Value: 0.9333424
    - Index: 272
      Value: 0.93399185
    - Index: 273
      Value: 0.9358389
    - Index: 274
      Value: 0.93782055
    - Index: 275
      Value: 0.9395008
    - Index: 276
      Value: 0.9409614
    - Index: 277
      Value: 0.94228065
    - Index: 278
      Value: 0.9435257
    - Index: 279
      Value: 0.94474185
    - Index: 280
      Value: 0.9459482
    - Index: 281
      Value: 0.94714576
    - Index: 282
      Value: 0.9483178
    - Index: 283
      Value: 0.94995713
    - Index: 284
      Value: 0.9504924
    - Index: 285
      Value: 0.9532724
    - Index: 286
      Value: 0.95595396
    - Index: 287
      Value: 0.9581304
    - Index: 288
      Value: 0.95992064
    - Index: 289
      Value: 0.961462
    - Index: 290
      Value: 0.96288097
    - Index: 291
      Value: 0.9642795
    - Index: 292
      Value: 0.9657037
    - Index: 293
      Value: 0.96716464
    - Index: 294
      Value: 0.9686398
    - Index: 295
      Value: 0.97094655
    - Index: 296
      Value: 0.971529
    - Index: 297
      Value: 0.9738847
    - Index: 298
      Value: 0.9761548
    - Index: 299
      Value: 0.9779425
    - Index: 300
      Value: 0.9793817
    - Index: 301
      Value: 0.98063266
    - Index: 302
      Value: 0.9818458
    - Index: 303
      Value: 0.98311317
    - Index: 304
      Value: 0.9844663
    - Index: 305
      Value: 0.98589593
    - Index: 306
      Value: 0.9873652
    - Index: 307
      Value: 0.9897715
    - Index: 308
      Value: 0.99185795
    - Index: 309
      Value: 0.9940242
    - Index: 310
      Value: 0.99591124
    - Index: 311
      Value: 0.9975541
    - Index: 312
      Value: 0.9989314
    - Index: 313
      Value: 1
    vertexPathDistance: 1.9380397
  meshThickness: 0.0035
  uvArea: 1.000002
  uvSize: {x: 0, y: 0, z: 1, w: 1}
