%YAML 1.1
%TAG !u! tag:unity3d.com,2011:
--- !u!114 &11400000
MonoBehaviour:
  m_ObjectHideFlags: 0
  m_CorrespondingSourceObject: {fileID: 0}
  m_PrefabInstance: {fileID: 0}
  m_PrefabAsset: {fileID: 0}
  m_GameObject: {fileID: 0}
  m_Enabled: 1
  m_EditorHideFlags: 0
  m_Script: {fileID: 11500000, guid: d56705dd0d70ac5409688b7747cced8c, type: 3}
  m_Name: PathsConfig
  m_EditorClassIdentifier: 
  Paths:
  - Assets/Resources/WoodCutting/Platbands/Bashkir_tmp/Platband00/MainPattern
  - Assets/Resources/WoodCutting/Platbands/Bashkir_tmp/Platband00/SubPattern
  - Assets/Resources/WoodCutting/Platbands/Bashkir_tmp/Platband01/MainPattern
  - Assets/Resources/WoodCutting/Platbands/Bashkir_tmp/Platband01/SubPattern
  - Assets/Resources/WoodCutting/Platbands/Bashkir_tmp/Platband02/MainPattern
  - Assets/Resources/WoodCutting/Platbands/Bashkir_tmp/Platband02/SubPattern
  - Assets/Resources/WoodCutting/Platbands/Chuvash_tmp/Platband00/MainPattern
  - Assets/Resources/WoodCutting/Platbands/Chuvash_tmp/Platband00/SubPattern
  - Assets/Resources/WoodCutting/Platbands/Chuvash_tmp/Platband01/MainPattern
  - Assets/Resources/WoodCutting/Platbands/Chuvash_tmp/Platband01/SubPattern
  - Assets/Resources/WoodCutting/Platbands/Chuvash_tmp/Platband02/MainPattern
  - Assets/Resources/WoodCutting/Platbands/Chuvash_tmp/Platband02/SubPattern
  - Assets/Resources/WoodCutting/Platbands/Mari_tmp/Platband00/MainPattern
  - Assets/Resources/WoodCutting/Platbands/Mari_tmp/Platband00/SubPattern
  - Assets/Resources/WoodCutting/Platbands/Mari_tmp/Platband01/MainPattern
  - Assets/Resources/WoodCutting/Platbands/Mari_tmp/Platband01/SubPattern
  - Assets/Resources/WoodCutting/Platbands/Mari_tmp/Platband02/MainPattern
  - Assets/Resources/WoodCutting/Platbands/Mari_tmp/Platband02/SubPattern
  - Assets/Resources/WoodCutting/Platbands/Mordovia_tmp/Platband00/MainPattern
  - Assets/Resources/WoodCutting/Platbands/Mordovia_tmp/Platband00/SubPattern
  - Assets/Resources/WoodCutting/Platbands/Mordovia_tmp/Platband01/MainPattern
  - Assets/Resources/WoodCutting/Platbands/Mordovia_tmp/Platband01/SubPattern
  - Assets/Resources/WoodCutting/Platbands/Mordovia_tmp/Platband02/MainPattern
  - Assets/Resources/WoodCutting/Platbands/Mordovia_tmp/Platband02/SubPattern
  - Assets/Resources/WoodCutting/Platbands/Russian_tmp/Platband00/MainPattern
  - Assets/Resources/WoodCutting/Platbands/Russian_tmp/Platband00/SubPattern
  - Assets/Resources/WoodCutting/Platbands/Russian_tmp/Platband01/MainPattern
  - Assets/Resources/WoodCutting/Platbands/Russian_tmp/Platband01/SubPattern
  - Assets/Resources/WoodCutting/Platbands/Russian_tmp/Platband02/MainPattern
  - Assets/Resources/WoodCutting/Platbands/Russian_tmp/Platband02/SubPattern
  - Assets/Resources/WoodCutting/Platbands/Tatar_tmp/Platband00/MainPattern
  - Assets/Resources/WoodCutting/Platbands/Tatar_tmp/Platband00/SubPattern
  - Assets/Resources/WoodCutting/Platbands/Tatar_tmp/Platband01/MainPattern
  - Assets/Resources/WoodCutting/Platbands/Tatar_tmp/Platband01/SubPattern
  - Assets/Resources/WoodCutting/Platbands/Tatar_tmp/Platband02/MainPattern
  - Assets/Resources/WoodCutting/Platbands/Tatar_tmp/Platband02/SubPattern
  - Assets/Resources/WoodCutting/Platbands/Udmurt_tmp/Platband00/MainPattern
  - Assets/Resources/WoodCutting/Platbands/Udmurt_tmp/Platband00/SubPattern
  - Assets/Resources/WoodCutting/Platbands/Udmurt_tmp/Platband01/MainPattern
  - Assets/Resources/WoodCutting/Platbands/Udmurt_tmp/Platband01/SubPattern
  - Assets/Resources/WoodCutting/Platbands/Udmurt_tmp/Platband02/MainPattern
  - Assets/Resources/WoodCutting/Platbands/Udmurt_tmp/Platband02/SubPattern
