%YAML 1.1
%TAG !u! tag:unity3d.com,2011:
--- !u!114 &11400000
MonoBehaviour:
  m_ObjectHideFlags: 0
  m_CorrespondingSourceObject: {fileID: 0}
  m_PrefabInstance: {fileID: 0}
  m_PrefabAsset: {fileID: 0}
  m_GameObject: {fileID: 0}
  m_Enabled: 1
  m_EditorHideFlags: 0
  m_Script: {fileID: 11500000, guid: 6bff880bde3de7743a01603c3cf96142, type: 3}
  m_Name: VertexPathConfig
  m_EditorClassIdentifier: 
  vertexPathData:
    vertex:
    - {x: -0.00000019505654, y: 0.015000022, z: -0.11004565}
    - {x: -0.29686895, y: 0.015000022, z: -0.11004565}
    - {x: -0.28768894, y: 0.015000018, z: -0.09471939}
    - {x: -0.24472143, y: 0.015000018, z: -0.09471939}
    - {x: -0.24472143, y: 0.015000004, z: -0.02161314}
    - {x: -0.24422647, y: 0.015000002, z: -0.012703147}
    - {x: -0.24378021, y: 0.015000001, z: -0.002761889}
    - {x: -0.24340518, y: 0.014999999, z: 0.007933106}
    - {x: -0.24313517, y: 0.014999996, z: 0.019093107}
    - {x: -0.24299271, y: 0.014999994, z: 0.030444358}
    - {x: -0.24300767, y: 0.014999991, z: 0.041694354}
    - {x: -0.24320646, y: 0.014999989, z: 0.05256936}
    - {x: -0.24361892, y: 0.014999987, z: 0.06278435}
    - {x: -0.24427141, y: 0.014999986, z: 0.0720506}
    - {x: -0.24519022, y: 0.014999983, z: 0.08009435}
    - {x: -0.2464052, y: 0.014999982, z: 0.0866231}
    - {x: -0.2479427, y: 0.014999981, z: 0.09136686}
    - {x: -0.2479427, y: 0.014999977, z: 0.110045604}
    - {x: -0.00000019505654, y: 0.014999977, z: 0.110045604}
    - {x: 0.24794607, y: 0.014999977, z: 0.110045604}
    - {x: 0.24794607, y: 0.014999981, z: 0.09136686}
    - {x: 0.24640481, y: 0.014999982, z: 0.0866231}
    - {x: 0.24518982, y: 0.014999983, z: 0.08009435}
    - {x: 0.24427105, y: 0.014999986, z: 0.0720506}
    - {x: 0.24361856, y: 0.014999987, z: 0.06278435}
    - {x: 0.24320607, y: 0.014999989, z: 0.05256936}
    - {x: 0.24300732, y: 0.014999991, z: 0.041694354}
    - {x: 0.24299231, y: 0.014999994, z: 0.030444358}
    - {x: 0.24313481, y: 0.014999996, z: 0.019093107}
    - {x: 0.24340856, y: 0.014999999, z: 0.007933106}
    - {x: 0.24377981, y: 0.015000001, z: -0.002761889}
    - {x: 0.24422981, y: 0.015000002, z: -0.012703147}
    - {x: 0.24472481, y: 0.015000004, z: -0.02161314}
    - {x: 0.24472481, y: 0.015000018, z: -0.09471939}
    - {x: 0.28768855, y: 0.015000018, z: -0.09471939}
    - {x: 0.29686853, y: 0.015000022, z: -0.11004565}
    - {x: -0.00000019505654, y: 0.015000022, z: -0.11004565}
    tangents:
    - {x: -1, y: 0, z: 0}
    - {x: -0.49302766, y: -0.00000021147056, z: 0.8700136}
    - {x: 0.87001365, y: -0.00000011983816, z: 0.49302763}
    - {x: 0.70710677, y: -0.00000013512071, z: 0.70710677}
    - {x: 0.02774331, y: -0.00000019998649, z: 0.99961513}
    - {x: 0.050155602, y: -0.00000019795586, z: 0.99874145}
    - {x: 0.03994506, y: -0.00000018061723, z: 0.9992019}
    - {x: 0.029616388, y: -0.000000212171, z: 0.99956137}
    - {x: 0.018368322, y: -0.000000207184, z: 0.9998313}
    - {x: 0.0056095826, y: -0.00000020622058, z: 0.99998426}
    - {x: -0.009803122, y: -0.00000020980832, z: 0.99995196}
    - {x: -0.029312354, y: -0.00000022228491, z: 0.9995703}
    - {x: -0.05529994, y: -0.00000018679714, z: 0.99846977}
    - {x: -0.091886714, y: -0.00000022273302, z: 0.99576944}
    - {x: -0.14831349, y: -0.00000024282178, z: 0.9889404}
    - {x: -0.24615367, y: -0.00000016384459, z: 0.9692308}
    - {x: -0.15607299, y: -0.00000019549648, z: 0.9877455}
    - {x: 0.70710677, y: -0.00000014102541, z: 0.70710677}
    - {x: 1, y: 0, z: 0}
    - {x: 0.70710677, y: 0.00000014102541, z: -0.70710677}
    - {x: -0.1564267, y: 0.00000019548558, z: -0.98768955}
    - {x: -0.24650182, y: 0.00000016382661, z: -0.9691423}
    - {x: -0.14831188, y: 0.0000002428219, z: -0.98894066}
    - {x: -0.09188397, y: 0.0000002227331, z: -0.9957697}
    - {x: -0.055301394, y: 0.00000018679711, z: -0.9984697}
    - {x: -0.02931244, y: 0.00000022228491, z: -0.9995703}
    - {x: -0.009803739, y: 0.00000020980832, z: -0.99995196}
    - {x: 0.0056095645, y: 0.00000020622058, z: -0.99998426}
    - {x: 0.018537734, y: 0.00000020718318, z: -0.99982816}
    - {x: 0.029607132, y: 0.00000021217066, z: -0.9995616}
    - {x: 0.03995605, y: 0.00000018061706, z: -0.9992015}
    - {x: 0.050345596, y: 0.00000019795404, z: -0.99873185}
    - {x: 0.027745808, y: 0.00000019998646, z: -0.999615}
    - {x: 0.70710677, y: 0.00000013512071, z: -0.70710677}
    - {x: 0.8700133, y: 0.00000011983832, z: -0.49302828}
    - {x: -0.49302822, y: 0.00000021147049, z: -0.8700133}
    - {x: -1, y: 0, z: 0}
    bitangents:
    - {x: 0, y: 0, z: -1}
    - {x: -0.8700136, y: 0, z: -0.49302766}
    - {x: -0.49302763, y: 0, z: 0.87001365}
    - {x: -0.70710677, y: 0, z: 0.70710677}
    - {x: -0.99961513, y: 0, z: 0.02774331}
    - {x: -0.99874145, y: 0, z: 0.050155602}
    - {x: -0.9992019, y: 0, z: 0.03994506}
    - {x: -0.99956137, y: 0, z: 0.029616388}
    - {x: -0.9998313, y: 0, z: 0.018368322}
    - {x: -0.99998426, y: 0, z: 0.0056095826}
    - {x: -0.99995196, y: 0, z: -0.009803122}
    - {x: -0.9995703, y: 0, z: -0.029312354}
    - {x: -0.99846977, y: 0, z: -0.05529994}
    - {x: -0.99576944, y: 0, z: -0.091886714}
    - {x: -0.9889404, y: 0, z: -0.14831349}
    - {x: -0.9692308, y: 0, z: -0.24615367}
    - {x: -0.9877455, y: 0, z: -0.15607299}
    - {x: -0.70710677, y: 0, z: 0.70710677}
    - {x: 0, y: 0, z: 1}
    - {x: 0.70710677, y: -0, z: 0.70710677}
    - {x: 0.98768955, y: 0, z: -0.1564267}
    - {x: 0.9691423, y: 0, z: -0.24650182}
    - {x: 0.98894066, y: 0, z: -0.14831188}
    - {x: 0.9957697, y: 0, z: -0.09188397}
    - {x: 0.9984697, y: 0, z: -0.055301394}
    - {x: 0.9995703, y: 0, z: -0.02931244}
    - {x: 0.99995196, y: 0, z: -0.009803739}
    - {x: 0.99998426, y: -0, z: 0.0056095645}
    - {x: 0.99982816, y: -0, z: 0.018537734}
    - {x: 0.9995616, y: -0, z: 0.029607132}
    - {x: 0.9992015, y: -0, z: 0.03995605}
    - {x: 0.99873185, y: -0, z: 0.050345596}
    - {x: 0.999615, y: -0, z: 0.027745808}
    - {x: 0.70710677, y: -0, z: 0.70710677}
    - {x: 0.49302828, y: -0, z: 0.8700133}
    - {x: 0.8700133, y: 0, z: -0.49302822}
    - {x: 0, y: 0, z: -1}
    normals:
    - {x: 0, y: 1, z: 0}
    - {x: 0, y: 1, z: 0}
    - {x: 0, y: 1, z: 0}
    - {x: 0, y: 1, z: 0}
    - {x: 0, y: 1, z: 0}
    - {x: 0, y: 1, z: 0}
    - {x: 0, y: 1, z: 0}
    - {x: 0, y: 1, z: 0}
    - {x: 0, y: 1, z: 0}
    - {x: 0, y: 1, z: 0}
    - {x: 0, y: 1, z: 0}
    - {x: 0, y: 1, z: 0}
    - {x: 0, y: 1, z: 0}
    - {x: 0, y: 1, z: 0}
    - {x: 0, y: 1, z: 0}
    - {x: 0, y: 1, z: 0}
    - {x: 0, y: 1, z: 0}
    - {x: 0, y: 1, z: 0}
    - {x: 0, y: 1, z: 0}
    - {x: 0, y: 1, z: 0}
    - {x: 0, y: 1, z: 0}
    - {x: 0, y: 1, z: 0}
    - {x: 0, y: 1, z: 0}
    - {x: 0, y: 1, z: 0}
    - {x: 0, y: 1, z: 0}
    - {x: 0, y: 1, z: 0}
    - {x: 0, y: 1, z: 0}
    - {x: 0, y: 1, z: 0}
    - {x: 0, y: 1, z: 0}
    - {x: 0, y: 1, z: 0}
    - {x: 0, y: 1, z: 0}
    - {x: 0, y: 1, z: 0}
    - {x: 0, y: 1, z: 0}
    - {x: 0, y: 1, z: 0}
    - {x: 0, y: 1, z: 0}
    - {x: 0, y: 1, z: 0}
    - {x: 0, y: 1, z: 0}
    timeTable:
    - Index: 0
      Value: 0
    - Index: 1
      Value: 0.18305242
    - Index: 2
      Value: 0.19406833
    - Index: 3
      Value: 0.22056255
    - Index: 4
      Value: 0.26564062
    - Index: 5
      Value: 0.27114308
    - Index: 6
      Value: 0.27727914
    - Index: 7
      Value: 0.28387785
    - Index: 8
      Value: 0.29076123
    - Index: 9
      Value: 0.29776108
    - Index: 10
      Value: 0.30469796
    - Index: 11
      Value: 0.31140473
    - Index: 12
      Value: 0.31770855
    - Index: 13
      Value: 0.32343635
    - Index: 14
      Value: 0.32842848
    - Index: 15
      Value: 0.3325233
    - Index: 16
      Value: 0.33559814
    - Index: 17
      Value: 0.34711564
    - Index: 18
      Value: 0.49999964
    - Index: 19
      Value: 0.6528859
    - Index: 20
      Value: 0.6644035
    - Index: 21
      Value: 0.66747904
    - Index: 22
      Value: 0.6715738
    - Index: 23
      Value: 0.67656595
    - Index: 24
      Value: 0.6822937
    - Index: 25
      Value: 0.6885975
    - Index: 26
      Value: 0.6953043
    - Index: 27
      Value: 0.7022411
    - Index: 28
      Value: 0.70924103
    - Index: 29
      Value: 0.7161245
    - Index: 30
      Value: 0.72272307
    - Index: 31
      Value: 0.72885925
    - Index: 32
      Value: 0.7343617
    - Index: 33
      Value: 0.77943987
    - Index: 34
      Value: 0.80593175
    - Index: 35
      Value: 0.81694764
    - Index: 36
      Value: 1
    vertexPathDistance: 1.621769
  meshThickness: 0.0035
  uvArea: 0.99999964
  uvSize: {x: 0, y: 0, z: 1, w: 1}
