%YAML 1.1
%TAG !u! tag:unity3d.com,2011:
--- !u!114 &11400000
MonoBehaviour:
  m_ObjectHideFlags: 0
  m_CorrespondingSourceObject: {fileID: 0}
  m_PrefabInstance: {fileID: 0}
  m_PrefabAsset: {fileID: 0}
  m_GameObject: {fileID: 0}
  m_Enabled: 1
  m_EditorHideFlags: 0
  m_Script: {fileID: 11500000, guid: fb5eabf1a0dd445d9fe7a7f1cb629ab2, type: 3}
  m_Name: VoiceConfig
  m_EditorClassIdentifier: 
  StateEnterClipsTerms:
  - pottery/voice/item_slicing/enter
  StateInClipsTerms:
  - pottery/voice/item_slicing/in
  StateExitClipsTerms: []
  WrongClipsTerms: []
  GrandDadPrefab: {fileID: 4761596155152581344, guid: 98edeb202af9c8d41ac2190b4c191536, type: 3}
  StateEnterClips:
  - {fileID: 8300000, guid: 699b1983fe772f34aa00a601d83ba078, type: 3}
  StateInClips:
  - {fileID: 8300000, guid: 0f2d9fe50ad6e5f438a270043d4af260, type: 3}
  StateExitClips: []
  WrongClips: []
