%YAML 1.1
%TAG !u! tag:unity3d.com,2011:
--- !u!114 &11400000
MonoBehaviour:
  m_ObjectHideFlags: 0
  m_CorrespondingSourceObject: {fileID: 0}
  m_PrefabInstance: {fileID: 0}
  m_PrefabAsset: {fileID: 0}
  m_GameObject: {fileID: 0}
  m_Enabled: 1
  m_EditorHideFlags: 0
  m_Script: {fileID: 11500000, guid: e0f22d676cccf5b4095cc1dad716bac0, type: 3}
  m_Name: MeshConfig
  m_EditorClassIdentifier: 
  vertices:
  - {x: -0.2625, y: -0.0875, z: 0}
  - {x: -0.2625, y: 0.0875, z: 0}
  - {x: 0.2625, y: -0.0875, z: 0}
  - {x: 0.2625, y: 0.0875, z: 0}
  normals:
  - {x: 0, y: 0, z: 1}
  - {x: 0, y: 0, z: 1}
  - {x: 0, y: 0, z: 1}
  - {x: 0, y: 0, z: 1}
  triangles: 000000000100000003000000030000000200000000000000
  uv:
  - {x: 0, y: 0}
  - {x: 0, y: 1}
  - {x: 1, y: 0}
  - {x: 1, y: 1}
