%YAML 1.1
%TAG !u! tag:unity3d.com,2011:
--- !u!114 &11400000
MonoBehaviour:
  m_ObjectHideFlags: 0
  m_CorrespondingSourceObject: {fileID: 0}
  m_PrefabInstance: {fileID: 0}
  m_PrefabAsset: {fileID: 0}
  m_GameObject: {fileID: 0}
  m_Enabled: 1
  m_EditorHideFlags: 0
  m_Script: {fileID: 11500000, guid: fb5eabf1a0dd445d9fe7a7f1cb629ab2, type: 3}
  m_Name: ItemPlacingVoiceConfig
  m_EditorClassIdentifier: 
  StateEnterClipsTerms:
  - pottery/voice/final_firing/enter
  StateInClipsTerms: []
  StateExitClipsTerms: []
  WrongClipsTerms: []
  GrandDadPrefab: {fileID: 4761596155152581344, guid: 98edeb202af9c8d41ac2190b4c191536, type: 3}
  StateEnterClips:
  - {fileID: 8300000, guid: b34c6397c29e03c44b7e61c30ee3acf4, type: 3}
  StateInClips: []
  StateExitClips: []
  WrongClips: []
