{
    "name": "PWS.WoodCutting.Stages.ResultsEvaluation",
    "rootNamespace": "PWS.WoodCutting.Stages.ResultsEvaluation",
    "references": [
        "Leopotam.Ecs",
        "Modules.Root.ContainerComponentModel",
        "Modules.Root.ECS",
        "Modules.StateGroup",
        "PWS.Common.UI",
        "PWS.WoodCutting.Common",
        "PWS.Common.SceneSwitchService",
        "PWS.WoodCutting.MarkupPainting",
        "Modules.ViewHub",
        "PWS.Tutorial",
        "Unity.XR.Oculus",
        "PWS.Pottery.Stages.DecorativePainting",
        "PWS.Common.ResultsEvaluation",
        "PWS.Common.ResultsSubmission",
        "PWS.Common.Audio",
        "PWS.Common.Confetti",
        "PWS.FeatureToggles",
        "PWS.Features.Achivements",
        "PWS.Common.GameModeInfoService"
    ],
    "includePlatforms": [],
    "excludePlatforms": [],
    "allowUnsafeCode": false,
    "overrideReferences": false,
    "precompiledReferences": [],
    "autoReferenced": true,
    "defineConstraints": [],
    "versionDefines": [],
    "noEngineReferences": false
}