{
    "name": "PWS.Pottery.Stages.ClayPreparationStage",
    "rootNamespace": "PWS.Pottery.Stages.ClayPreparationStage",
    "references": [
        "Leopotam.Ecs",
        "Unity.XR.Interaction.Toolkit",
        "Modules.StateGroup",
        "Modules.ViewHub",
        "ImpactDeformable",
        "Modules.Root.ContainerComponentModel",
        "Modules.Root.ECS",
        "Modules.Audio",
        "PWS.Common.UI",
        "PWS.Common.ItemDataHolder",
        "PWS.Pottery.ItemDataHolderService",
        "PWS.Common.RestartStage",
        "PWS.Common.Messages",
        "PWS.Pottery.Common",
        "PWS.Common.Audio",
        "PWS.Common.ResultsEvaluation",
        "PWS.Common.TravelPoints",
        "UniRx",
        "PWS.Features.Achivements"
    ],
    "includePlatforms": [],
    "excludePlatforms": [],
    "allowUnsafeCode": false,
    "overrideReferences": false,
    "precompiledReferences": [],
    "autoReferenced": true,
    "defineConstraints": [],
    "versionDefines": [],
    "noEngineReferences": false
}