%YAML 1.1
%TAG !u! tag:unity3d.com,2011:
--- !u!114 &11400000
MonoBehaviour:
  m_ObjectHideFlags: 0
  m_CorrespondingSourceObject: {fileID: 0}
  m_PrefabInstance: {fileID: 0}
  m_PrefabAsset: {fileID: 0}
  m_GameObject: {fileID: 0}
  m_Enabled: 1
  m_EditorHideFlags: 0
  m_Script: {fileID: 11500000, guid: 6bff880bde3de7743a01603c3cf96142, type: 3}
  m_Name: VertexSubPathConfig2
  m_EditorClassIdentifier: 
  vertexPathData:
    vertex:
    - {x: -0.064539626, y: 0.015000159, z: 0.01172416}
    - {x: -0.063178375, y: 0.015000159, z: 0.011364163}
    - {x: -0.061940886, y: 0.015000159, z: 0.010794164}
    - {x: -0.06089839, y: 0.01500016, z: 0.010074164}
    - {x: -0.060118373, y: 0.01500016, z: 0.009264165}
    - {x: -0.05966839, y: 0.01500016, z: 0.008424164}
    - {x: -0.05961963, y: 0.01500016, z: 0.0076179113}
    - {x: -0.060039636, y: 0.01500016, z: 0.006897912}
    - {x: -0.060995888, y: 0.01500016, z: 0.006331662}
    - {x: -0.062559634, y: 0.015000161, z: 0.0059754127}
    - {x: -0.06479837, y: 0.015000161, z: 0.005892913}
    - {x: -0.06546214, y: 0.015000161, z: 0.005746664}
    - {x: -0.06623839, y: 0.015000161, z: 0.005555413}
    - {x: -0.06711213, y: 0.015000161, z: 0.005322914}
    - {x: -0.068057135, y: 0.015000161, z: 0.005045414}
    - {x: -0.06905839, y: 0.015000161, z: 0.0047304146}
    - {x: -0.07009713, y: 0.015000161, z: 0.0043704156}
    - {x: -0.071147144, y: 0.015000161, z: 0.003976666}
    - {x: -0.07219714, y: 0.015000161, z: 0.003541666}
    - {x: -0.073220894, y: 0.015000161, z: 0.0030691673}
    - {x: -0.07419963, y: 0.015000161, z: 0.0025629173}
    - {x: -0.07512213, y: 0.015000161, z: 0.002022916}
    - {x: -0.075958386, y: 0.015000161, z: 0.0014454178}
    - {x: -0.07673088, y: 0.015000161, z: 0.0010366678}
    - {x: -0.077428386, y: 0.015000161, z: 0.000972917}
    - {x: -0.07799463, y: 0.015000161, z: 0.0012129172}
    - {x: -0.07836963, y: 0.015000161, z: 0.0017304178}
    - {x: -0.07849339, y: 0.015000161, z: 0.0024841672}
    - {x: -0.078305885, y: 0.015000161, z: 0.003444169}
    - {x: -0.07775089, y: 0.015000161, z: 0.0045729163}
    - {x: -0.07676463, y: 0.015000161, z: 0.0058404184}
    - {x: -0.07529463, y: 0.01500016, z: 0.007209166}
    - {x: -0.07327339, y: 0.01500016, z: 0.008641667}
    - {x: -0.07064839, y: 0.01500016, z: 0.010107919}
    - {x: -0.06735587, y: 0.015000159, z: 0.011570415}
    - {x: -0.06595339, y: 0.015000159, z: 0.011810412}
    - {x: -0.064539626, y: 0.015000159, z: 0.01172416}
    tangents:
    - {x: 0.9872691, y: 0, z: -0.1590589}
    - {x: 0.9410445, y: 0, z: -0.33828288}
    - {x: 0.8687952, y: 0.00000036891677, z: -0.4951716}
    - {x: 0.7620404, y: 0.0000003693832, z: -0.6475295}
    - {x: 0.58847326, y: 0, z: -0.8085167}
    - {x: 0.2726029, y: 0, z: -0.9621267}
    - {x: -0.23171446, y: 0, z: -0.9727838}
    - {x: -0.7047864, y: 0, z: -0.70941955}
    - {x: -0.9289192, y: 0.000000293884, z: -0.37028247}
    - {x: -0.99150807, y: 0.00000029162234, z: -0.13004532}
    - {x: -0.99196535, y: 0, z: -0.12650976}
    - {x: -0.97384477, y: 0, z: -0.22721446}
    - {x: -0.9687097, y: 0, z: -0.24819668}
    - {x: -0.9630081, y: 0, z: -0.26947227}
    - {x: -0.9567407, y: 0, z: -0.29094207}
    - {x: -0.94948393, y: 0, z: -0.31381574}
    - {x: -0.9406716, y: 0, z: -0.33931822}
    - {x: -0.9302273, y: 0, z: -0.3669839}
    - {x: -0.9160879, y: 0, z: -0.40097746}
    - {x: -0.8983147, y: 0, z: -0.43935248}
    - {x: -0.87591356, y: 0, z: -0.48246807}
    - {x: -0.8435255, y: 0, z: -0.53708905}
    - {x: -0.8548536, y: 0, z: -0.5188693}
    - {x: -0.9585542, y: 0, z: -0.28491023}
    - {x: -0.988031, y: 0, z: 0.15425554}
    - {x: -0.7823865, y: 0, z: 0.6227932}
    - {x: -0.38471878, y: 0, z: 0.92303383}
    - {x: 0.015075646, y: 0, z: 0.99988633}
    - {x: 0.31924376, y: 0, z: 0.9476726}
    - {x: 0.53043664, y: 0, z: 0.8477246}
    - {x: 0.67513835, y: -0.00000023257876, z: 0.7376911}
    - {x: 0.7755874, y: -0.00000023235181, z: 0.6312403}
    - {x: 0.8456691, y: 0, z: 0.53370756}
    - {x: 0.89440143, y: -0.00000012938793, z: 0.44726515}
    - {x: 0.95716614, y: -0.00000013025728, z: 0.28953943}
    - {x: 0.9985275, y: 0, z: 0.05424728}
    - {x: 0.9872691, y: 0, z: -0.1590589}
    bitangents:
    - {x: 0.1590589, y: -0, z: 0.9872691}
    - {x: 0.33828288, y: -0, z: 0.9410445}
    - {x: 0.4951716, y: -0, z: 0.8687952}
    - {x: 0.6475295, y: -0, z: 0.7620404}
    - {x: 0.8085167, y: -0, z: 0.58847326}
    - {x: 0.9621267, y: -0, z: 0.2726029}
    - {x: 0.9727838, y: 0, z: -0.23171446}
    - {x: 0.70941955, y: 0, z: -0.7047864}
    - {x: 0.37028247, y: 0, z: -0.9289192}
    - {x: 0.13004532, y: 0, z: -0.99150807}
    - {x: 0.12650976, y: 0, z: -0.99196535}
    - {x: 0.22721446, y: 0, z: -0.97384477}
    - {x: 0.24819668, y: 0, z: -0.9687097}
    - {x: 0.26947227, y: 0, z: -0.9630081}
    - {x: 0.29094207, y: 0, z: -0.9567407}
    - {x: 0.31381574, y: 0, z: -0.94948393}
    - {x: 0.33931822, y: 0, z: -0.9406716}
    - {x: 0.3669839, y: 0, z: -0.9302273}
    - {x: 0.40097746, y: 0, z: -0.9160879}
    - {x: 0.43935248, y: 0, z: -0.8983147}
    - {x: 0.48246807, y: 0, z: -0.87591356}
    - {x: 0.53708905, y: 0, z: -0.8435255}
    - {x: 0.5188693, y: 0, z: -0.8548536}
    - {x: 0.28491023, y: 0, z: -0.9585542}
    - {x: -0.15425554, y: 0, z: -0.988031}
    - {x: -0.6227932, y: 0, z: -0.7823865}
    - {x: -0.92303383, y: 0, z: -0.38471878}
    - {x: -0.99988633, y: 0, z: 0.015075646}
    - {x: -0.9476726, y: 0, z: 0.31924376}
    - {x: -0.8477246, y: 0, z: 0.53043664}
    - {x: -0.7376911, y: 0, z: 0.67513835}
    - {x: -0.6312403, y: 0, z: 0.7755874}
    - {x: -0.53370756, y: 0, z: 0.8456691}
    - {x: -0.44726515, y: 0, z: 0.89440143}
    - {x: -0.28953943, y: 0, z: 0.95716614}
    - {x: -0.05424728, y: 0, z: 0.9985275}
    - {x: 0.1590589, y: -0, z: 0.9872691}
    normals:
    - {x: 0, y: 1, z: 0}
    - {x: 0, y: 1, z: 0}
    - {x: 0, y: 1, z: 0}
    - {x: 0, y: 1, z: 0}
    - {x: 0, y: 1, z: 0}
    - {x: 0, y: 1, z: 0}
    - {x: 0, y: 1, z: 0}
    - {x: 0, y: 1, z: 0}
    - {x: 0, y: 1, z: 0}
    - {x: 0, y: 1, z: 0}
    - {x: 0, y: 1, z: 0}
    - {x: 0, y: 1, z: 0}
    - {x: 0, y: 1, z: 0}
    - {x: 0, y: 1, z: 0}
    - {x: 0, y: 1, z: 0}
    - {x: 0, y: 1, z: 0}
    - {x: 0, y: 1, z: 0}
    - {x: 0, y: 1, z: 0}
    - {x: 0, y: 1, z: 0}
    - {x: 0, y: 1, z: 0}
    - {x: 0, y: 1, z: 0}
    - {x: 0, y: 1, z: 0}
    - {x: 0, y: 1, z: 0}
    - {x: 0, y: 1, z: 0}
    - {x: 0, y: 1, z: 0}
    - {x: 0, y: 1, z: 0}
    - {x: 0, y: 1, z: 0}
    - {x: 0, y: 1, z: 0}
    - {x: 0, y: 1, z: 0}
    - {x: 0, y: 1, z: 0}
    - {x: 0, y: 1, z: 0}
    - {x: 0, y: 1, z: 0}
    - {x: 0, y: 1, z: 0}
    - {x: 0, y: 1, z: 0}
    - {x: 0, y: 1, z: 0}
    - {x: 0, y: 1, z: 0}
    - {x: 0, y: 1, z: 0}
    timeTable:
    - Index: 0
      Value: 0
    - Index: 1
      Value: 0.030496819
    - Index: 2
      Value: 0.06000608
    - Index: 3
      Value: 0.08744715
    - Index: 4
      Value: 0.11180284
    - Index: 5
      Value: 0.13244241
    - Index: 6
      Value: 0.14993687
    - Index: 7
      Value: 0.16799062
    - Index: 8
      Value: 0.19206084
    - Index: 9
      Value: 0.2267977
    - Index: 10
      Value: 0.27531922
    - Index: 11
      Value: 0.29004064
    - Index: 12
      Value: 0.30735606
    - Index: 13
      Value: 0.32693893
    - Index: 14
      Value: 0.34827086
    - Index: 15
      Value: 0.37100482
    - Index: 16
      Value: 0.39481574
    - Index: 17
      Value: 0.41910425
    - Index: 18
      Value: 0.4437204
    - Index: 19
      Value: 0.4681415
    - Index: 20
      Value: 0.4920078
    - Index: 21
      Value: 0.51515967
    - Index: 22
      Value: 0.5371712
    - Index: 23
      Value: 0.55610037
    - Index: 24
      Value: 0.57127064
    - Index: 25
      Value: 0.584591
    - Index: 26
      Value: 0.59843296
    - Index: 27
      Value: 0.61497694
    - Index: 28
      Value: 0.6361624
    - Index: 29
      Value: 0.66340524
    - Index: 30
      Value: 0.69818974
    - Index: 31
      Value: 0.74169326
    - Index: 32
      Value: 0.79535085
    - Index: 33
      Value: 0.86047375
    - Index: 34
      Value: 0.9385047
    - Index: 35
      Value: 0.96932244
    - Index: 36
      Value: 1
    vertexPathDistance: 0.046170358
  meshThickness: 0.0035
  uvArea: 0.17500003
  uvSize: {x: 0.4125, y: 0, z: 0.17500004, w: 1}
