%YAML 1.1
%TAG !u! tag:unity3d.com,2011:
--- !u!1 &7086874749192390291
GameObject:
  m_ObjectHideFlags: 0
  m_CorrespondingSourceObject: {fileID: 0}
  m_PrefabInstance: {fileID: 0}
  m_PrefabAsset: {fileID: 0}
  serializedVersion: 6
  m_Component:
  - component: {fileID: 4935496940776574707}
  m_Layer: 13
  m_Name: Attach
  m_TagString: Untagged
  m_Icon: {fileID: 0}
  m_NavMeshLayer: 0
  m_StaticEditorFlags: 0
  m_IsActive: 1
--- !u!4 &4935496940776574707
Transform:
  m_ObjectHideFlags: 0
  m_CorrespondingSourceObject: {fileID: 0}
  m_PrefabInstance: {fileID: 0}
  m_PrefabAsset: {fileID: 0}
  m_GameObject: {fileID: 7086874749192390291}
  m_LocalRotation: {x: -0, y: 0.25881898, z: -0.9659258, w: -0.0000000074505797}
  m_LocalPosition: {x: 0, y: 0, z: 0}
  m_LocalScale: {x: 1, y: 1, z: 1}
  m_Children:
  - {fileID: 884134860836764703}
  - {fileID: 5747181370713071855}
  m_Father: {fileID: 0}
  m_RootOrder: 0
  m_LocalEulerAnglesHint: {x: 60, y: 180, z: 0}
--- !u!1001 &851086346143112180
PrefabInstance:
  m_ObjectHideFlags: 0
  serializedVersion: 2
  m_Modification:
    m_TransformParent: {fileID: 4935496940776574707}
    m_Modifications:
    - target: {fileID: -8679921383154817045, guid: 4a5cd72898451324b9785886d897cbc3, type: 3}
      propertyPath: m_RootOrder
      value: 0
      objectReference: {fileID: 0}
    - target: {fileID: -8679921383154817045, guid: 4a5cd72898451324b9785886d897cbc3, type: 3}
      propertyPath: m_LocalPosition.x
      value: -0.0716
      objectReference: {fileID: 0}
    - target: {fileID: -8679921383154817045, guid: 4a5cd72898451324b9785886d897cbc3, type: 3}
      propertyPath: m_LocalPosition.y
      value: -0.05
      objectReference: {fileID: 0}
    - target: {fileID: -8679921383154817045, guid: 4a5cd72898451324b9785886d897cbc3, type: 3}
      propertyPath: m_LocalPosition.z
      value: 0.1062
      objectReference: {fileID: 0}
    - target: {fileID: -8679921383154817045, guid: 4a5cd72898451324b9785886d897cbc3, type: 3}
      propertyPath: m_LocalRotation.w
      value: -0.06018684
      objectReference: {fileID: 0}
    - target: {fileID: -8679921383154817045, guid: 4a5cd72898451324b9785886d897cbc3, type: 3}
      propertyPath: m_LocalRotation.x
      value: 0.8100051
      objectReference: {fileID: 0}
    - target: {fileID: -8679921383154817045, guid: 4a5cd72898451324b9785886d897cbc3, type: 3}
      propertyPath: m_LocalRotation.y
      value: 0.25063488
      objectReference: {fileID: 0}
    - target: {fileID: -8679921383154817045, guid: 4a5cd72898451324b9785886d897cbc3, type: 3}
      propertyPath: m_LocalRotation.z
      value: -0.5267366
      objectReference: {fileID: 0}
    - target: {fileID: -8679921383154817045, guid: 4a5cd72898451324b9785886d897cbc3, type: 3}
      propertyPath: m_LocalEulerAnglesHint.x
      value: 9.586
      objectReference: {fileID: 0}
    - target: {fileID: -8679921383154817045, guid: 4a5cd72898451324b9785886d897cbc3, type: 3}
      propertyPath: m_LocalEulerAnglesHint.y
      value: 243.637
      objectReference: {fileID: 0}
    - target: {fileID: -8679921383154817045, guid: 4a5cd72898451324b9785886d897cbc3, type: 3}
      propertyPath: m_LocalEulerAnglesHint.z
      value: 151.57
      objectReference: {fileID: 0}
    - target: {fileID: 919132149155446097, guid: 4a5cd72898451324b9785886d897cbc3, type: 3}
      propertyPath: m_Name
      value: hands_writes_l
      objectReference: {fileID: 0}
    - target: {fileID: 919132149155446097, guid: 4a5cd72898451324b9785886d897cbc3, type: 3}
      propertyPath: m_IsActive
      value: 0
      objectReference: {fileID: 0}
    - target: {fileID: 3623037877208060755, guid: 4a5cd72898451324b9785886d897cbc3, type: 3}
      propertyPath: m_Materials.Array.data[0]
      value: 
      objectReference: {fileID: 2100000, guid: fca3ce6904fd44246ba4248031219db7, type: 2}
    - target: {fileID: 7890248073910478919, guid: 4a5cd72898451324b9785886d897cbc3, type: 3}
      propertyPath: m_LocalPosition.x
      value: 0.4071
      objectReference: {fileID: 0}
    - target: {fileID: 7890248073910478919, guid: 4a5cd72898451324b9785886d897cbc3, type: 3}
      propertyPath: m_LocalPosition.y
      value: 0.2528
      objectReference: {fileID: 0}
    - target: {fileID: 7890248073910478919, guid: 4a5cd72898451324b9785886d897cbc3, type: 3}
      propertyPath: m_LocalPosition.z
      value: 0.0243
      objectReference: {fileID: 0}
    - target: {fileID: 7890248073910478919, guid: 4a5cd72898451324b9785886d897cbc3, type: 3}
      propertyPath: m_LocalRotation.w
      value: 0.24400428
      objectReference: {fileID: 0}
    - target: {fileID: 7890248073910478919, guid: 4a5cd72898451324b9785886d897cbc3, type: 3}
      propertyPath: m_LocalRotation.x
      value: 0.8009599
      objectReference: {fileID: 0}
    - target: {fileID: 7890248073910478919, guid: 4a5cd72898451324b9785886d897cbc3, type: 3}
      propertyPath: m_LocalRotation.y
      value: -0.33023173
      objectReference: {fileID: 0}
    - target: {fileID: 7890248073910478919, guid: 4a5cd72898451324b9785886d897cbc3, type: 3}
      propertyPath: m_LocalRotation.z
      value: 0.43574342
      objectReference: {fileID: 0}
    - target: {fileID: 7890248073910478919, guid: 4a5cd72898451324b9785886d897cbc3, type: 3}
      propertyPath: m_LocalEulerAnglesHint.x
      value: 42.74
      objectReference: {fileID: 0}
    - target: {fileID: 7890248073910478919, guid: 4a5cd72898451324b9785886d897cbc3, type: 3}
      propertyPath: m_LocalEulerAnglesHint.y
      value: 133.031
      objectReference: {fileID: 0}
    - target: {fileID: 7890248073910478919, guid: 4a5cd72898451324b9785886d897cbc3, type: 3}
      propertyPath: m_LocalEulerAnglesHint.z
      value: 205.515
      objectReference: {fileID: 0}
    m_RemovedComponents: []
  m_SourcePrefab: {fileID: 100100000, guid: 4a5cd72898451324b9785886d897cbc3, type: 3}
--- !u!4 &884134860836764703 stripped
Transform:
  m_CorrespondingSourceObject: {fileID: -8679921383154817045, guid: 4a5cd72898451324b9785886d897cbc3, type: 3}
  m_PrefabInstance: {fileID: 851086346143112180}
  m_PrefabAsset: {fileID: 0}
--- !u!1001 &5208604819935528708
PrefabInstance:
  m_ObjectHideFlags: 0
  serializedVersion: 2
  m_Modification:
    m_TransformParent: {fileID: 4935496940776574707}
    m_Modifications:
    - target: {fileID: -9179062518308177788, guid: 66b046aaa7e782c46b43455d2029a54d, type: 3}
      propertyPath: m_LocalScale.x
      value: 0.00999999
      objectReference: {fileID: 0}
    - target: {fileID: -9179062518308177788, guid: 66b046aaa7e782c46b43455d2029a54d, type: 3}
      propertyPath: m_LocalScale.y
      value: 0.00999999
      objectReference: {fileID: 0}
    - target: {fileID: -9179062518308177788, guid: 66b046aaa7e782c46b43455d2029a54d, type: 3}
      propertyPath: m_LocalScale.z
      value: 0.00999999
      objectReference: {fileID: 0}
    - target: {fileID: -9179062518308177788, guid: 66b046aaa7e782c46b43455d2029a54d, type: 3}
      propertyPath: m_LocalPosition.x
      value: 0.3004
      objectReference: {fileID: 0}
    - target: {fileID: -9179062518308177788, guid: 66b046aaa7e782c46b43455d2029a54d, type: 3}
      propertyPath: m_LocalPosition.y
      value: 0.1264
      objectReference: {fileID: 0}
    - target: {fileID: -9179062518308177788, guid: 66b046aaa7e782c46b43455d2029a54d, type: 3}
      propertyPath: m_LocalPosition.z
      value: 0.2617
      objectReference: {fileID: 0}
    - target: {fileID: -9179062518308177788, guid: 66b046aaa7e782c46b43455d2029a54d, type: 3}
      propertyPath: m_LocalRotation.w
      value: 0.061481655
      objectReference: {fileID: 0}
    - target: {fileID: -9179062518308177788, guid: 66b046aaa7e782c46b43455d2029a54d, type: 3}
      propertyPath: m_LocalRotation.x
      value: 0.21789646
      objectReference: {fileID: 0}
    - target: {fileID: -9179062518308177788, guid: 66b046aaa7e782c46b43455d2029a54d, type: 3}
      propertyPath: m_LocalRotation.y
      value: -0.6350131
      objectReference: {fileID: 0}
    - target: {fileID: -9179062518308177788, guid: 66b046aaa7e782c46b43455d2029a54d, type: 3}
      propertyPath: m_LocalRotation.z
      value: 0.7385794
      objectReference: {fileID: 0}
    - target: {fileID: -9179062518308177788, guid: 66b046aaa7e782c46b43455d2029a54d, type: 3}
      propertyPath: m_LocalEulerAnglesHint.x
      value: 74.755
      objectReference: {fileID: 0}
    - target: {fileID: -9179062518308177788, guid: 66b046aaa7e782c46b43455d2029a54d, type: 3}
      propertyPath: m_LocalEulerAnglesHint.y
      value: 67.987
      objectReference: {fileID: 0}
    - target: {fileID: -9179062518308177788, guid: 66b046aaa7e782c46b43455d2029a54d, type: 3}
      propertyPath: m_LocalEulerAnglesHint.z
      value: 224.994
      objectReference: {fileID: 0}
    - target: {fileID: -8679921383154817045, guid: 66b046aaa7e782c46b43455d2029a54d, type: 3}
      propertyPath: m_RootOrder
      value: 1
      objectReference: {fileID: 0}
    - target: {fileID: -8679921383154817045, guid: 66b046aaa7e782c46b43455d2029a54d, type: 3}
      propertyPath: m_LocalPosition.x
      value: -0.0687
      objectReference: {fileID: 0}
    - target: {fileID: -8679921383154817045, guid: 66b046aaa7e782c46b43455d2029a54d, type: 3}
      propertyPath: m_LocalPosition.y
      value: -0.0445
      objectReference: {fileID: 0}
    - target: {fileID: -8679921383154817045, guid: 66b046aaa7e782c46b43455d2029a54d, type: 3}
      propertyPath: m_LocalPosition.z
      value: 0.096
      objectReference: {fileID: 0}
    - target: {fileID: -8679921383154817045, guid: 66b046aaa7e782c46b43455d2029a54d, type: 3}
      propertyPath: m_LocalRotation.w
      value: -0.06018684
      objectReference: {fileID: 0}
    - target: {fileID: -8679921383154817045, guid: 66b046aaa7e782c46b43455d2029a54d, type: 3}
      propertyPath: m_LocalRotation.x
      value: 0.8100051
      objectReference: {fileID: 0}
    - target: {fileID: -8679921383154817045, guid: 66b046aaa7e782c46b43455d2029a54d, type: 3}
      propertyPath: m_LocalRotation.y
      value: 0.25063488
      objectReference: {fileID: 0}
    - target: {fileID: -8679921383154817045, guid: 66b046aaa7e782c46b43455d2029a54d, type: 3}
      propertyPath: m_LocalRotation.z
      value: -0.5267366
      objectReference: {fileID: 0}
    - target: {fileID: -8679921383154817045, guid: 66b046aaa7e782c46b43455d2029a54d, type: 3}
      propertyPath: m_LocalEulerAnglesHint.x
      value: 9.586
      objectReference: {fileID: 0}
    - target: {fileID: -8679921383154817045, guid: 66b046aaa7e782c46b43455d2029a54d, type: 3}
      propertyPath: m_LocalEulerAnglesHint.y
      value: 243.637
      objectReference: {fileID: 0}
    - target: {fileID: -8679921383154817045, guid: 66b046aaa7e782c46b43455d2029a54d, type: 3}
      propertyPath: m_LocalEulerAnglesHint.z
      value: 151.57
      objectReference: {fileID: 0}
    - target: {fileID: -4373592168899352408, guid: 66b046aaa7e782c46b43455d2029a54d, type: 3}
      propertyPath: m_Materials.Array.data[0]
      value: 
      objectReference: {fileID: 2100000, guid: fca3ce6904fd44246ba4248031219db7, type: 2}
    - target: {fileID: 919132149155446097, guid: 66b046aaa7e782c46b43455d2029a54d, type: 3}
      propertyPath: m_Name
      value: hands_writes_r
      objectReference: {fileID: 0}
    - target: {fileID: 919132149155446097, guid: 66b046aaa7e782c46b43455d2029a54d, type: 3}
      propertyPath: m_IsActive
      value: 0
      objectReference: {fileID: 0}
    m_RemovedComponents: []
  m_SourcePrefab: {fileID: 100100000, guid: 66b046aaa7e782c46b43455d2029a54d, type: 3}
--- !u!4 &5747181370713071855 stripped
Transform:
  m_CorrespondingSourceObject: {fileID: -8679921383154817045, guid: 66b046aaa7e782c46b43455d2029a54d, type: 3}
  m_PrefabInstance: {fileID: 5208604819935528708}
  m_PrefabAsset: {fileID: 0}
