%YAML 1.1
%TAG !u! tag:unity3d.com,2011:
--- !u!114 &11400000
MonoBehaviour:
  m_ObjectHideFlags: 0
  m_CorrespondingSourceObject: {fileID: 0}
  m_PrefabInstance: {fileID: 0}
  m_PrefabAsset: {fileID: 0}
  m_GameObject: {fileID: 0}
  m_Enabled: 1
  m_EditorHideFlags: 0
  m_Script: {fileID: 11500000, guid: cd3f860aa6c7efa438f21ebc3558de50, type: 3}
  m_Name: W_ToningStateInfoData
  m_EditorClassIdentifier: 
  HeaderTerm: woodcutter/state_info/toning/header
  MainTextTerm: woodcutter/state_info/toning/main_text
  BottomTerm: woodcutter/state_info/toning/bottom
  AndSecondary: 0
  Header: "\u041F\u043E\u043A\u0440\u044B\u0442\u0438\u0435 \u043F\u043E\u0432\u0435\u0440\u0445\u043D\u043E\u0441\u0442\u0438
    \u0438\u0437\u0434\u0435\u043B\u0438\u044F \u0442\u043E\u043D\u0438\u0440\u043E\u0432\u043E\u0447\u043D\u044B\u043C
    \u043F\u043E\u043A\u0440\u044B\u0442\u0438\u0435\u043C\t"
  MainText: "\u2022\u0412\u044B\u0431\u0435\u0440\u0438\u0442\u0435 \u043F\u043E\u043D\u0440\u0430\u0432\u0438\u0432\u0448\u0438\u0439\u0441\u044F
    \u0446\u0432\u0435\u0442 \r\n\u2022\u0412\u043E\u0437\u044C\u043C\u0438\u0442\u0435
    \u0441\u043E \u0441\u0442\u043E\u043B\u0430 \u0432\u0430\u043B\u0438\u043A\r\n\u2022\u041D\u0430\u043D\u0435\u0441\u0438\u0442\u0435
    \u0442\u043E\u043D\u0438\u0440\u043E\u0432\u043E\u0447\u043D\u043E\u0435 \u043F\u043E\u043A\u0440\u044B\u0442\u0438\u0435
    \u043D\u0430 \u0438\u0437\u0434\u0435\u043B\u0438\u0435 "
  Bottom: "\u0421\u043B\u0435\u0434\u0443\u044E\u0449\u0438\u0439 \u044D\u0442\u0430\u043F:
    \u0444\u0438\u043D\u0430\u043B\u044C\u043D\u0430\u044F \u0441\u0431\u043E\u0440\u043A\u0430
    \u0430\u043D\u0441\u0430\u043C\u0431\u043B\u044F  "
