%YAML 1.1
%TAG !u! tag:unity3d.com,2011:
--- !u!114 &11400000
MonoBehaviour:
  m_ObjectHideFlags: 0
  m_CorrespondingSourceObject: {fileID: 0}
  m_PrefabInstance: {fileID: 0}
  m_PrefabAsset: {fileID: 0}
  m_GameObject: {fileID: 0}
  m_Enabled: 1
  m_EditorHideFlags: 0
  m_Script: {fileID: 11500000, guid: 6bff880bde3de7743a01603c3cf96142, type: 3}
  m_Name: VertexPathConfig
  m_EditorClassIdentifier: 
  vertexPathData:
    vertex:
    - {x: -0.00000026211177, y: 0.015000139, z: -0.098396435}
    - {x: -0.15387775, y: 0.015000122, z: -0.013916425}
    - {x: -0.13724275, y: 0.015000116, z: 0.011039823}
    - {x: -0.13295649, y: 0.015000118, z: 0.00864733}
    - {x: -0.12466899, y: 0.015000115, z: 0.017441079}
    - {x: -0.12146274, y: 0.015000115, z: 0.01562608}
    - {x: -0.107824005, y: 0.015000113, z: 0.031106077}
    - {x: -0.10876525, y: 0.015000111, z: 0.034612328}
    - {x: -0.11045275, y: 0.0150001105, z: 0.038009826}
    - {x: -0.11292777, y: 0.0150001105, z: 0.04112233}
    - {x: -0.11625401, y: 0.01500011, z: 0.043777328}
    - {x: -0.12047652, y: 0.01500011, z: 0.045791075}
    - {x: -0.12564777, y: 0.01500011, z: 0.046994824}
    - {x: -0.13182403, y: 0.01500011, z: 0.047204826}
    - {x: -0.13905777, y: 0.01500011, z: 0.04625233}
    - {x: -0.14739777, y: 0.01500011, z: 0.043957327}
    - {x: -0.15690027, y: 0.0150001105, z: 0.040139828}
    - {x: -0.16761403, y: 0.015000111, z: 0.034631073}
    - {x: -0.17959525, y: 0.015000113, z: 0.027247325}
    - {x: -0.24606775, y: 0.015000113, z: 0.028113581}
    - {x: -0.245344, y: 0.0150001, z: 0.094931066}
    - {x: -0.17578526, y: 0.0150001, z: 0.09492357}
    - {x: -0.175564, y: 0.015000099, z: 0.095804825}
    - {x: -0.17510279, y: 0.015000098, z: 0.09658857}
    - {x: -0.17443903, y: 0.015000098, z: 0.09725608}
    - {x: -0.17361777, y: 0.015000098, z: 0.09778857}
    - {x: -0.172684, y: 0.015000098, z: 0.09817107}
    - {x: -0.17168276, y: 0.015000098, z: 0.09837732}
    - {x: -0.17065902, y: 0.015000098, z: 0.09839608}
    - {x: -0.169654, y: 0.015000098, z: 0.098201066}
    - {x: -0.168709, y: 0.015000098, z: 0.09777357}
    - {x: -0.16787653, y: 0.015000098, z: 0.097098574}
    - {x: -0.167194, y: 0.015000098, z: 0.09615733}
    - {x: -0.16670652, y: 0.0150001, z: 0.09492357}
    - {x: -0.14946403, y: 0.0150001, z: 0.09492357}
    - {x: -0.14924277, y: 0.015000099, z: 0.095804825}
    - {x: -0.14878152, y: 0.015000098, z: 0.09658857}
    - {x: -0.14811404, y: 0.015000098, z: 0.09725608}
    - {x: -0.1472965, y: 0.015000098, z: 0.09778857}
    - {x: -0.14636277, y: 0.015000098, z: 0.09817107}
    - {x: -0.14536153, y: 0.015000098, z: 0.09837732}
    - {x: -0.14433776, y: 0.015000098, z: 0.09839608}
    - {x: -0.14332901, y: 0.015000098, z: 0.098201066}
    - {x: -0.14238776, y: 0.015000098, z: 0.09777357}
    - {x: -0.14155526, y: 0.015000098, z: 0.097098574}
    - {x: -0.14087276, y: 0.015000098, z: 0.09615733}
    - {x: -0.14038529, y: 0.0150001, z: 0.09492357}
    - {x: -0.123139, y: 0.0150001, z: 0.09492357}
    - {x: -0.122921504, y: 0.015000099, z: 0.095804825}
    - {x: -0.12245653, y: 0.015000098, z: 0.09658857}
    - {x: -0.12179274, y: 0.015000098, z: 0.09725608}
    - {x: -0.12097526, y: 0.015000098, z: 0.09778857}
    - {x: -0.12004153, y: 0.015000098, z: 0.09817107}
    - {x: -0.11904026, y: 0.015000098, z: 0.09837732}
    - {x: -0.11801276, y: 0.015000098, z: 0.09839608}
    - {x: -0.11700774, y: 0.015000098, z: 0.098201066}
    - {x: -0.11606652, y: 0.015000098, z: 0.09777357}
    - {x: -0.11523024, y: 0.015000098, z: 0.097098574}
    - {x: -0.11454777, y: 0.015000098, z: 0.09615733}
    - {x: -0.11406026, y: 0.0150001, z: 0.09492357}
    - {x: -0.09681774, y: 0.0150001, z: 0.09492357}
    - {x: -0.09660027, y: 0.015000099, z: 0.095804825}
    - {x: -0.096135266, y: 0.015000098, z: 0.09658857}
    - {x: -0.09547151, y: 0.015000098, z: 0.09725608}
    - {x: -0.094650246, y: 0.015000098, z: 0.09778857}
    - {x: -0.093720235, y: 0.015000098, z: 0.09817107}
    - {x: -0.092718996, y: 0.015000098, z: 0.09837732}
    - {x: -0.09169153, y: 0.015000098, z: 0.09839608}
    - {x: -0.09068651, y: 0.015000098, z: 0.098201066}
    - {x: -0.08974526, y: 0.015000098, z: 0.09777357}
    - {x: -0.08890901, y: 0.015000098, z: 0.097098574}
    - {x: -0.088226505, y: 0.015000098, z: 0.09615733}
    - {x: -0.087739, y: 0.0150001, z: 0.09492357}
    - {x: -0.07049651, y: 0.0150001, z: 0.09492357}
    - {x: -0.07027901, y: 0.015000099, z: 0.095804825}
    - {x: -0.069814004, y: 0.015000098, z: 0.09658857}
    - {x: -0.06915028, y: 0.015000098, z: 0.09725608}
    - {x: -0.068329014, y: 0.015000098, z: 0.09778857}
    - {x: -0.067399, y: 0.015000098, z: 0.09817107}
    - {x: -0.066397764, y: 0.015000098, z: 0.09837732}
    - {x: -0.06537024, y: 0.015000098, z: 0.09839608}
    - {x: -0.064365245, y: 0.015000098, z: 0.098201066}
    - {x: -0.063424, y: 0.015000098, z: 0.09777357}
    - {x: -0.062587775, y: 0.015000098, z: 0.097098574}
    - {x: -0.061905243, y: 0.015000098, z: 0.09615733}
    - {x: -0.061417766, y: 0.0150001, z: 0.09492357}
    - {x: -0.044175275, y: 0.0150001, z: 0.09492357}
    - {x: -0.043957748, y: 0.015000099, z: 0.095804825}
    - {x: -0.043492742, y: 0.015000098, z: 0.09658857}
    - {x: -0.042829014, y: 0.015000098, z: 0.09725608}
    - {x: -0.04200775, y: 0.015000098, z: 0.09778857}
    - {x: -0.041074015, y: 0.015000098, z: 0.09817107}
    - {x: -0.040072776, y: 0.015000098, z: 0.09837732}
    - {x: -0.039049007, y: 0.015000098, z: 0.09839608}
    - {x: -0.038044013, y: 0.015000098, z: 0.098201066}
    - {x: -0.037102766, y: 0.015000098, z: 0.09777357}
    - {x: -0.036266513, y: 0.015000098, z: 0.097098574}
    - {x: -0.03558401, y: 0.015000098, z: 0.09615733}
    - {x: -0.035096504, y: 0.0150001, z: 0.09492357}
    - {x: -0.017854014, y: 0.0150001, z: 0.09492357}
    - {x: -0.017632762, y: 0.015000099, z: 0.095804825}
    - {x: -0.017171511, y: 0.015000098, z: 0.09658857}
    - {x: -0.016507754, y: 0.015000098, z: 0.09725608}
    - {x: -0.015686521, y: 0.015000098, z: 0.09778857}
    - {x: -0.014752754, y: 0.015000098, z: 0.09817107}
    - {x: -0.013751485, y: 0.015000098, z: 0.09837732}
    - {x: -0.012727776, y: 0.015000098, z: 0.09839608}
    - {x: -0.011722782, y: 0.015000098, z: 0.098201066}
    - {x: -0.010781505, y: 0.015000098, z: 0.09777357}
    - {x: -0.009945252, y: 0.015000098, z: 0.097098574}
    - {x: -0.009262779, y: 0.015000098, z: 0.09615733}
    - {x: -0.008775243, y: 0.0150001, z: 0.09492357}
    - {x: 0.008467249, y: 0.0150001, z: 0.09492357}
    - {x: 0.008688501, y: 0.015000099, z: 0.095804825}
    - {x: 0.009149737, y: 0.015000098, z: 0.09658857}
    - {x: 0.009813494, y: 0.015000098, z: 0.09725608}
    - {x: 0.010634757, y: 0.015000098, z: 0.09778857}
    - {x: 0.011568493, y: 0.015000098, z: 0.09817107}
    - {x: 0.012569747, y: 0.015000098, z: 0.09837732}
    - {x: 0.013593501, y: 0.015000098, z: 0.09839608}
    - {x: 0.01459848, y: 0.015000098, z: 0.098201066}
    - {x: 0.015543482, y: 0.015000098, z: 0.09777357}
    - {x: 0.016375994, y: 0.015000098, z: 0.097098574}
    - {x: 0.017058482, y: 0.015000098, z: 0.09615357}
    - {x: 0.017545989, y: 0.0150001, z: 0.09492357}
    - {x: 0.034788497, y: 0.0150001, z: 0.09492357}
    - {x: 0.03527599, y: 0.015000098, z: 0.09615357}
    - {x: 0.035962246, y: 0.015000098, z: 0.097098574}
    - {x: 0.036794744, y: 0.015000098, z: 0.09777357}
    - {x: 0.03773599, y: 0.015000098, z: 0.098201066}
    - {x: 0.03874474, y: 0.015000098, z: 0.09839608}
    - {x: 0.039768495, y: 0.015000098, z: 0.09837732}
    - {x: 0.040769733, y: 0.015000098, z: 0.09817107}
    - {x: 0.0417035, y: 0.015000098, z: 0.09778857}
    - {x: 0.042520992, y: 0.015000098, z: 0.09725608}
    - {x: 0.04318475, y: 0.015000098, z: 0.09658483}
    - {x: 0.04364974, y: 0.015000099, z: 0.09580107}
    - {x: 0.043870993, y: 0.0150001, z: 0.09492357}
    - {x: 0.061109744, y: 0.0150001, z: 0.09492357}
    - {x: 0.06160099, y: 0.015000098, z: 0.09615357}
    - {x: 0.062283494, y: 0.015000098, z: 0.097098574}
    - {x: 0.06311599, y: 0.015000098, z: 0.09777357}
    - {x: 0.06406099, y: 0.015000098, z: 0.098201066}
    - {x: 0.065066, y: 0.015000098, z: 0.09839608}
    - {x: 0.06608974, y: 0.015000098, z: 0.09837732}
    - {x: 0.067090996, y: 0.015000098, z: 0.09817107}
    - {x: 0.06802473, y: 0.015000098, z: 0.09778857}
    - {x: 0.068845995, y: 0.015000098, z: 0.09725608}
    - {x: 0.06950974, y: 0.015000098, z: 0.09658483}
    - {x: 0.06997099, y: 0.015000099, z: 0.09580107}
    - {x: 0.07019224, y: 0.0150001, z: 0.09492357}
    - {x: 0.08743473, y: 0.0150001, z: 0.09492357}
    - {x: 0.08792224, y: 0.015000098, z: 0.09615357}
    - {x: 0.08860474, y: 0.015000098, z: 0.097098574}
    - {x: 0.08943724, y: 0.015000098, z: 0.09777357}
    - {x: 0.09038224, y: 0.015000098, z: 0.098201066}
    - {x: 0.091387235, y: 0.015000098, z: 0.09839608}
    - {x: 0.09241099, y: 0.015000098, z: 0.09837732}
    - {x: 0.09341224, y: 0.015000098, z: 0.09817107}
    - {x: 0.094345994, y: 0.015000098, z: 0.09778857}
    - {x: 0.09516724, y: 0.015000098, z: 0.09725608}
    - {x: 0.095830984, y: 0.015000098, z: 0.09658483}
    - {x: 0.09629225, y: 0.015000099, z: 0.09580107}
    - {x: 0.09651349, y: 0.0150001, z: 0.09492357}
    - {x: 0.11375599, y: 0.0150001, z: 0.09492357}
    - {x: 0.114243485, y: 0.015000098, z: 0.09615357}
    - {x: 0.114926, y: 0.015000098, z: 0.097098574}
    - {x: 0.11576224, y: 0.015000098, z: 0.09777357}
    - {x: 0.11670349, y: 0.015000098, z: 0.098201066}
    - {x: 0.1177085, y: 0.015000098, z: 0.09839608}
    - {x: 0.11873225, y: 0.015000098, z: 0.09837732}
    - {x: 0.11973349, y: 0.015000098, z: 0.09817107}
    - {x: 0.12066724, y: 0.015000098, z: 0.09778857}
    - {x: 0.121488504, y: 0.015000098, z: 0.09725608}
    - {x: 0.12215225, y: 0.015000098, z: 0.09658483}
    - {x: 0.12261348, y: 0.015000099, z: 0.09580107}
    - {x: 0.12283474, y: 0.0150001, z: 0.09492357}
    - {x: 0.14007725, y: 0.0150001, z: 0.09492357}
    - {x: 0.14056475, y: 0.015000098, z: 0.09615357}
    - {x: 0.14124726, y: 0.015000098, z: 0.097098574}
    - {x: 0.14208348, y: 0.015000098, z: 0.09777357}
    - {x: 0.14302476, y: 0.015000098, z: 0.098201066}
    - {x: 0.14402975, y: 0.015000098, z: 0.09839608}
    - {x: 0.14505725, y: 0.015000098, z: 0.09837732}
    - {x: 0.14605848, y: 0.015000098, z: 0.09817107}
    - {x: 0.1469885, y: 0.015000098, z: 0.09778857}
    - {x: 0.14780973, y: 0.015000098, z: 0.09725608}
    - {x: 0.14847349, y: 0.015000098, z: 0.09658483}
    - {x: 0.14893849, y: 0.015000099, z: 0.09580107}
    - {x: 0.14915599, y: 0.0150001, z: 0.09492357}
    - {x: 0.16639848, y: 0.0150001, z: 0.09492357}
    - {x: 0.16688599, y: 0.015000098, z: 0.09615357}
    - {x: 0.16756849, y: 0.015000098, z: 0.097098574}
    - {x: 0.16840474, y: 0.015000098, z: 0.09777357}
    - {x: 0.16934599, y: 0.015000098, z: 0.098201066}
    - {x: 0.17035098, y: 0.015000098, z: 0.09839608}
    - {x: 0.17137851, y: 0.015000098, z: 0.09838107}
    - {x: 0.17237975, y: 0.015000098, z: 0.098174825}
    - {x: 0.17330973, y: 0.015000098, z: 0.09779607}
    - {x: 0.17413099, y: 0.015000098, z: 0.09725982}
    - {x: 0.17479475, y: 0.015000098, z: 0.09659232}
    - {x: 0.17525975, y: 0.015000099, z: 0.095808566}
    - {x: 0.17547725, y: 0.0150001, z: 0.094931066}
    - {x: 0.24533974, y: 0.0150001, z: 0.094931066}
    - {x: 0.24606724, y: 0.015000114, z: 0.024693571}
    - {x: 0.18337099, y: 0.015000114, z: 0.024693571}
    - {x: 0.16761349, y: 0.015000111, z: 0.034631073}
    - {x: 0.15689598, y: 0.0150001105, z: 0.040139828}
    - {x: 0.14739724, y: 0.01500011, z: 0.043957327}
    - {x: 0.13905351, y: 0.01500011, z: 0.04625233}
    - {x: 0.1318235, y: 0.01500011, z: 0.047204826}
    - {x: 0.12564726, y: 0.01500011, z: 0.046994824}
    - {x: 0.120472245, y: 0.01500011, z: 0.045791075}
    - {x: 0.11624973, y: 0.01500011, z: 0.043777328}
    - {x: 0.112927236, y: 0.0150001105, z: 0.04112233}
    - {x: 0.1104485, y: 0.0150001105, z: 0.038009826}
    - {x: 0.108764745, y: 0.015000111, z: 0.034612328}
    - {x: 0.1078235, y: 0.015000113, z: 0.031106077}
    - {x: 0.12146225, y: 0.015000115, z: 0.01562608}
    - {x: 0.124668494, y: 0.015000115, z: 0.017441079}
    - {x: 0.13295226, y: 0.015000118, z: 0.00864733}
    - {x: 0.13723849, y: 0.015000116, z: 0.011039823}
    - {x: 0.15387349, y: 0.015000122, z: -0.013916425}
    - {x: -0.00000026211177, y: 0.015000139, z: -0.098396435}
    tangents:
    - {x: -1, y: 1.069972e-12, z: -0.0000051167585}
    - {x: -0.23808216, y: -0.00000021232812, z: 0.97124505}
    - {x: 0.97207445, y: 0.0000001314911, z: 0.23467252}
    - {x: 0.98832387, y: 0.00000009396931, z: 0.152368}
    - {x: 0.988777, y: -0.00000014692309, z: 0.14939949}
    - {x: 0.9861343, y: -0.000000058140362, z: 0.16594943}
    - {x: 0.22796991, y: -0.0000003423209, z: 0.97366816}
    - {x: -0.35379905, y: -0.00000038116764, z: 0.93532145}
    - {x: -0.5365953, y: -0.00000012343747, z: 0.8438397}
    - {x: -0.7064552, y: -0.00000011011317, z: 0.70775783}
    - {x: -0.84761477, y: -0.00000011013377, z: 0.5306121}
    - {x: -0.94379914, y: 0, z: 0.3305195}
    - {x: -0.9913865, y: 0, z: 0.13096917}
    - {x: -0.9988257, y: 0, z: -0.048447374}
    - {x: -0.9801207, y: 0, z: -0.19840212}
    - {x: -0.94756514, y: 0.00000004554515, z: -0.31956267}
    - {x: -0.9096054, y: 0.00000008421637, z: -0.41547328}
    - {x: -0.8709751, y: 0.00000010490674, z: -0.4913272}
    - {x: -0.9638681, y: 0.00000006890928, z: -0.26638007}
    - {x: -0.69862, y: -0.0000001378226, z: 0.71549284}
    - {x: 0.7109637, y: -0.00000013724022, z: 0.70322865}
    - {x: 0.7885469, y: -0.00000064998625, z: 0.6149746}
    - {x: 0.37921295, y: -0.0000010351255, z: 0.9253094}
    - {x: 0.6109371, y: -0.000000516112, z: 0.7916791}
    - {x: 0.7764848, y: 0, z: 0.630136}
    - {x: 0.8860655, y: 0, z: 0.46356001}
    - {x: 0.95652115, y: 0, z: 0.291663}
    - {x: 0.99387497, y: 0, z: 0.11051065}
    - {x: 0.9962469, y: 0, z: -0.086557366}
    - {x: 0.9528681, y: 0, z: -0.30338493}
    - {x: 0.8509152, y: 0, z: -0.52530307}
    - {x: 0.6877908, y: 0, z: -0.72590894}
    - {x: 0.48104241, y: 0.0000007076231, z: -0.8766973}
    - {x: 0.82688314, y: 0.0000008490353, z: -0.5623738}
    - {x: 0.7885138, y: -0.0000006499589, z: 0.6150171}
    - {x: 0.37922606, y: -0.0000010351191, z: 0.92530406}
    - {x: 0.6120554, y: -0.00000051619395, z: 0.7908148}
    - {x: 0.77671194, y: 0, z: 0.629856}
    - {x: 0.88558096, y: 0, z: 0.46448505}
    - {x: 0.95651954, y: 0, z: 0.29166833}
    - {x: 0.993875, y: 0, z: 0.11051039}
    - {x: 0.9962767, y: 0, z: -0.08621358}
    - {x: 0.9527457, y: 0, z: -0.30376914}
    - {x: 0.85052633, y: 0, z: -0.5259325}
    - {x: 0.6877896, y: 0, z: -0.72591007}
    - {x: 0.48103333, y: 0.0000007076222, z: -0.8767023}
    - {x: 0.82688314, y: 0.0000008490353, z: -0.5623738}
    - {x: 0.78727835, y: -0.00000065162936, z: 0.6165977}
    - {x: 0.37899962, y: -0.0000010351293, z: 0.9253968}
    - {x: 0.6123508, y: -0.0000005149164, z: 0.7905862}
    - {x: 0.7758264, y: 0, z: 0.6309464}
    - {x: 0.8855732, y: 0, z: 0.4644998}
    - {x: 0.9565204, y: 0, z: 0.29166552}
    - {x: 0.993879, y: 0, z: 0.11047445}
    - {x: 0.99624395, y: 0, z: -0.08659072}
    - {x: 0.9526389, y: 0, z: -0.30410385}
    - {x: 0.8511059, y: 0, z: -0.524994}
    - {x: 0.6885868, y: 0, z: -0.725154}
    - {x: 0.48103338, y: 0.0000007076145, z: -0.8767023}
    - {x: 0.826889, y: 0.00000084902223, z: -0.5623652}
    - {x: 0.78726846, y: -0.0000006516426, z: 0.61661035}
    - {x: 0.3789979, y: -0.0000010351295, z: 0.9253975}
    - {x: 0.6123531, y: -0.0000005149062, z: 0.7905844}
    - {x: 0.7764848, y: 0, z: 0.630136}
    - {x: 0.88573724, y: 0, z: 0.46418703}
    - {x: 0.9563145, y: 0, z: 0.2923399}
    - {x: 0.9938786, y: 0, z: 0.11047764}
    - {x: 0.99624395, y: 0, z: -0.086590454}
    - {x: 0.9526407, y: 0, z: -0.30409816}
    - {x: 0.85110444, y: 0, z: -0.52499634}
    - {x: 0.68858796, y: 0, z: -0.72515285}
    - {x: 0.48104244, y: 0.00000070761536, z: -0.8766973}
    - {x: 0.826889, y: 0.00000084902223, z: -0.5623652}
    - {x: 0.78727835, y: -0.00000065162936, z: 0.6165977}
    - {x: 0.37901264, y: -0.0000010351229, z: 0.9253915}
    - {x: 0.61234415, y: -0.0000005149054, z: 0.7905913}
    - {x: 0.77647763, y: 0, z: 0.6301447}
    - {x: 0.88573724, y: 0, z: 0.46418703}
    - {x: 0.9563145, y: 0, z: 0.2923399}
    - {x: 0.99387866, y: 0, z: 0.11047711}
    - {x: 0.9962437, y: 0, z: -0.08659375}
    - {x: 0.9526399, y: 0, z: -0.30410078}
    - {x: 0.8510999, y: 0, z: -0.52500373}
    - {x: 0.68858916, y: 0, z: -0.72515166}
    - {x: 0.48104241, y: 0.0000007076231, z: -0.8766973}
    - {x: 0.82688314, y: 0.0000008490353, z: -0.5623738}
    - {x: 0.7872881, y: -0.0000006516162, z: 0.61658525}
    - {x: 0.3790274, y: -0.0000010351164, z: 0.9253855}
    - {x: 0.61234415, y: -0.0000005149054, z: 0.7905913}
    - {x: 0.77647763, y: 0, z: 0.6301447}
    - {x: 0.8860629, y: 0, z: 0.46356496}
    - {x: 0.95651954, y: 0, z: 0.29166833}
    - {x: 0.993875, y: 0, z: 0.11051039}
    - {x: 0.9962466, y: 0, z: -0.08656038}
    - {x: 0.9526399, y: 0, z: -0.30410078}
    - {x: 0.85110444, y: 0, z: -0.52499634}
    - {x: 0.68858796, y: 0, z: -0.72515285}
    - {x: 0.48104244, y: 0.00000070761536, z: -0.8766973}
    - {x: 0.826889, y: 0.00000084902223, z: -0.5623652}
    - {x: 0.7885138, y: -0.0000006499589, z: 0.6150171}
    - {x: 0.37922606, y: -0.0000010351191, z: 0.92530406}
    - {x: 0.6109483, y: -0.00000051610243, z: 0.79167044}
    - {x: 0.77647954, y: 0, z: 0.63014245}
    - {x: 0.8860617, y: 0, z: 0.4635672}
    - {x: 0.95652205, y: 0, z: 0.29166}
    - {x: 0.99387527, y: 0, z: 0.110507995}
    - {x: 0.99624664, y: 0, z: -0.08655986}
    - {x: 0.9526417, y: 0, z: -0.30409512}
    - {x: 0.85110766, y: 0, z: -0.5249912}
    - {x: 0.68858045, y: 0, z: -0.72516}
    - {x: 0.4810425, y: 0.0000007076077, z: -0.87669724}
    - {x: 0.8268949, y: 0.00000084900927, z: -0.56235653}
    - {x: 0.7885138, y: -0.0000006499589, z: 0.6150171}
    - {x: 0.37921953, y: -0.0000010351223, z: 0.92530674}
    - {x: 0.6109428, y: -0.0000005161072, z: 0.7916748}
    - {x: 0.7764848, y: 0, z: 0.630136}
    - {x: 0.8860629, y: 0, z: 0.46356496}
    - {x: 0.95651996, y: 0, z: 0.29166695}
    - {x: 0.99387515, y: 0, z: 0.11050906}
    - {x: 0.99624646, y: 0, z: -0.08656164}
    - {x: 0.9528668, y: 0, z: -0.30338886}
    - {x: 0.8509219, y: 0, z: -0.5252921}
    - {x: 0.6871022, y: 0, z: -0.72656083}
    - {x: 0.48066613, y: 0.00000070935175, z: -0.87690365}
    - {x: 0.8271822, y: 0.0000008509611, z: -0.5619339}
    - {x: 0.8271792, y: -0.00000085096775, z: 0.5619382}
    - {x: 0.48180854, y: -0.0000007094716, z: 0.8762765}
    - {x: 0.6880493, y: 0, z: 0.7256639}
    - {x: 0.85052633, y: 0, z: 0.5259325}
    - {x: 0.9527457, y: 0, z: 0.30376914}
    - {x: 0.9962767, y: 0, z: 0.08621345}
    - {x: 0.99387497, y: 0, z: -0.11051051}
    - {x: 0.95652115, y: 0, z: -0.291663}
    - {x: 0.8855778, y: 0, z: -0.4644912}
    - {x: 0.7749399, y: 0, z: -0.63203496}
    - {x: 0.6112393, y: 0.00000051481516, z: -0.79144585}
    - {x: 0.38132516, y: 0.0000010363038, z: -0.924441}
    - {x: 0.7888244, y: 0.0000006523174, z: -0.61461866}
    - {x: 0.82791907, y: -0.00000084931617, z: 0.5608476}
    - {x: 0.4818213, y: -0.0000007084964, z: 0.8762695}
    - {x: 0.687103, y: 0, z: 0.72656006}
    - {x: 0.8509198, y: 0, z: 0.5252957}
    - {x: 0.9528677, y: 0, z: 0.30338624}
    - {x: 0.99624676, y: 0, z: 0.08655874}
    - {x: 0.99387515, y: 0, z: -0.110509194}
    - {x: 0.95651996, y: 0, z: -0.29166695}
    - {x: 0.8860629, y: 0, z: -0.46356496}
    - {x: 0.77560025, y: 0, z: -0.6312244}
    - {x: 0.6098342, y: 0.0000005160047, z: -0.79252905}
    - {x: 0.3796896, y: 0.0000010371193, z: -0.9251139}
    - {x: 0.7888244, y: 0.0000006523174, z: -0.61461866}
    - {x: 0.8271822, y: -0.0000008509611, z: 0.5619339}
    - {x: 0.4806707, y: -0.0000007093522, z: 0.8769012}
    - {x: 0.687103, y: 0, z: 0.72656006}
    - {x: 0.8509198, y: 0, z: 0.5252957}
    - {x: 0.95286727, y: 0, z: 0.30338758}
    - {x: 0.9962466, y: 0, z: 0.08656025}
    - {x: 0.99387515, y: 0, z: -0.11050906}
    - {x: 0.95652074, y: 0, z: -0.29166424}
    - {x: 0.88606226, y: 0, z: -0.46356615}
    - {x: 0.7755977, y: 0, z: -0.6312276}
    - {x: 0.6098398, y: 0.000000516, z: -0.7925247}
    - {x: 0.37968874, y: 0.0000010371193, z: -0.9251143}
    - {x: 0.7888195, y: 0.00000065232405, z: -0.614625}
    - {x: 0.8271792, y: -0.00000085096775, z: 0.5619382}
    - {x: 0.48067063, y: -0.00000070935613, z: 0.8769012}
    - {x: 0.6879026, y: 0, z: 0.725803}
    - {x: 0.85110223, y: 0, z: 0.52500004}
    - {x: 0.9526403, y: 0, z: 0.30409947}
    - {x: 0.9962467, y: 0, z: 0.08655887}
    - {x: 0.99387497, y: 0, z: -0.11051051}
    - {x: 0.9565203, y: 0, z: -0.29166564}
    - {x: 0.88606423, y: 0, z: -0.46356252}
    - {x: 0.77560025, y: 0, z: -0.6312244}
    - {x: 0.6098286, y: 0.0000005160095, z: -0.7925333}
    - {x: 0.37968677, y: 0.0000010371209, z: -0.9251151}
    - {x: 0.7888268, y: 0.00000065231404, z: -0.61461556}
    - {x: 0.8271822, y: -0.0000008509611, z: 0.5619339}
    - {x: 0.4806707, y: -0.0000007093522, z: 0.8769012}
    - {x: 0.68789566, y: 0, z: 0.7258096}
    - {x: 0.85110307, y: 0, z: 0.52499866}
    - {x: 0.9526417, y: 0, z: 0.30409512}
    - {x: 0.9962437, y: 0, z: 0.08659348}
    - {x: 0.9938786, y: 0, z: -0.11047737}
    - {x: 0.9563145, y: 0, z: -0.2923399}
    - {x: 0.88573337, y: 0, z: -0.4641944}
    - {x: 0.7755986, y: 0, z: -0.6312264}
    - {x: 0.61124486, y: 0.00000051481044, z: -0.79144156}
    - {x: 0.37946925, y: 0.0000010371299, z: -0.92520434}
    - {x: 0.7875851, y: 0.000000654002, z: -0.61620593}
    - {x: 0.8271822, y: -0.0000008509611, z: 0.5619339}
    - {x: 0.4806707, y: -0.0000007093522, z: 0.8769012}
    - {x: 0.687902, y: 0, z: 0.72580355}
    - {x: 0.85110444, y: 0, z: 0.52499634}
    - {x: 0.9526399, y: 0, z: 0.30410078}
    - {x: 0.99608386, y: 0, z: 0.08841349}
    - {x: 0.9940788, y: 0, z: -0.108661346}
    - {x: 0.95681494, y: 0, z: -0.29069772}
    - {x: 0.88578856, y: 0, z: -0.4640891}
    - {x: 0.7754752, y: 0, z: -0.63137805}
    - {x: 0.61235416, y: 0.00000051489957, z: -0.79058355}
    - {x: 0.37946925, y: 0.0000010371299, z: -0.92520434}
    - {x: 0.7875851, y: 0.000000654002, z: -0.61620593}
    - {x: 0.7107592, y: 0.0000001399093, z: -0.7034354}
    - {x: -0.7034354, y: 0.00000014136596, z: -0.71075916}
    - {x: -0.96068794, y: -0.00000007805689, z: 0.27763048}
    - {x: -0.86845577, y: -0.00000011374098, z: 0.4957667}
    - {x: -0.9096066, y: -0.00000008422059, z: 0.41547066}
    - {x: -0.9475615, y: -0.00000004556098, z: 0.31957337}
    - {x: -0.9801254, y: 0, z: 0.19837883}
    - {x: -0.9988241, y: 0, z: 0.0484806}
    - {x: -0.99139696, y: 0, z: -0.1308895}
    - {x: -0.9438258, y: 0, z: -0.3304436}
    - {x: -0.84746915, y: 0.000000110212916, z: -0.53084457}
    - {x: -0.7065193, y: 0.00000011018087, z: -0.70769376}
    - {x: -0.53653055, y: 0.00000012350216, z: -0.84388095}
    - {x: -0.3533859, y: 0.000000381205, z: -0.9354777}
    - {x: 0.22797018, y: 0.00000034232093, z: -0.9736681}
    - {x: 0.9861344, y: 0.000000058140348, z: -0.1659487}
    - {x: 0.9887602, y: 0.00000014696722, z: -0.14951017}
    - {x: 0.98830694, y: -0.00000009394787, z: -0.15247768}
    - {x: 0.97207487, y: -0.00000013149265, z: -0.23467107}
    - {x: -0.23807721, y: 0.0000002123283, z: -0.9712462}
    - {x: -1, y: 1.069972e-12, z: -0.0000051167585}
    bitangents:
    - {x: 0.0000051167585, y: 0, z: -1}
    - {x: -0.97124505, y: 0, z: -0.23808216}
    - {x: -0.23467252, y: 0, z: 0.97207445}
    - {x: -0.152368, y: 0, z: 0.98832387}
    - {x: -0.14939949, y: 0, z: 0.988777}
    - {x: -0.16594943, y: 0, z: 0.9861343}
    - {x: -0.97366816, y: 0, z: 0.22796991}
    - {x: -0.93532145, y: 0, z: -0.35379905}
    - {x: -0.8438397, y: 0, z: -0.5365953}
    - {x: -0.70775783, y: 0, z: -0.7064552}
    - {x: -0.5306121, y: 0, z: -0.84761477}
    - {x: -0.3305195, y: 0, z: -0.94379914}
    - {x: -0.13096917, y: 0, z: -0.9913865}
    - {x: 0.048447374, y: 0, z: -0.9988257}
    - {x: 0.19840212, y: 0, z: -0.9801207}
    - {x: 0.31956267, y: 0, z: -0.94756514}
    - {x: 0.41547328, y: 0, z: -0.9096054}
    - {x: 0.4913272, y: 0, z: -0.8709751}
    - {x: 0.26638007, y: 0, z: -0.9638681}
    - {x: -0.71549284, y: 0, z: -0.69862}
    - {x: -0.70322865, y: 0, z: 0.7109637}
    - {x: -0.6149746, y: 0, z: 0.7885469}
    - {x: -0.9253094, y: 0, z: 0.37921295}
    - {x: -0.7916791, y: 0, z: 0.6109371}
    - {x: -0.630136, y: 0, z: 0.7764848}
    - {x: -0.46356001, y: 0, z: 0.8860655}
    - {x: -0.291663, y: 0, z: 0.95652115}
    - {x: -0.11051065, y: 0, z: 0.99387497}
    - {x: 0.086557366, y: -0, z: 0.9962469}
    - {x: 0.30338493, y: -0, z: 0.9528681}
    - {x: 0.52530307, y: -0, z: 0.8509152}
    - {x: 0.72590894, y: -0, z: 0.6877908}
    - {x: 0.8766973, y: -0, z: 0.48104241}
    - {x: 0.5623738, y: -0, z: 0.82688314}
    - {x: -0.6150171, y: 0, z: 0.7885138}
    - {x: -0.92530406, y: 0, z: 0.37922606}
    - {x: -0.7908148, y: 0, z: 0.6120554}
    - {x: -0.629856, y: 0, z: 0.77671194}
    - {x: -0.46448505, y: 0, z: 0.88558096}
    - {x: -0.29166833, y: 0, z: 0.95651954}
    - {x: -0.11051039, y: 0, z: 0.993875}
    - {x: 0.08621358, y: -0, z: 0.9962767}
    - {x: 0.30376914, y: -0, z: 0.9527457}
    - {x: 0.5259325, y: -0, z: 0.85052633}
    - {x: 0.72591007, y: -0, z: 0.6877896}
    - {x: 0.8767023, y: -0, z: 0.48103333}
    - {x: 0.5623738, y: -0, z: 0.82688314}
    - {x: -0.6165977, y: 0, z: 0.78727835}
    - {x: -0.9253968, y: 0, z: 0.37899962}
    - {x: -0.7905862, y: 0, z: 0.6123508}
    - {x: -0.6309464, y: 0, z: 0.7758264}
    - {x: -0.4644998, y: 0, z: 0.8855732}
    - {x: -0.29166552, y: 0, z: 0.9565204}
    - {x: -0.11047445, y: 0, z: 0.993879}
    - {x: 0.08659072, y: -0, z: 0.99624395}
    - {x: 0.30410385, y: -0, z: 0.9526389}
    - {x: 0.524994, y: -0, z: 0.8511059}
    - {x: 0.725154, y: -0, z: 0.6885868}
    - {x: 0.8767023, y: -0, z: 0.48103338}
    - {x: 0.5623652, y: -0, z: 0.826889}
    - {x: -0.61661035, y: 0, z: 0.78726846}
    - {x: -0.9253975, y: 0, z: 0.3789979}
    - {x: -0.7905844, y: 0, z: 0.6123531}
    - {x: -0.630136, y: 0, z: 0.7764848}
    - {x: -0.46418703, y: 0, z: 0.88573724}
    - {x: -0.2923399, y: 0, z: 0.9563145}
    - {x: -0.11047764, y: 0, z: 0.9938786}
    - {x: 0.086590454, y: -0, z: 0.99624395}
    - {x: 0.30409816, y: -0, z: 0.9526407}
    - {x: 0.52499634, y: -0, z: 0.85110444}
    - {x: 0.72515285, y: -0, z: 0.68858796}
    - {x: 0.8766973, y: -0, z: 0.48104244}
    - {x: 0.5623652, y: -0, z: 0.826889}
    - {x: -0.6165977, y: 0, z: 0.78727835}
    - {x: -0.9253915, y: 0, z: 0.37901264}
    - {x: -0.7905913, y: 0, z: 0.61234415}
    - {x: -0.6301447, y: 0, z: 0.77647763}
    - {x: -0.46418703, y: 0, z: 0.88573724}
    - {x: -0.2923399, y: 0, z: 0.9563145}
    - {x: -0.11047711, y: 0, z: 0.99387866}
    - {x: 0.08659375, y: -0, z: 0.9962437}
    - {x: 0.30410078, y: -0, z: 0.9526399}
    - {x: 0.52500373, y: -0, z: 0.8510999}
    - {x: 0.72515166, y: -0, z: 0.68858916}
    - {x: 0.8766973, y: -0, z: 0.48104241}
    - {x: 0.5623738, y: -0, z: 0.82688314}
    - {x: -0.61658525, y: 0, z: 0.7872881}
    - {x: -0.9253855, y: 0, z: 0.3790274}
    - {x: -0.7905913, y: 0, z: 0.61234415}
    - {x: -0.6301447, y: 0, z: 0.77647763}
    - {x: -0.46356496, y: 0, z: 0.8860629}
    - {x: -0.29166833, y: 0, z: 0.95651954}
    - {x: -0.11051039, y: 0, z: 0.993875}
    - {x: 0.08656038, y: -0, z: 0.9962466}
    - {x: 0.30410078, y: -0, z: 0.9526399}
    - {x: 0.52499634, y: -0, z: 0.85110444}
    - {x: 0.72515285, y: -0, z: 0.68858796}
    - {x: 0.8766973, y: -0, z: 0.48104244}
    - {x: 0.5623652, y: -0, z: 0.826889}
    - {x: -0.6150171, y: 0, z: 0.7885138}
    - {x: -0.92530406, y: 0, z: 0.37922606}
    - {x: -0.79167044, y: 0, z: 0.6109483}
    - {x: -0.63014245, y: 0, z: 0.77647954}
    - {x: -0.4635672, y: 0, z: 0.8860617}
    - {x: -0.29166, y: 0, z: 0.95652205}
    - {x: -0.110507995, y: 0, z: 0.99387527}
    - {x: 0.08655986, y: -0, z: 0.99624664}
    - {x: 0.30409512, y: -0, z: 0.9526417}
    - {x: 0.5249912, y: -0, z: 0.85110766}
    - {x: 0.72516, y: -0, z: 0.68858045}
    - {x: 0.87669724, y: -0, z: 0.4810425}
    - {x: 0.56235653, y: -0, z: 0.8268949}
    - {x: -0.6150171, y: 0, z: 0.7885138}
    - {x: -0.92530674, y: 0, z: 0.37921953}
    - {x: -0.7916748, y: 0, z: 0.6109428}
    - {x: -0.630136, y: 0, z: 0.7764848}
    - {x: -0.46356496, y: 0, z: 0.8860629}
    - {x: -0.29166695, y: 0, z: 0.95651996}
    - {x: -0.11050906, y: 0, z: 0.99387515}
    - {x: 0.08656164, y: -0, z: 0.99624646}
    - {x: 0.30338886, y: -0, z: 0.9528668}
    - {x: 0.5252921, y: -0, z: 0.8509219}
    - {x: 0.72656083, y: -0, z: 0.6871022}
    - {x: 0.87690365, y: -0, z: 0.48066613}
    - {x: 0.5619339, y: -0, z: 0.8271822}
    - {x: -0.5619382, y: 0, z: 0.8271792}
    - {x: -0.8762765, y: 0, z: 0.48180854}
    - {x: -0.7256639, y: 0, z: 0.6880493}
    - {x: -0.5259325, y: 0, z: 0.85052633}
    - {x: -0.30376914, y: 0, z: 0.9527457}
    - {x: -0.08621345, y: 0, z: 0.9962767}
    - {x: 0.11051051, y: -0, z: 0.99387497}
    - {x: 0.291663, y: -0, z: 0.95652115}
    - {x: 0.4644912, y: -0, z: 0.8855778}
    - {x: 0.63203496, y: -0, z: 0.7749399}
    - {x: 0.79144585, y: -0, z: 0.6112393}
    - {x: 0.924441, y: -0, z: 0.38132516}
    - {x: 0.61461866, y: -0, z: 0.7888244}
    - {x: -0.5608476, y: 0, z: 0.82791907}
    - {x: -0.8762695, y: 0, z: 0.4818213}
    - {x: -0.72656006, y: 0, z: 0.687103}
    - {x: -0.5252957, y: 0, z: 0.8509198}
    - {x: -0.30338624, y: 0, z: 0.9528677}
    - {x: -0.08655874, y: 0, z: 0.99624676}
    - {x: 0.110509194, y: -0, z: 0.99387515}
    - {x: 0.29166695, y: -0, z: 0.95651996}
    - {x: 0.46356496, y: -0, z: 0.8860629}
    - {x: 0.6312244, y: -0, z: 0.77560025}
    - {x: 0.79252905, y: -0, z: 0.6098342}
    - {x: 0.9251139, y: -0, z: 0.3796896}
    - {x: 0.61461866, y: -0, z: 0.7888244}
    - {x: -0.5619339, y: 0, z: 0.8271822}
    - {x: -0.8769012, y: 0, z: 0.4806707}
    - {x: -0.72656006, y: 0, z: 0.687103}
    - {x: -0.5252957, y: 0, z: 0.8509198}
    - {x: -0.30338758, y: 0, z: 0.95286727}
    - {x: -0.08656025, y: 0, z: 0.9962466}
    - {x: 0.11050906, y: -0, z: 0.99387515}
    - {x: 0.29166424, y: -0, z: 0.95652074}
    - {x: 0.46356615, y: -0, z: 0.88606226}
    - {x: 0.6312276, y: -0, z: 0.7755977}
    - {x: 0.7925247, y: -0, z: 0.6098398}
    - {x: 0.9251143, y: -0, z: 0.37968874}
    - {x: 0.614625, y: -0, z: 0.7888195}
    - {x: -0.5619382, y: 0, z: 0.8271792}
    - {x: -0.8769012, y: 0, z: 0.48067063}
    - {x: -0.725803, y: 0, z: 0.6879026}
    - {x: -0.52500004, y: 0, z: 0.85110223}
    - {x: -0.30409947, y: 0, z: 0.9526403}
    - {x: -0.08655887, y: 0, z: 0.9962467}
    - {x: 0.11051051, y: -0, z: 0.99387497}
    - {x: 0.29166564, y: -0, z: 0.9565203}
    - {x: 0.46356252, y: -0, z: 0.88606423}
    - {x: 0.6312244, y: -0, z: 0.77560025}
    - {x: 0.7925333, y: -0, z: 0.6098286}
    - {x: 0.9251151, y: -0, z: 0.37968677}
    - {x: 0.61461556, y: -0, z: 0.7888268}
    - {x: -0.5619339, y: 0, z: 0.8271822}
    - {x: -0.8769012, y: 0, z: 0.4806707}
    - {x: -0.7258096, y: 0, z: 0.68789566}
    - {x: -0.52499866, y: 0, z: 0.85110307}
    - {x: -0.30409512, y: 0, z: 0.9526417}
    - {x: -0.08659348, y: 0, z: 0.9962437}
    - {x: 0.11047737, y: -0, z: 0.9938786}
    - {x: 0.2923399, y: -0, z: 0.9563145}
    - {x: 0.4641944, y: -0, z: 0.88573337}
    - {x: 0.6312264, y: -0, z: 0.7755986}
    - {x: 0.79144156, y: -0, z: 0.61124486}
    - {x: 0.92520434, y: -0, z: 0.37946925}
    - {x: 0.61620593, y: -0, z: 0.7875851}
    - {x: -0.5619339, y: 0, z: 0.8271822}
    - {x: -0.8769012, y: 0, z: 0.4806707}
    - {x: -0.72580355, y: 0, z: 0.687902}
    - {x: -0.52499634, y: 0, z: 0.85110444}
    - {x: -0.30410078, y: 0, z: 0.9526399}
    - {x: -0.08841349, y: 0, z: 0.99608386}
    - {x: 0.108661346, y: -0, z: 0.9940788}
    - {x: 0.29069772, y: -0, z: 0.95681494}
    - {x: 0.4640891, y: -0, z: 0.88578856}
    - {x: 0.63137805, y: -0, z: 0.7754752}
    - {x: 0.79058355, y: -0, z: 0.61235416}
    - {x: 0.92520434, y: -0, z: 0.37946925}
    - {x: 0.61620593, y: -0, z: 0.7875851}
    - {x: 0.7034354, y: -0, z: 0.7107592}
    - {x: 0.71075916, y: 0, z: -0.7034354}
    - {x: -0.27763048, y: 0, z: -0.96068794}
    - {x: -0.4957667, y: 0, z: -0.86845577}
    - {x: -0.41547066, y: 0, z: -0.9096066}
    - {x: -0.31957337, y: 0, z: -0.9475615}
    - {x: -0.19837883, y: 0, z: -0.9801254}
    - {x: -0.0484806, y: 0, z: -0.9988241}
    - {x: 0.1308895, y: 0, z: -0.99139696}
    - {x: 0.3304436, y: 0, z: -0.9438258}
    - {x: 0.53084457, y: 0, z: -0.84746915}
    - {x: 0.70769376, y: 0, z: -0.7065193}
    - {x: 0.84388095, y: 0, z: -0.53653055}
    - {x: 0.9354777, y: 0, z: -0.3533859}
    - {x: 0.9736681, y: -0, z: 0.22797018}
    - {x: 0.1659487, y: -0, z: 0.9861344}
    - {x: 0.14951017, y: -0, z: 0.9887602}
    - {x: 0.15247768, y: -0, z: 0.98830694}
    - {x: 0.23467107, y: -0, z: 0.97207487}
    - {x: 0.9712462, y: 0, z: -0.23807721}
    - {x: 0.0000051167585, y: 0, z: -1}
    normals:
    - {x: 0, y: 1, z: 0}
    - {x: 0, y: 1, z: 0}
    - {x: 0, y: 1, z: 0}
    - {x: 0, y: 1, z: 0}
    - {x: 0, y: 1, z: 0}
    - {x: 0, y: 1, z: 0}
    - {x: 0, y: 1, z: 0}
    - {x: 0, y: 1, z: 0}
    - {x: 0, y: 1, z: 0}
    - {x: 0, y: 1, z: 0}
    - {x: 0, y: 1, z: 0}
    - {x: 0, y: 1, z: 0}
    - {x: 0, y: 1, z: 0}
    - {x: 0, y: 1, z: 0}
    - {x: 0, y: 1, z: 0}
    - {x: 0, y: 1, z: 0}
    - {x: 0, y: 1, z: 0}
    - {x: 0, y: 1, z: 0}
    - {x: 0, y: 1, z: 0}
    - {x: 0, y: 1, z: 0}
    - {x: 0, y: 1, z: 0}
    - {x: 0, y: 1, z: 0}
    - {x: 0, y: 1, z: 0}
    - {x: 0, y: 1, z: 0}
    - {x: 0, y: 1, z: 0}
    - {x: 0, y: 1, z: 0}
    - {x: 0, y: 1, z: 0}
    - {x: 0, y: 1, z: 0}
    - {x: 0, y: 1, z: 0}
    - {x: 0, y: 1, z: 0}
    - {x: 0, y: 1, z: 0}
    - {x: 0, y: 1, z: 0}
    - {x: 0, y: 1, z: 0}
    - {x: 0, y: 1, z: 0}
    - {x: 0, y: 1, z: 0}
    - {x: 0, y: 1, z: 0}
    - {x: 0, y: 1, z: 0}
    - {x: 0, y: 1, z: 0}
    - {x: 0, y: 1, z: 0}
    - {x: 0, y: 1, z: 0}
    - {x: 0, y: 1, z: 0}
    - {x: 0, y: 1, z: 0}
    - {x: 0, y: 1, z: 0}
    - {x: 0, y: 1, z: 0}
    - {x: 0, y: 1, z: 0}
    - {x: 0, y: 1, z: 0}
    - {x: 0, y: 1, z: 0}
    - {x: 0, y: 1, z: 0}
    - {x: 0, y: 1, z: 0}
    - {x: 0, y: 1, z: 0}
    - {x: 0, y: 1, z: 0}
    - {x: 0, y: 1, z: 0}
    - {x: 0, y: 1, z: 0}
    - {x: 0, y: 1, z: 0}
    - {x: 0, y: 1, z: 0}
    - {x: 0, y: 1, z: 0}
    - {x: 0, y: 1, z: 0}
    - {x: 0, y: 1, z: 0}
    - {x: 0, y: 1, z: 0}
    - {x: 0, y: 1, z: 0}
    - {x: 0, y: 1, z: 0}
    - {x: 0, y: 1, z: 0}
    - {x: 0, y: 1, z: 0}
    - {x: 0, y: 1, z: 0}
    - {x: 0, y: 1, z: 0}
    - {x: 0, y: 1, z: 0}
    - {x: 0, y: 1, z: 0}
    - {x: 0, y: 1, z: 0}
    - {x: 0, y: 1, z: 0}
    - {x: 0, y: 1, z: 0}
    - {x: 0, y: 1, z: 0}
    - {x: 0, y: 1, z: 0}
    - {x: 0, y: 1, z: 0}
    - {x: 0, y: 1, z: 0}
    - {x: 0, y: 1, z: 0}
    - {x: 0, y: 1, z: 0}
    - {x: 0, y: 1, z: 0}
    - {x: 0, y: 1, z: 0}
    - {x: 0, y: 1, z: 0}
    - {x: 0, y: 1, z: 0}
    - {x: 0, y: 1, z: 0}
    - {x: 0, y: 1, z: 0}
    - {x: 0, y: 1, z: 0}
    - {x: 0, y: 1, z: 0}
    - {x: 0, y: 1, z: 0}
    - {x: 0, y: 1, z: 0}
    - {x: 0, y: 1, z: 0}
    - {x: 0, y: 1, z: 0}
    - {x: 0, y: 1, z: 0}
    - {x: 0, y: 1, z: 0}
    - {x: 0, y: 1, z: 0}
    - {x: 0, y: 1, z: 0}
    - {x: 0, y: 1, z: 0}
    - {x: 0, y: 1, z: 0}
    - {x: 0, y: 1, z: 0}
    - {x: 0, y: 1, z: 0}
    - {x: 0, y: 1, z: 0}
    - {x: 0, y: 1, z: 0}
    - {x: 0, y: 1, z: 0}
    - {x: 0, y: 1, z: 0}
    - {x: 0, y: 1, z: 0}
    - {x: 0, y: 1, z: 0}
    - {x: 0, y: 1, z: 0}
    - {x: 0, y: 1, z: 0}
    - {x: 0, y: 1, z: 0}
    - {x: 0, y: 1, z: 0}
    - {x: 0, y: 1, z: 0}
    - {x: 0, y: 1, z: 0}
    - {x: 0, y: 1, z: 0}
    - {x: 0, y: 1, z: 0}
    - {x: 0, y: 1, z: 0}
    - {x: 0, y: 1, z: 0}
    - {x: 0, y: 1, z: 0}
    - {x: 0, y: 1, z: 0}
    - {x: 0, y: 1, z: 0}
    - {x: 0, y: 1, z: 0}
    - {x: 0, y: 1, z: 0}
    - {x: 0, y: 1, z: 0}
    - {x: 0, y: 1, z: 0}
    - {x: 0, y: 1, z: 0}
    - {x: 0, y: 1, z: 0}
    - {x: 0, y: 1, z: 0}
    - {x: 0, y: 1, z: 0}
    - {x: 0, y: 1, z: 0}
    - {x: 0, y: 1, z: 0}
    - {x: 0, y: 1, z: 0}
    - {x: 0, y: 1, z: 0}
    - {x: 0, y: 1, z: 0}
    - {x: 0, y: 1, z: 0}
    - {x: 0, y: 1, z: 0}
    - {x: 0, y: 1, z: 0}
    - {x: 0, y: 1, z: 0}
    - {x: 0, y: 1, z: 0}
    - {x: 0, y: 1, z: 0}
    - {x: 0, y: 1, z: 0}
    - {x: 0, y: 1, z: 0}
    - {x: 0, y: 1, z: 0}
    - {x: 0, y: 1, z: 0}
    - {x: 0, y: 1, z: 0}
    - {x: 0, y: 1, z: 0}
    - {x: 0, y: 1, z: 0}
    - {x: 0, y: 1, z: 0}
    - {x: 0, y: 1, z: 0}
    - {x: 0, y: 1, z: 0}
    - {x: 0, y: 1, z: 0}
    - {x: 0, y: 1, z: 0}
    - {x: 0, y: 1, z: 0}
    - {x: 0, y: 1, z: 0}
    - {x: 0, y: 1, z: 0}
    - {x: 0, y: 1, z: 0}
    - {x: 0, y: 1, z: 0}
    - {x: 0, y: 1, z: 0}
    - {x: 0, y: 1, z: 0}
    - {x: 0, y: 1, z: 0}
    - {x: 0, y: 1, z: 0}
    - {x: 0, y: 1, z: 0}
    - {x: 0, y: 1, z: 0}
    - {x: 0, y: 1, z: 0}
    - {x: 0, y: 1, z: 0}
    - {x: 0, y: 1, z: 0}
    - {x: 0, y: 1, z: 0}
    - {x: 0, y: 1, z: 0}
    - {x: 0, y: 1, z: 0}
    - {x: 0, y: 1, z: 0}
    - {x: 0, y: 1, z: 0}
    - {x: 0, y: 1, z: 0}
    - {x: 0, y: 1, z: 0}
    - {x: 0, y: 1, z: 0}
    - {x: 0, y: 1, z: 0}
    - {x: 0, y: 1, z: 0}
    - {x: 0, y: 1, z: 0}
    - {x: 0, y: 1, z: 0}
    - {x: 0, y: 1, z: 0}
    - {x: 0, y: 1, z: 0}
    - {x: 0, y: 1, z: 0}
    - {x: 0, y: 1, z: 0}
    - {x: 0, y: 1, z: 0}
    - {x: 0, y: 1, z: 0}
    - {x: 0, y: 1, z: 0}
    - {x: 0, y: 1, z: 0}
    - {x: 0, y: 1, z: 0}
    - {x: 0, y: 1, z: 0}
    - {x: 0, y: 1, z: 0}
    - {x: 0, y: 1, z: 0}
    - {x: 0, y: 1, z: 0}
    - {x: 0, y: 1, z: 0}
    - {x: 0, y: 1, z: 0}
    - {x: 0, y: 1, z: 0}
    - {x: 0, y: 1, z: 0}
    - {x: 0, y: 1, z: 0}
    - {x: 0, y: 1, z: 0}
    - {x: 0, y: 1, z: 0}
    - {x: 0, y: 1, z: 0}
    - {x: 0, y: 1, z: 0}
    - {x: 0, y: 1, z: 0}
    - {x: 0, y: 1, z: 0}
    - {x: 0, y: 1, z: 0}
    - {x: 0, y: 1, z: 0}
    - {x: 0, y: 1, z: 0}
    - {x: 0, y: 1, z: 0}
    - {x: 0, y: 1, z: 0}
    - {x: 0, y: 1, z: 0}
    - {x: 0, y: 1, z: 0}
    - {x: 0, y: 1, z: 0}
    - {x: 0, y: 1, z: 0}
    - {x: 0, y: 1, z: 0}
    - {x: 0, y: 1, z: 0}
    - {x: 0, y: 1, z: 0}
    - {x: 0, y: 1, z: 0}
    - {x: 0, y: 1, z: 0}
    - {x: 0, y: 1, z: 0}
    - {x: 0, y: 1, z: 0}
    - {x: 0, y: 1, z: 0}
    - {x: 0, y: 1, z: 0}
    - {x: 0, y: 1, z: 0}
    - {x: 0, y: 1, z: 0}
    - {x: 0, y: 1, z: 0}
    - {x: 0, y: 1, z: 0}
    - {x: 0, y: 1, z: 0}
    - {x: 0, y: 1, z: 0}
    - {x: 0, y: 1, z: 0}
    - {x: 0, y: 1, z: 0}
    - {x: 0, y: 1, z: 0}
    - {x: 0, y: 1, z: 0}
    timeTable:
    - Index: 0
      Value: 0
    - Index: 1
      Value: 0.11940697
    - Index: 2
      Value: 0.13980825
    - Index: 3
      Value: 0.14314727
    - Index: 4
      Value: 0.15136673
    - Index: 5
      Value: 0.15387288
    - Index: 6
      Value: 0.16790655
    - Index: 7
      Value: 0.17037602
    - Index: 8
      Value: 0.17295642
    - Index: 9
      Value: 0.17566139
    - Index: 10
      Value: 0.17855634
    - Index: 11
      Value: 0.18173848
    - Index: 12
      Value: 0.18535009
    - Index: 13
      Value: 0.18955372
    - Index: 14
      Value: 0.1945167
    - Index: 15
      Value: 0.20040058
    - Index: 16
      Value: 0.20736644
    - Index: 17
      Value: 0.21556103
    - Index: 18
      Value: 0.22513421
    - Index: 19
      Value: 0.27035376
    - Index: 20
      Value: 0.31580684
    - Index: 21
      Value: 0.36312187
    - Index: 22
      Value: 0.3637399
    - Index: 23
      Value: 0.3643585
    - Index: 24
      Value: 0.36499882
    - Index: 25
      Value: 0.3656646
    - Index: 26
      Value: 0.36635095
    - Index: 27
      Value: 0.36704633
    - Index: 28
      Value: 0.3677428
    - Index: 29
      Value: 0.3684392
    - Index: 30
      Value: 0.36914468
    - Index: 31
      Value: 0.3698737
    - Index: 32
      Value: 0.37066457
    - Index: 33
      Value: 0.37156692
    - Index: 34
      Value: 0.38329557
    - Index: 35
      Value: 0.3839136
    - Index: 36
      Value: 0.38453218
    - Index: 37
      Value: 0.38517427
    - Index: 38
      Value: 0.38583794
    - Index: 39
      Value: 0.38652432
    - Index: 40
      Value: 0.3872197
    - Index: 41
      Value: 0.3879162
    - Index: 42
      Value: 0.38861507
    - Index: 43
      Value: 0.38931826
    - Index: 44
      Value: 0.39004728
    - Index: 45
      Value: 0.39083815
    - Index: 46
      Value: 0.39174047
    - Index: 47
      Value: 0.4034717
    - Index: 48
      Value: 0.40408915
    - Index: 49
      Value: 0.40470904
    - Index: 50
      Value: 0.4053494
    - Index: 51
      Value: 0.406013
    - Index: 52
      Value: 0.4066994
    - Index: 53
      Value: 0.40739477
    - Index: 54
      Value: 0.40809378
    - Index: 55
      Value: 0.40879017
    - Index: 56
      Value: 0.40949333
    - Index: 57
      Value: 0.41022438
    - Index: 58
      Value: 0.41101524
    - Index: 59
      Value: 0.41191757
    - Index: 60
      Value: 0.42364627
    - Index: 61
      Value: 0.42426372
    - Index: 62
      Value: 0.42488357
    - Index: 63
      Value: 0.4255239
    - Index: 64
      Value: 0.42618966
    - Index: 65
      Value: 0.42687368
    - Index: 66
      Value: 0.42756906
    - Index: 67
      Value: 0.42826807
    - Index: 68
      Value: 0.42896447
    - Index: 69
      Value: 0.42966765
    - Index: 70
      Value: 0.43039867
    - Index: 71
      Value: 0.43118954
    - Index: 72
      Value: 0.4320919
    - Index: 73
      Value: 0.4438205
    - Index: 74
      Value: 0.44443795
    - Index: 75
      Value: 0.44505784
    - Index: 76
      Value: 0.44569814
    - Index: 77
      Value: 0.44636393
    - Index: 78
      Value: 0.44704795
    - Index: 79
      Value: 0.44774333
    - Index: 80
      Value: 0.44844237
    - Index: 81
      Value: 0.44913873
    - Index: 82
      Value: 0.44984192
    - Index: 83
      Value: 0.45057294
    - Index: 84
      Value: 0.45136377
    - Index: 85
      Value: 0.45226613
    - Index: 86
      Value: 0.46399477
    - Index: 87
      Value: 0.46461222
    - Index: 88
      Value: 0.4652321
    - Index: 89
      Value: 0.4658724
    - Index: 90
      Value: 0.4665382
    - Index: 91
      Value: 0.46722457
    - Index: 92
      Value: 0.46791992
    - Index: 93
      Value: 0.46861643
    - Index: 94
      Value: 0.4693128
    - Index: 95
      Value: 0.47001597
    - Index: 96
      Value: 0.470747
    - Index: 97
      Value: 0.47153783
    - Index: 98
      Value: 0.47244018
    - Index: 99
      Value: 0.48416883
    - Index: 100
      Value: 0.48478687
    - Index: 101
      Value: 0.48540547
    - Index: 102
      Value: 0.48604578
    - Index: 103
      Value: 0.48671156
    - Index: 104
      Value: 0.4873979
    - Index: 105
      Value: 0.4880933
    - Index: 106
      Value: 0.48878977
    - Index: 107
      Value: 0.4894861
    - Index: 108
      Value: 0.4901893
    - Index: 109
      Value: 0.4909203
    - Index: 110
      Value: 0.49171117
    - Index: 111
      Value: 0.49261355
    - Index: 112
      Value: 0.5043422
    - Index: 113
      Value: 0.50496024
    - Index: 114
      Value: 0.5055788
    - Index: 115
      Value: 0.50621915
    - Index: 116
      Value: 0.50688493
    - Index: 117
      Value: 0.5075713
    - Index: 118
      Value: 0.5082667
    - Index: 119
      Value: 0.50896317
    - Index: 120
      Value: 0.5096595
    - Index: 121
      Value: 0.510365
    - Index: 122
      Value: 0.51109403
    - Index: 123
      Value: 0.51188695
    - Index: 124
      Value: 0.512787
    - Index: 125
      Value: 0.52451557
    - Index: 126
      Value: 0.5254156
    - Index: 127
      Value: 0.52621
    - Index: 128
      Value: 0.52693903
    - Index: 129
      Value: 0.52764225
    - Index: 130
      Value: 0.5283411
    - Index: 131
      Value: 0.5290376
    - Index: 132
      Value: 0.529733
    - Index: 133
      Value: 0.53041935
    - Index: 134
      Value: 0.531083
    - Index: 135
      Value: 0.5317251
    - Index: 136
      Value: 0.532345
    - Index: 137
      Value: 0.5329606
    - Index: 138
      Value: 0.5446867
    - Index: 139
      Value: 0.5455876
    - Index: 140
      Value: 0.5463805
    - Index: 141
      Value: 0.54710954
    - Index: 142
      Value: 0.547815
    - Index: 143
      Value: 0.54851145
    - Index: 144
      Value: 0.54920787
    - Index: 145
      Value: 0.5499033
    - Index: 146
      Value: 0.5505896
    - Index: 147
      Value: 0.5512554
    - Index: 148
      Value: 0.5518975
    - Index: 149
      Value: 0.5525161
    - Index: 150
      Value: 0.5531317
    - Index: 151
      Value: 0.56486034
    - Index: 152
      Value: 0.5657603
    - Index: 153
      Value: 0.56655324
    - Index: 154
      Value: 0.56728226
    - Index: 155
      Value: 0.5679878
    - Index: 156
      Value: 0.56868416
    - Index: 157
      Value: 0.56938064
    - Index: 158
      Value: 0.570076
    - Index: 159
      Value: 0.5707624
    - Index: 160
      Value: 0.5714282
    - Index: 161
      Value: 0.5720703
    - Index: 162
      Value: 0.5726889
    - Index: 163
      Value: 0.5733045
    - Index: 164
      Value: 0.5850331
    - Index: 165
      Value: 0.5859331
    - Index: 166
      Value: 0.586726
    - Index: 167
      Value: 0.587457
    - Index: 168
      Value: 0.5881602
    - Index: 169
      Value: 0.58885664
    - Index: 170
      Value: 0.5895531
    - Index: 171
      Value: 0.59024847
    - Index: 172
      Value: 0.5909349
    - Index: 173
      Value: 0.59160066
    - Index: 174
      Value: 0.5922428
    - Index: 175
      Value: 0.59286135
    - Index: 176
      Value: 0.59347695
    - Index: 177
      Value: 0.6052056
    - Index: 178
      Value: 0.60610557
    - Index: 179
      Value: 0.6068985
    - Index: 180
      Value: 0.6076295
    - Index: 181
      Value: 0.6083327
    - Index: 182
      Value: 0.60902905
    - Index: 183
      Value: 0.60972804
    - Index: 184
      Value: 0.61042345
    - Index: 185
      Value: 0.61110747
    - Index: 186
      Value: 0.61177325
    - Index: 187
      Value: 0.6124154
    - Index: 188
      Value: 0.61303526
    - Index: 189
      Value: 0.6136502
    - Index: 190
      Value: 0.6253788
    - Index: 191
      Value: 0.6262788
    - Index: 192
      Value: 0.62707174
    - Index: 193
      Value: 0.6278027
    - Index: 194
      Value: 0.62850595
    - Index: 195
      Value: 0.6292023
    - Index: 196
      Value: 0.6299013
    - Index: 197
      Value: 0.6305967
    - Index: 198
      Value: 0.6312797
    - Index: 199
      Value: 0.6319469
    - Index: 200
      Value: 0.63258725
    - Index: 201
      Value: 0.6332071
    - Index: 202
      Value: 0.633822
    - Index: 203
      Value: 0.68134373
    - Index: 204
      Value: 0.729123
    - Index: 205
      Value: 0.77177006
    - Index: 206
      Value: 0.784442
    - Index: 207
      Value: 0.7926389
    - Index: 208
      Value: 0.79960245
    - Index: 209
      Value: 0.8054888
    - Index: 210
      Value: 0.8104493
    - Index: 211
      Value: 0.8146529
    - Index: 212
      Value: 0.818267
    - Index: 213
      Value: 0.82144916
    - Index: 214
      Value: 0.82434213
    - Index: 215
      Value: 0.82704866
    - Index: 216
      Value: 0.82962793
    - Index: 217
      Value: 0.8320974
    - Index: 218
      Value: 0.8461311
    - Index: 219
      Value: 0.8486372
    - Index: 220
      Value: 0.8568549
    - Index: 221
      Value: 0.86019397
    - Index: 222
      Value: 0.88059527
    - Index: 223
      Value: 1
    vertexPathDistance: 1.4701189
  meshThickness: 0.0035
  uvArea: 0.99999964
  uvSize: {x: 0, y: 0, z: 1, w: 1}
