%YAML 1.1
%TAG !u! tag:unity3d.com,2011:
--- !u!21 &2100000
Material:
  serializedVersion: 6
  m_ObjectHideFlags: 0
  m_CorrespondingSourceObject: {fileID: 0}
  m_PrefabInstance: {fileID: 0}
  m_PrefabAsset: {fileID: 0}
  m_Name: WoodFinal
  m_Shader: {fileID: 4800000, guid: 3d0afac658a996b4ebff1acd100f0b98, type: 3}
  m_ShaderKeywords: 
  m_LightmapFlags: 4
  m_EnableInstancingVariants: 0
  m_DoubleSidedGI: 0
  m_CustomRenderQueue: -1
  stringTagMap: {}
  disabledShaderPasses: []
  m_SavedProperties:
    serializedVersion: 3
    m_TexEnvs:
    - _CustomMask:
        m_Texture: {fileID: 0}
        m_Scale: {x: 1, y: 1}
        m_Offset: {x: 0, y: 0}
    - _DefaultTexture:
        m_Texture: {fileID: 2800000, guid: f4e47947a93b72247bbb65ac0e4cd3cc, type: 3}
        m_Scale: {x: 1, y: 1}
        m_Offset: {x: 0, y: 0}
    m_Floats:
    - _CustomAmount: 1
    - _CustomGlossiness: 0.5
    - _DefaultGlossiness: 0.01
    - _Metallic: 0
    m_Colors:
    - _Color: {r: 1, g: 1, b: 1, a: 1}
    - _PaintedColor: {r: 0.082352914, g: 0.5244945, b: 0.90588236, a: 1}
  m_BuildTextureStacks: []
