%YAML 1.1
%TAG !u! tag:unity3d.com,2011:
--- !u!1 &3797390186747706952
GameObject:
  m_ObjectHideFlags: 0
  m_CorrespondingSourceObject: {fileID: 0}
  m_PrefabInstance: {fileID: 0}
  m_PrefabAsset: {fileID: 0}
  serializedVersion: 6
  m_Component:
  - component: {fileID: 3797390186747706953}
  - component: {fileID: 3797390186747706954}
  - component: {fileID: 3797390186747706955}
  m_Layer: 8
  m_Name: Spline Creator Normal Ghost
  m_TagString: Untagged
  m_Icon: {fileID: 0}
  m_NavMeshLayer: 0
  m_StaticEditorFlags: 0
  m_IsActive: 1
--- !u!4 &3797390186747706953
Transform:
  m_ObjectHideFlags: 0
  m_CorrespondingSourceObject: {fileID: 0}
  m_PrefabInstance: {fileID: 0}
  m_PrefabAsset: {fileID: 0}
  m_GameObject: {fileID: 3797390186747706952}
  m_LocalRotation: {x: 0, y: 0, z: 0, w: 1}
  m_LocalPosition: {x: 0, y: 0, z: 0}
  m_LocalScale: {x: 1, y: 1, z: 1}
  m_Children: []
  m_Father: {fileID: 0}
  m_RootOrder: 0
  m_LocalEulerAnglesHint: {x: 0, y: 0, z: 0}
--- !u!114 &3797390186747706954
MonoBehaviour:
  m_ObjectHideFlags: 0
  m_CorrespondingSourceObject: {fileID: 0}
  m_PrefabInstance: {fileID: 0}
  m_PrefabAsset: {fileID: 0}
  m_GameObject: {fileID: 3797390186747706952}
  m_Enabled: 1
  m_EditorHideFlags: 0
  m_Script: {fileID: 11500000, guid: 2e7c21abd21e1cf428bcc225b22b2e52, type: 3}
  m_Name: 
  m_EditorClassIdentifier: 
  distanceThreshold: 0.01
  autoControlLength: 0.3
  lineResolution: 2
  drawLayer:
    serializedVersion: 2
    m_Bits: 2048
  showGizmo: 0
  pointColor: {r: 0, g: 0, b: 0, a: 1}
  controlPointColor: {r: 0, g: 1, b: 0.9329295, a: 1}
  lineColor: {r: 0, g: 0.2837615, b: 1, a: 1}
  gizmoSize: 0.005
--- !u!114 &3797390186747706955
MonoBehaviour:
  m_ObjectHideFlags: 0
  m_CorrespondingSourceObject: {fileID: 0}
  m_PrefabInstance: {fileID: 0}
  m_PrefabAsset: {fileID: 0}
  m_GameObject: {fileID: 3797390186747706952}
  m_Enabled: 1
  m_EditorHideFlags: 0
  m_Script: {fileID: 11500000, guid: 266b218c7ccf2f14a93db0a45cd4ab14, type: 3}
  m_Name: 
  m_EditorClassIdentifier: 
  baseRadius: 0.005
  baseResolution: 4
  radiusCurve:
    serializedVersion: 2
    m_Curve:
    - serializedVersion: 3
      time: 0
      value: 1
      inSlope: 0
      outSlope: 0
      tangentMode: 34
      weightedMode: 0
      inWeight: 0
      outWeight: 0
    - serializedVersion: 3
      time: 1
      value: 1
      inSlope: 0
      outSlope: 0
      tangentMode: 34
      weightedMode: 0
      inWeight: 0
      outWeight: 0
    m_PreInfinity: 2
    m_PostInfinity: 2
    m_RotationOrder: 4
  curveAffectDistance: 0.025
  colliderUpdateInterval: 5
  glueMaterial: {fileID: 2100000, guid: 494a3f22ead06c746850bb04c6afa782, type: 2}
  offsetByDeltaAngle: 1
