%YAML 1.1
%TAG !u! tag:unity3d.com,2011:
--- !u!114 &11400000
MonoBehaviour:
  m_ObjectHideFlags: 0
  m_CorrespondingSourceObject: {fileID: 0}
  m_PrefabInstance: {fileID: 0}
  m_PrefabAsset: {fileID: 0}
  m_GameObject: {fileID: 0}
  m_Enabled: 1
  m_EditorHideFlags: 0
  m_Script: {fileID: 11500000, guid: e06490a765654e35996c77717af6cd44, type: 3}
  m_Name: BrushSpongeRandomSoundClipsData
  m_EditorClassIdentifier: 
  Clips:
  - {fileID: 8300000, guid: baabc8b0a38c9b34f9e3809b75c39ebb, type: 3}
  - {fileID: 8300000, guid: 39f2d2d3848c1594ea3079f57bc0a465, type: 3}
  - {fileID: 8300000, guid: 96610ddfdae58f84da759e5f3144b9b7, type: 3}
  - {fileID: 8300000, guid: a59defca4aa84f6459a1771c59feca0a, type: 3}
  - {fileID: 8300000, guid: 5faf247e3077dc74e9b0df82e5251d4e, type: 3}
