%YAML 1.1
%TAG !u! tag:unity3d.com,2011:
--- !u!114 &11400000
MonoBehaviour:
  m_ObjectHideFlags: 0
  m_CorrespondingSourceObject: {fileID: 0}
  m_PrefabInstance: {fileID: 0}
  m_PrefabAsset: {fileID: 0}
  m_GameObject: {fileID: 0}
  m_Enabled: 1
  m_EditorHideFlags: 0
  m_Script: {fileID: 11500000, guid: d43b84f597c241bdac241e496132f105, type: 3}
  m_Name: BrushSerialSoundClipsData
  m_EditorClassIdentifier: 
  LoopClip: {fileID: 8300000, guid: 3a7137337a8a72444bd53669f07f946b, type: 3}
