%YAML 1.1
%TAG !u! tag:unity3d.com,2011:
--- !u!114 &11400000
MonoBehaviour:
  m_ObjectHideFlags: 0
  m_CorrespondingSourceObject: {fileID: 0}
  m_PrefabInstance: {fileID: 0}
  m_PrefabAsset: {fileID: 0}
  m_GameObject: {fileID: 0}
  m_Enabled: 1
  m_EditorHideFlags: 0
  m_Script: {fileID: 11500000, guid: e06490a765654e35996c77717af6cd44, type: 3}
  m_Name: DropBrushSpongesSmallClipsData
  m_EditorClassIdentifier: 
  Clips:
  - {fileID: 8300000, guid: eabe836c50e063047abe5e87914adc92, type: 3}
  - {fileID: 8300000, guid: f1ccedd50a4eb7a4fbaf0c5399ce6106, type: 3}
  - {fileID: 8300000, guid: 4ead1772eabaa804e8a09eaa0728ba52, type: 3}
  - {fileID: 8300000, guid: c7c637db65c1e704b8c46d80b96cf0f3, type: 3}
  - {fileID: 8300000, guid: 0a5ff65ec76144c4d993fbbdd7179568, type: 3}
