%YAML 1.1
%TAG !u! tag:unity3d.com,2011:
--- !u!114 &11400000
MonoBehaviour:
  m_ObjectHideFlags: 0
  m_CorrespondingSourceObject: {fileID: 0}
  m_PrefabInstance: {fileID: 0}
  m_PrefabAsset: {fileID: 0}
  m_GameObject: {fileID: 0}
  m_Enabled: 1
  m_EditorHideFlags: 0
  m_Script: {fileID: 11500000, guid: 9dac42d783674e7aa0b9a2b6e68d152b, type: 3}
  m_Name: GrabCubeFoleyData
  m_EditorClassIdentifier: 
  PickUpClips:
  - {fileID: 8300000, guid: a4e94fe2e68894e4997b377fb9bad1ec, type: 3}
  - {fileID: 8300000, guid: 14198f51af2ea694192cc53ca73539bf, type: 3}
  - {fileID: 8300000, guid: ed12826ee42d30b4789a91b8272a4d75, type: 3}
  - {fileID: 8300000, guid: beab40103d8aaa64fac043450e5ad5a5, type: 3}
  - {fileID: 8300000, guid: 60110e860151e644eb390a0889c50a7c, type: 3}
  DropClips:
  - {fileID: 8300000, guid: eabe836c50e063047abe5e87914adc92, type: 3}
  - {fileID: 8300000, guid: f1ccedd50a4eb7a4fbaf0c5399ce6106, type: 3}
  - {fileID: 8300000, guid: 4ead1772eabaa804e8a09eaa0728ba52, type: 3}
  - {fileID: 8300000, guid: c7c637db65c1e704b8c46d80b96cf0f3, type: 3}
  - {fileID: 8300000, guid: 0a5ff65ec76144c4d993fbbdd7179568, type: 3}
