%YAML 1.1
%TAG !u! tag:unity3d.com,2011:
--- !u!114 &11400000
MonoBehaviour:
  m_ObjectHideFlags: 0
  m_CorrespondingSourceObject: {fileID: 0}
  m_PrefabInstance: {fileID: 0}
  m_PrefabAsset: {fileID: 0}
  m_GameObject: {fileID: 0}
  m_Enabled: 1
  m_EditorHideFlags: 0
  m_Script: {fileID: 11500000, guid: 70e1411e3b1a467a94151748cec5eff9, type: 3}
  m_Name: MusicConfigCarpentry
  m_EditorClassIdentifier: 
  MusicClips:
  - {fileID: 8300000, guid: 47cdbe100b37a4d4f87b11b59c2e4779, type: 3}
  - {fileID: 8300000, guid: 22387faeeead4154285031d740cf8b1f, type: 3}
  - {fileID: 8300000, guid: 6f4374fccf866aa41baff380d2ad3f90, type: 3}
