%YAML 1.1
%TAG !u! tag:unity3d.com,2011:
--- !u!114 &11400000
MonoBehaviour:
  m_ObjectHideFlags: 0
  m_CorrespondingSourceObject: {fileID: 0}
  m_PrefabInstance: {fileID: 0}
  m_PrefabAsset: {fileID: 0}
  m_GameObject: {fileID: 0}
  m_Enabled: 1
  m_EditorHideFlags: 0
  m_Script: {fileID: 11500000, guid: e06490a765654e35996c77717af6cd44, type: 3}
  m_Name: StoveDoorOpenConfig
  m_EditorClassIdentifier: 
  Clips:
  - {fileID: 8300000, guid: 89dd748797b8c4f42a533a867a568411, type: 3}
  - {fileID: 8300000, guid: aaf77e879c961e64bb5f0ebce092edae, type: 3}
