%YAML 1.1
%TAG !u! tag:unity3d.com,2011:
--- !u!114 &11400000
MonoBehaviour:
  m_ObjectHideFlags: 0
  m_CorrespondingSourceObject: {fileID: 0}
  m_PrefabInstance: {fileID: 0}
  m_PrefabAsset: {fileID: 0}
  m_GameObject: {fileID: 0}
  m_Enabled: 1
  m_EditorHideFlags: 0
  m_Script: {fileID: 11500000, guid: 6bff880bde3de7743a01603c3cf96142, type: 3}
  m_Name: VertexPathConfig
  m_EditorClassIdentifier: 
  vertexPathData:
    vertex:
    - {x: 0.050540395, y: 0.015000117, z: 0.011232932}
    - {x: 0.052272893, y: 0.015000115, z: 0.012819182}
    - {x: 0.054320395, y: 0.015000115, z: 0.014390431}
    - {x: 0.056637898, y: 0.015000115, z: 0.015852932}
    - {x: 0.059176642, y: 0.015000115, z: 0.017109178}
    - {x: 0.061887894, y: 0.015000113, z: 0.018065423}
    - {x: 0.06473039, y: 0.015000113, z: 0.018624172}
    - {x: 0.06764789, y: 0.015000113, z: 0.018695422}
    - {x: 0.07059914, y: 0.015000113, z: 0.018177923}
    - {x: 0.073531635, y: 0.015000115, z: 0.016977925}
    - {x: 0.07640414, y: 0.015000115, z: 0.015001673}
    - {x: 0.07916413, y: 0.015000115, z: 0.0121516725}
    - {x: 0.081766635, y: 0.015000118, z: 0.008337921}
    - {x: 0.082430385, y: 0.015000118, z: 0.008199171}
    - {x: 0.083214134, y: 0.015000118, z: 0.00814292}
    - {x: 0.08409163, y: 0.015000118, z: 0.008187918}
    - {x: 0.08504413, y: 0.015000118, z: 0.00835292}
    - {x: 0.086056635, y: 0.015000118, z: 0.008667918}
    - {x: 0.08710663, y: 0.015000118, z: 0.00914417}
    - {x: 0.088179134, y: 0.015000118, z: 0.009807917}
    - {x: 0.08924788, y: 0.015000117, z: 0.010681667}
    - {x: 0.09029414, y: 0.015000117, z: 0.011787918}
    - {x: 0.091306634, y: 0.015000115, z: 0.013145414}
    - {x: 0.092255384, y: 0.015000115, z: 0.014772915}
    - {x: 0.09313288, y: 0.015000115, z: 0.016700417}
    - {x: 0.09381539, y: 0.015000115, z: 0.016224165}
    - {x: 0.09455789, y: 0.015000115, z: 0.015620414}
    - {x: 0.09533039, y: 0.015000115, z: 0.014896665}
    - {x: 0.09609914, y: 0.015000115, z: 0.014060415}
    - {x: 0.09683414, y: 0.015000115, z: 0.013119165}
    - {x: 0.09750914, y: 0.015000115, z: 0.012072913}
    - {x: 0.09809039, y: 0.015000117, z: 0.010932915}
    - {x: 0.09854788, y: 0.015000118, z: 0.009706664}
    - {x: 0.098851636, y: 0.015000118, z: 0.008397915}
    - {x: 0.09897538, y: 0.015000118, z: 0.0070179156}
    - {x: 0.09888163, y: 0.015000118, z: 0.005562916}
    - {x: 0.09854788, y: 0.015000118, z: 0.0040479167}
    - {x: 0.09990539, y: 0.015000118, z: 0.0042729164}
    - {x: 0.10145414, y: 0.015000118, z: 0.004445414}
    - {x: 0.103141636, y: 0.015000118, z: 0.0045541623}
    - {x: 0.10492663, y: 0.015000118, z: 0.004584164}
    - {x: 0.106756635, y: 0.015000118, z: 0.004516661}
    - {x: 0.10858663, y: 0.015000118, z: 0.0043404116}
    - {x: 0.110371634, y: 0.015000118, z: 0.004040412}
    - {x: 0.11205913, y: 0.015000118, z: 0.0035979107}
    - {x: 0.11360788, y: 0.015000118, z: 0.0030016592}
    - {x: 0.11496539, y: 0.015000118, z: 0.0022291585}
    - {x: 0.11608663, y: 0.015000118, z: 0.0012729097}
    - {x: 0.116922885, y: 0.01500012, z: 0.000114157934}
    - {x: 0.11608663, y: 0.01500012, z: -0.001048341}
    - {x: 0.11496539, y: 0.01500012, z: -0.0020158414}
    - {x: 0.11360788, y: 0.01500012, z: -0.002807091}
    - {x: 0.11205913, y: 0.01500012, z: -0.0034295886}
    - {x: 0.110371634, y: 0.01500012, z: -0.003898338}
    - {x: 0.10858663, y: 0.01500012, z: -0.004228339}
    - {x: 0.106756635, y: 0.01500012, z: -0.004430838}
    - {x: 0.10492663, y: 0.01500012, z: -0.004524588}
    - {x: 0.103141636, y: 0.01500012, z: -0.0045170872}
    - {x: 0.10145413, y: 0.01500012, z: -0.0044270875}
    - {x: 0.09990538, y: 0.01500012, z: -0.0042658364}
    - {x: 0.09854788, y: 0.01500012, z: -0.004048335}
    - {x: 0.09888163, y: 0.01500012, z: -0.005563336}
    - {x: 0.09897538, y: 0.01500012, z: -0.0070183356}
    - {x: 0.098851636, y: 0.01500012, z: -0.008402086}
    - {x: 0.09854788, y: 0.01500012, z: -0.009707085}
    - {x: 0.09809038, y: 0.015000121, z: -0.010937084}
    - {x: 0.09750913, y: 0.015000123, z: -0.012073334}
    - {x: 0.09683413, y: 0.015000123, z: -0.013119584}
    - {x: 0.09609913, y: 0.015000123, z: -0.014060834}
    - {x: 0.09533038, y: 0.015000123, z: -0.014897085}
    - {x: 0.09455788, y: 0.015000123, z: -0.015620834}
    - {x: 0.09381538, y: 0.015000123, z: -0.016224585}
    - {x: 0.09313288, y: 0.015000123, z: -0.016700834}
    - {x: 0.092255384, y: 0.015000123, z: -0.0147733325}
    - {x: 0.091306634, y: 0.015000123, z: -0.013145832}
    - {x: 0.09029413, y: 0.015000123, z: -0.011788333}
    - {x: 0.08924788, y: 0.015000121, z: -0.010682083}
    - {x: 0.088179134, y: 0.01500012, z: -0.009808333}
    - {x: 0.08710663, y: 0.01500012, z: -0.009144581}
    - {x: 0.086056635, y: 0.01500012, z: -0.0086683305}
    - {x: 0.08504413, y: 0.01500012, z: -0.008357081}
    - {x: 0.08409163, y: 0.01500012, z: -0.008188331}
    - {x: 0.083214134, y: 0.01500012, z: -0.008143331}
    - {x: 0.082430385, y: 0.01500012, z: -0.008199579}
    - {x: 0.081766635, y: 0.01500012, z: -0.008338329}
    - {x: 0.07916413, y: 0.015000123, z: -0.0121520795}
    - {x: 0.07640413, y: 0.015000123, z: -0.015002077}
    - {x: 0.07353163, y: 0.015000123, z: -0.016978327}
    - {x: 0.07059913, y: 0.015000123, z: -0.018178329}
    - {x: 0.06764788, y: 0.015000123, z: -0.018695824}
    - {x: 0.064730376, y: 0.015000123, z: -0.018628325}
    - {x: 0.06188788, y: 0.015000123, z: -0.018065825}
    - {x: 0.059176628, y: 0.015000123, z: -0.017109573}
    - {x: 0.056637883, y: 0.015000123, z: -0.01585332}
    - {x: 0.05432038, y: 0.015000123, z: -0.014390821}
    - {x: 0.05227288, y: 0.015000123, z: -0.01281957}
    - {x: 0.05054038, y: 0.015000123, z: -0.011233319}
    - {x: 0.04762663, y: 0.015000123, z: -0.014510818}
    - {x: 0.044607878, y: 0.015000123, z: -0.016779568}
    - {x: 0.04152538, y: 0.015000123, z: -0.018144567}
    - {x: 0.038424134, y: 0.015000123, z: -0.018714566}
    - {x: 0.03534913, y: 0.015000123, z: -0.018598314}
    - {x: 0.03234163, y: 0.015000123, z: -0.017893314}
    - {x: 0.029446632, y: 0.015000123, z: -0.016715813}
    - {x: 0.026701631, y: 0.015000123, z: -0.015163311}
    - {x: 0.024159135, y: 0.015000123, z: -0.01334831}
    - {x: 0.02185663, y: 0.015000123, z: -0.011375809}
    - {x: 0.019835385, y: 0.01500012, z: -0.009347059}
    - {x: 0.018144133, y: 0.01500012, z: -0.007374557}
    - {x: 0.017326633, y: 0.01500012, z: -0.008912058}
    - {x: 0.01637038, y: 0.01500012, z: -0.010355807}
    - {x: 0.015309127, y: 0.015000123, z: -0.0116983075}
    - {x: 0.014165381, y: 0.015000123, z: -0.0129395565}
    - {x: 0.01296913, y: 0.015000123, z: -0.014079556}
    - {x: 0.011742883, y: 0.015000123, z: -0.0151183065}
    - {x: 0.01051663, y: 0.015000123, z: -0.016044557}
    - {x: 0.009316632, y: 0.015000123, z: -0.016865805}
    - {x: 0.008165375, y: 0.015000123, z: -0.017578308}
    - {x: 0.0070966333, y: 0.015000123, z: -0.018178307}
    - {x: 0.0052928776, y: 0.015000123, z: -0.019033305}
    - {x: -0.0051171184, y: 0.015000123, z: -0.019033302}
    - {x: -0.007078364, y: 0.015000123, z: -0.016123299}
    - {x: -0.008960872, y: 0.015000123, z: -0.013689549}
    - {x: -0.010753376, y: 0.015000123, z: -0.011690798}
    - {x: -0.012455864, y: 0.01500012, z: -0.010089548}
    - {x: -0.014049618, y: 0.01500012, z: -0.008855796}
    - {x: -0.015534622, y: 0.01500012, z: -0.007952047}
    - {x: -0.016895873, y: 0.01500012, z: -0.007337047}
    - {x: -0.018125875, y: 0.01500012, z: -0.0069770454}
    - {x: -0.019220872, y: 0.01500012, z: -0.006838296}
    - {x: -0.020165874, y: 0.01500012, z: -0.0068832953}
    - {x: -0.02095337, y: 0.01500012, z: -0.0070707956}
    - {x: -0.021579621, y: 0.01500012, z: -0.0073745437}
    - {x: -0.025595872, y: 0.015000123, z: -0.011173293}
    - {x: -0.02939087, y: 0.015000123, z: -0.013982042}
    - {x: -0.032960862, y: 0.015000123, z: -0.015894543}
    - {x: -0.036294624, y: 0.015000123, z: -0.017015792}
    - {x: -0.039377123, y: 0.015000123, z: -0.01743579}
    - {x: -0.04220462, y: 0.015000123, z: -0.017259538}
    - {x: -0.04476586, y: 0.015000123, z: -0.016584538}
    - {x: -0.047053367, y: 0.015000123, z: -0.015512036}
    - {x: -0.04905212, y: 0.015000123, z: -0.014135785}
    - {x: -0.05075462, y: 0.015000123, z: -0.012560784}
    - {x: -0.052149624, y: 0.015000121, z: -0.010880784}
    - {x: -0.05322961, y: 0.01500012, z: -0.009197034}
    - {x: -0.054328367, y: 0.015000123, z: -0.011158284}
    - {x: -0.055517122, y: 0.015000123, z: -0.012857034}
    - {x: -0.05677712, y: 0.015000123, z: -0.014308282}
    - {x: -0.05808212, y: 0.015000123, z: -0.015530782}
    - {x: -0.059413373, y: 0.015000123, z: -0.016539533}
    - {x: -0.06074086, y: 0.015000123, z: -0.017349534}
    - {x: -0.062042117, y: 0.015000123, z: -0.017979532}
    - {x: -0.06329836, y: 0.015000123, z: -0.018448282}
    - {x: -0.06447962, y: 0.015000123, z: -0.01877078}
    - {x: -0.06556712, y: 0.015000123, z: -0.01896578}
    - {x: -0.06653462, y: 0.015000123, z: -0.01904453}
    - {x: -0.06735586, y: 0.015000123, z: -0.01903328}
    - {x: -0.06918961, y: 0.015000123, z: -0.01724828}
    - {x: -0.07098213, y: 0.015000123, z: -0.015677027}
    - {x: -0.07273337, y: 0.015000123, z: -0.014300777}
    - {x: -0.074439615, y: 0.015000123, z: -0.013119526}
    - {x: -0.07608962, y: 0.015000123, z: -0.012114527}
    - {x: -0.077683374, y: 0.015000123, z: -0.011274525}
    - {x: -0.079213366, y: 0.01500012, z: -0.010595774}
    - {x: -0.08067587, y: 0.01500012, z: -0.010063275}
    - {x: -0.08206336, y: 0.01500012, z: -0.009669525}
    - {x: -0.083372116, y: 0.01500012, z: -0.009399524}
    - {x: -0.08459838, y: 0.01500012, z: -0.009245773}
    - {x: -0.085730866, y: 0.01500012, z: -0.009197023}
    - {x: -0.08713336, y: 0.01500012, z: -0.009343273}
    - {x: -0.08841212, y: 0.01500012, z: -0.009752022}
    - {x: -0.089578375, y: 0.01500012, z: -0.010385772}
    - {x: -0.09062837, y: 0.015000123, z: -0.011199521}
    - {x: -0.09156588, y: 0.015000123, z: -0.012148271}
    - {x: -0.09239462, y: 0.015000123, z: -0.013194521}
    - {x: -0.09311837, y: 0.015000123, z: -0.014285771}
    - {x: -0.09373337, y: 0.015000123, z: -0.01539202}
    - {x: -0.09425087, y: 0.015000123, z: -0.016460769}
    - {x: -0.09466712, y: 0.015000123, z: -0.017450772}
    - {x: -0.09498587, y: 0.015000123, z: -0.01832077}
    - {x: -0.095210865, y: 0.015000123, z: -0.019033272}
    - {x: -0.09655711, y: 0.015000123, z: -0.019033272}
    - {x: -0.09706712, y: 0.015000123, z: -0.01729327}
    - {x: -0.09741962, y: 0.015000123, z: -0.015620769}
    - {x: -0.09763336, y: 0.015000123, z: -0.014023269}
    - {x: -0.09772712, y: 0.015000123, z: -0.01250452}
    - {x: -0.097712114, y: 0.015000123, z: -0.011079519}
    - {x: -0.097603366, y: 0.01500012, z: -0.009752019}
    - {x: -0.097423375, y: 0.01500012, z: -0.008533269}
    - {x: -0.09718713, y: 0.01500012, z: -0.007427019}
    - {x: -0.09690587, y: 0.01500012, z: -0.0064445185}
    - {x: -0.09660213, y: 0.01500012, z: -0.005593269}
    - {x: -0.09598337, y: 0.01500012, z: -0.004318271}
    - {x: -0.09704462, y: 0.01500012, z: -0.004580768}
    - {x: -0.09831962, y: 0.01500012, z: -0.0048057674}
    - {x: -0.09977837, y: 0.01500012, z: -0.00497077}
    - {x: -0.10139838, y: 0.01500012, z: -0.0050495183}
    - {x: -0.10314587, y: 0.01500012, z: -0.0050232657}
    - {x: -0.10500586, y: 0.01500012, z: -0.004865766}
    - {x: -0.10694462, y: 0.01500012, z: -0.0045620147}
    - {x: -0.10893588, y: 0.01500012, z: -0.0040820143}
    - {x: -0.11095713, y: 0.01500012, z: -0.003410763}
    - {x: -0.11297837, y: 0.01500012, z: -0.0025182632}
    - {x: -0.11497712, y: 0.01500012, z: -0.0013895149}
    - {x: -0.11692338, y: 0.01500012, z: -0.0000020116086}
    - {x: -0.115824625, y: 0.015000118, z: 0.0007554887}
    - {x: -0.11451587, y: 0.015000118, z: 0.001557985}
    - {x: -0.11302337, y: 0.015000118, z: 0.0023754868}
    - {x: -0.111373365, y: 0.015000118, z: 0.0031667363}
    - {x: -0.109595865, y: 0.015000118, z: 0.0038979843}
    - {x: -0.10772087, y: 0.015000118, z: 0.0045317356}
    - {x: -0.10577837, y: 0.015000118, z: 0.0050342344}
    - {x: -0.103790864, y: 0.015000118, z: 0.005371732}
    - {x: -0.10178837, y: 0.015000118, z: 0.005502981}
    - {x: -0.09980087, y: 0.015000118, z: 0.00539423}
    - {x: -0.09785837, y: 0.015000118, z: 0.005011732}
    - {x: -0.09598337, y: 0.015000118, z: 0.0043179803}
    - {x: -0.09660213, y: 0.015000118, z: 0.0055929814}
    - {x: -0.09690587, y: 0.015000118, z: 0.0064442325}
    - {x: -0.09718713, y: 0.015000118, z: 0.0074267294}
    - {x: -0.097423375, y: 0.015000118, z: 0.00853298}
    - {x: -0.097603366, y: 0.015000118, z: 0.0097517315}
    - {x: -0.097712114, y: 0.015000117, z: 0.011079229}
    - {x: -0.09772712, y: 0.015000115, z: 0.012504231}
    - {x: -0.09763336, y: 0.015000115, z: 0.0140192285}
    - {x: -0.09741962, y: 0.015000115, z: 0.0156204775}
    - {x: -0.09706712, y: 0.015000115, z: 0.01729298}
    - {x: -0.09655711, y: 0.015000113, z: 0.019029226}
    - {x: -0.095210865, y: 0.015000113, z: 0.019029226}
    - {x: -0.09481712, y: 0.015000113, z: 0.01794548}
    - {x: -0.09438962, y: 0.015000115, z: 0.01683173}
    - {x: -0.09391336, y: 0.015000115, z: 0.01570673}
    - {x: -0.09338087, y: 0.015000115, z: 0.0145967305}
    - {x: -0.09277712, y: 0.015000115, z: 0.013527977}
    - {x: -0.092094615, y: 0.015000115, z: 0.012522976}
    - {x: -0.09132211, y: 0.015000117, z: 0.011607978}
    - {x: -0.090448365, y: 0.015000117, z: 0.010801728}
    - {x: -0.08946587, y: 0.015000118, z: 0.0101342285}
    - {x: -0.08835961, y: 0.015000118, z: 0.00962798}
    - {x: -0.08711836, y: 0.015000118, z: 0.0093092285}
    - {x: -0.085730866, y: 0.015000118, z: 0.009196727}
    - {x: -0.08459838, y: 0.015000118, z: 0.009245478}
    - {x: -0.083372116, y: 0.015000118, z: 0.009399226}
    - {x: -0.08206336, y: 0.015000118, z: 0.009669227}
    - {x: -0.08067587, y: 0.015000118, z: 0.010062975}
    - {x: -0.079213366, y: 0.015000118, z: 0.010595473}
    - {x: -0.077683374, y: 0.015000117, z: 0.011274227}
    - {x: -0.07608962, y: 0.015000115, z: 0.012110475}
    - {x: -0.074439615, y: 0.015000115, z: 0.013119221}
    - {x: -0.07273337, y: 0.015000115, z: 0.014300473}
    - {x: -0.07098213, y: 0.015000115, z: 0.01567297}
    - {x: -0.06918961, y: 0.015000115, z: 0.017247967}
    - {x: -0.06735586, y: 0.015000113, z: 0.019029215}
    - {x: -0.06653462, y: 0.015000113, z: 0.019044217}
    - {x: -0.06556712, y: 0.015000113, z: 0.018961716}
    - {x: -0.06447962, y: 0.015000113, z: 0.018770467}
    - {x: -0.06329836, y: 0.015000113, z: 0.018447965}
    - {x: -0.06204211, y: 0.015000113, z: 0.01797922}
    - {x: -0.06074085, y: 0.015000115, z: 0.017349217}
    - {x: -0.059413366, y: 0.015000115, z: 0.01653922}
    - {x: -0.05808211, y: 0.015000115, z: 0.015530468}
    - {x: -0.056777112, y: 0.015000115, z: 0.0143079655}
    - {x: -0.055517115, y: 0.015000115, z: 0.012856718}
    - {x: -0.05432836, y: 0.015000117, z: 0.011157967}
    - {x: -0.05322961, y: 0.015000118, z: 0.009196715}
    - {x: -0.052149616, y: 0.015000117, z: 0.010880463}
    - {x: -0.050754614, y: 0.015000115, z: 0.012556713}
    - {x: -0.04905211, y: 0.015000115, z: 0.014135464}
    - {x: -0.04705336, y: 0.015000115, z: 0.015511713}
    - {x: -0.044765852, y: 0.015000115, z: 0.01658421}
    - {x: -0.04220461, y: 0.015000115, z: 0.01725921}
    - {x: -0.039377116, y: 0.015000115, z: 0.017435461}
    - {x: -0.036294617, y: 0.015000115, z: 0.01701171}
    - {x: -0.032960854, y: 0.015000115, z: 0.015894208}
    - {x: -0.029390866, y: 0.015000115, z: 0.013981707}
    - {x: -0.025595868, y: 0.015000117, z: 0.011172957}
    - {x: -0.021579618, y: 0.015000118, z: 0.0073742047}
    - {x: -0.020953367, y: 0.015000118, z: 0.007070454}
    - {x: -0.02016587, y: 0.015000118, z: 0.0068829544}
    - {x: -0.019220868, y: 0.015000118, z: 0.0068379543}
    - {x: -0.018125871, y: 0.015000118, z: 0.0069767046}
    - {x: -0.01689587, y: 0.015000118, z: 0.007336705}
    - {x: -0.01553462, y: 0.015000118, z: 0.007951704}
    - {x: -0.014049614, y: 0.015000118, z: 0.008855456}
    - {x: -0.01245586, y: 0.015000118, z: 0.010089202}
    - {x: -0.010753373, y: 0.015000117, z: 0.011690453}
    - {x: -0.008960866, y: 0.015000115, z: 0.013685454}
    - {x: -0.0070783584, y: 0.015000115, z: 0.016122948}
    - {x: -0.0051171044, y: 0.015000113, z: 0.019029193}
    - {x: 0.0052928915, y: 0.015000113, z: 0.019029193}
    - {x: 0.0070966473, y: 0.015000113, z: 0.018177945}
    - {x: 0.008165388, y: 0.015000113, z: 0.017577946}
    - {x: 0.009316645, y: 0.015000115, z: 0.016865443}
    - {x: 0.010516643, y: 0.015000115, z: 0.016044196}
    - {x: 0.011742896, y: 0.015000115, z: 0.015114196}
    - {x: 0.012969143, y: 0.015000115, z: 0.0140791945}
    - {x: 0.014165392, y: 0.015000115, z: 0.012939195}
    - {x: 0.015309138, y: 0.015000117, z: 0.011697943}
    - {x: 0.016370391, y: 0.015000118, z: 0.010351694}
    - {x: 0.017326644, y: 0.015000118, z: 0.008911693}
    - {x: 0.018144144, y: 0.015000118, z: 0.007374192}
    - {x: 0.019835396, y: 0.015000118, z: 0.009346692}
    - {x: 0.021856641, y: 0.015000117, z: 0.01137544}
    - {x: 0.024159146, y: 0.015000115, z: 0.013347936}
    - {x: 0.026701642, y: 0.015000115, z: 0.015162942}
    - {x: 0.029446647, y: 0.015000115, z: 0.01671544}
    - {x: 0.032341644, y: 0.015000113, z: 0.017892938}
    - {x: 0.035349146, y: 0.015000113, z: 0.018597938}
    - {x: 0.03842415, y: 0.015000113, z: 0.018714186}
    - {x: 0.041525394, y: 0.015000113, z: 0.01814418}
    - {x: 0.044607893, y: 0.015000115, z: 0.01677918}
    - {x: 0.047626644, y: 0.015000115, z: 0.014510431}
    - {x: 0.050540395, y: 0.015000117, z: 0.011232932}
    tangents:
    - {x: 0.9986813, y: -0.00000026229964, z: -0.051339105}
    - {x: 0.76616037, y: -0.00000039685224, z: 0.6426494}
    - {x: 0.8203652, y: 0, z: 0.5718399}
    - {x: 0.872145, y: 0, z: 0.48924744}
    - {x: 0.9213379, y: -0.00000032453303, z: 0.38876268}
    - {x: 0.9646764, y: -0.00000032479787, z: 0.263438}
    - {x: 0.9940375, y: 0, z: 0.10903865}
    - {x: 0.9972199, y: 0, z: -0.07451465}
    - {x: 0.96077824, y: 0.0000002956336, z: -0.27731773}
    - {x: 0.8797222, y: 0.00000029562352, z: -0.47548807}
    - {x: 0.7635327, y: 0, z: -0.6457691}
    - {x: 0.63196456, y: 0.00000030366994, z: -0.77499723}
    - {x: 0.8314819, y: 0.00000032619457, z: -0.5555519}
    - {x: 0.9903743, y: 0, z: -0.13841487}
    - {x: 0.9999479, y: 0, z: -0.010206882}
    - {x: 0.99380344, y: 0, z: 0.11115173}
    - {x: 0.97214705, y: 0, z: 0.23437187}
    - {x: 0.93458, y: 0, z: 0.3557529}
    - {x: 0.8823312, y: 0, z: 0.470629}
    - {x: 0.8140145, y: -0.00000033805063, z: 0.5808445}
    - {x: 0.73216194, y: -0.000000338015, z: 0.6811306}
    - {x: 0.6435967, y: -0.0000005508767, z: 0.7653648}
    - {x: 0.55162865, y: -0.00000055081915, z: 0.8340899}
    - {x: 0.45956048, y: 0, z: 0.8881465}
    - {x: 0.9645227, y: 0, z: 0.26399985}
    - {x: 0.7985147, y: 0, z: -0.60197526}
    - {x: 0.7532795, y: 0, z: -0.65770054}
    - {x: 0.7037539, y: 0, z: -0.7104438}
    - {x: 0.64663845, y: 0, z: -0.7627967}
    - {x: 0.5793803, y: 0, z: -0.8150574}
    - {x: 0.49882153, y: 0.00000072874474, z: -0.8667047}
    - {x: 0.4025501, y: 0.0000010853719, z: -0.915398}
    - {x: 0.28841716, y: 0.00000035653053, z: -0.95750487}
    - {x: 0.15807843, y: 0, z: -0.9874265}
    - {x: 0.012543586, y: 0, z: -0.9999213}
    - {x: -0.14012605, y: 0, z: -0.99013364}
    - {x: 0.6882744, y: 0, z: -0.7254504}
    - {x: 0.9905499, y: 0, z: 0.13715297}
    - {x: 0.9961623, y: 0, z: 0.087525785}
    - {x: 0.99917674, y: 0, z: 0.04056917}
    - {x: 0.9999497, y: 0, z: -0.010031752}
    - {x: 0.9977935, y: 0, z: -0.06639372}
    - {x: 0.9913974, y: 0, z: -0.13088629}
    - {x: 0.9777213, y: 0, z: -0.20990725}
    - {x: 0.9517295, y: 0, z: -0.3069381}
    - {x: 0.9037145, y: 0, z: -0.42813557}
    - {x: 0.81864357, y: 0, z: -0.57430196}
    - {x: 0.6778925, y: 0.0000006564347, z: -0.73516107}
    - {x: 0.00076565216, y: 0.0000008032855, z: -0.9999997}
    - {x: -0.6752002, y: 0, z: -0.7376345}
    - {x: -0.813979, y: 0, z: -0.58089435}
    - {x: -0.89828235, y: 0, z: -0.43941873}
    - {x: -0.9471514, y: 0, z: -0.32078686}
    - {x: -0.9743733, y: 0, z: -0.2249372}
    - {x: -0.98928684, y: 0, z: -0.14598502}
    - {x: -0.9967458, y: 0, z: -0.0806083}
    - {x: -0.9997241, y: 0, z: -0.023489136}
    - {x: -0.999587, y: 0, z: 0.028738406}
    - {x: -0.99691945, y: 0, z: 0.07843213}
    - {x: -0.99139154, y: 0, z: 0.13093065}
    - {x: -0.68632066, y: 0, z: -0.72729903}
    - {x: 0.14012593, y: 0, z: -0.9901337}
    - {x: -0.012423041, y: 0, z: -0.9999228}
    - {x: -0.15827176, y: 0, z: -0.9873956}
    - {x: -0.2882446, y: 0.00000035555695, z: -0.95755684}
    - {x: -0.40270612, y: 0.0000010863971, z: -0.9153293}
    - {x: -0.49939993, y: 0.00000073062637, z: -0.8663716}
    - {x: -0.5793806, y: 0, z: -0.81505716}
    - {x: -0.64663815, y: 0, z: -0.7627969}
    - {x: -0.7037537, y: 0, z: -0.710444}
    - {x: -0.75327927, y: 0, z: -0.65770084}
    - {x: -0.79851407, y: 0, z: -0.60197616}
    - {x: -0.9645229, y: 0, z: 0.26399907}
    - {x: -0.4595606, y: 0, z: 0.8881464}
    - {x: -0.55162966, y: 0, z: 0.83408916}
    - {x: -0.6435963, y: -0.0000006126935, z: 0.7653651}
    - {x: -0.73216087, y: -0.00000095091934, z: 0.6811317}
    - {x: -0.8140136, y: -0.00000033805057, z: 0.58084583}
    - {x: -0.88233083, y: 0, z: 0.47062972}
    - {x: -0.9351799, y: 0, z: 0.35417303}
    - {x: -0.9720955, y: 0, z: 0.2345853}
    - {x: -0.99358934, y: 0, z: 0.11304944}
    - {x: -0.9999479, y: 0, z: -0.010204051}
    - {x: -0.99037457, y: 0, z: -0.13841312}
    - {x: -0.83148193, y: 0.00000032619462, z: -0.5555518}
    - {x: -0.6319654, y: 0.00000030367002, z: -0.7749966}
    - {x: -0.7635335, y: 0, z: -0.6457683}
    - {x: -0.879722, y: 0, z: -0.47548833}
    - {x: -0.9607783, y: 0, z: -0.27731767}
    - {x: -0.9971719, y: 0, z: -0.07515482}
    - {x: -0.9940383, y: 0, z: 0.10903128}
    - {x: -0.9645085, y: 0, z: 0.26405185}
    - {x: -0.921337, y: 0, z: 0.38876492}
    - {x: -0.8721446, y: 0, z: 0.48924822}
    - {x: -0.82036525, y: 0, z: 0.57183987}
    - {x: -0.7661601, y: 0, z: 0.64264977}
    - {x: -0.9986813, y: 0, z: -0.051338986}
    - {x: -0.7355702, y: 0, z: -0.6774485}
    - {x: -0.8624624, y: 0, z: -0.5061211}
    - {x: -0.9555377, y: 0, z: -0.2948691}
    - {x: -0.99740976, y: 0, z: -0.07192831}
    - {x: -0.9910325, y: 0, z: 0.13362102}
    - {x: -0.9528574, y: 0, z: 0.30341852}
    - {x: -0.9002247, y: 0, z: 0.43542564}
    - {x: -0.84332985, y: 0, z: 0.5373963}
    - {x: -0.7874322, y: 0, z: 0.61640126}
    - {x: -0.7331839, y: -0.00000048819015, z: 0.68003047}
    - {x: -0.67882705, y: -0.0000004881514, z: 0.73429817}
    - {x: -0.993951, y: 0, z: -0.10982426}
    - {x: -0.51142794, y: 0, z: -0.8593262}
    - {x: -0.58668774, y: 0.0000008170456, z: -0.8098132}
    - {x: -0.6493518, y: 0.0000008169102, z: -0.76048815}
    - {x: -0.70114726, y: 0, z: -0.7130165}
    - {x: -0.7437951, y: 0, z: -0.6684076}
    - {x: -0.7807935, y: 0, z: -0.6247892}
    - {x: -0.8118171, y: 0, z: -0.5839118}
    - {x: -0.8380057, y: 0, z: -0.54566145}
    - {x: -0.8613493, y: 0, z: -0.5080132}
    - {x: -0.8883306, y: 0, z: -0.45920455}
    - {x: -0.97560847, y: 0, z: -0.2195177}
    - {x: -0.88286006, y: 0, z: 0.4696361}
    - {x: -0.5856699, y: 0, z: 0.8105497}
    - {x: -0.64016426, y: 0, z: 0.768238}
    - {x: -0.6986734, y: -0.000000598259, z: 0.71544075}
    - {x: -0.760469, y: -0.00000059840835, z: 0.64937425}
    - {x: -0.8237895, y: 0, z: 0.56689584}
    - {x: -0.88443035, y: 0, z: 0.46667224}
    - {x: -0.9378076, y: 0, z: 0.3471555}
    - {x: -0.9789824, y: 0, z: 0.20394483}
    - {x: -0.9992306, y: 0, z: 0.03921907}
    - {x: -0.9901232, y: 0, z: -0.14019997}
    - {x: -0.9418607, y: 0, z: -0.33600372}
    - {x: -0.8227378, y: 0.0000002556888, z: -0.56842107}
    - {x: -0.7665399, y: 0.00000025316118, z: -0.6421967}
    - {x: -0.8448676, y: 0, z: -0.53497547}
    - {x: -0.9178652, y: 0, z: -0.39689216}
    - {x: -0.9736818, y: 0, z: -0.22791158}
    - {x: -0.99933094, y: 0, z: -0.036573857}
    - {x: -0.98723215, y: 0, z: 0.15928812}
    - {x: -0.94003874, y: 0, z: 0.3410677}
    - {x: -0.8674653, y: 0, z: 0.4974976}
    - {x: -0.78085715, y: 0, z: 0.6247096}
    - {x: -0.6879279, y: -0.00000042741428, z: 0.725779}
    - {x: -0.59047663, y: -0.0000006605257, z: 0.80705476}
    - {x: -0.9995552, y: 0.00000075526555, z: -0.029822197}
    - {x: -0.53171355, y: 0.0000006221943, z: -0.84692425}
    - {x: -0.6153086, y: 0, z: -0.7882863}
    - {x: -0.6936191, y: 0, z: -0.7203419}
    - {x: -0.76445293, y: 0, z: -0.64467955}
    - {x: -0.8263765, y: 0, z: -0.56311804}
    - {x: -0.8778813, y: 0, z: -0.4788783}
    - {x: -0.9194921, y: 0, z: -0.39310843}
    - {x: -0.95177484, y: 0, z: -0.30679753}
    - {x: -0.9754654, y: 0, z: -0.22015277}
    - {x: -0.9916498, y: 0, z: -0.12895976}
    - {x: -0.99943024, y: 0, z: -0.033751816}
    - {x: -0.9238361, y: 0, z: 0.38278833}
    - {x: -0.7345317, y: 0, z: 0.6785743}
    - {x: -0.7694035, y: 0, z: 0.638763}
    - {x: -0.80459315, y: 0, z: 0.5938265}
    - {x: -0.8384785, y: 0, z: 0.5449347}
    - {x: -0.8697665, y: 0, z: 0.49346364}
    - {x: -0.89988005, y: -0.0000008350983, z: 0.43613747}
    - {x: -0.92741203, y: -0.00000083511037, z: 0.37404135}
    - {x: -0.9514608, y: 0, z: 0.30777013}
    - {x: -0.97134215, y: 0, z: 0.23768559}
    - {x: -0.9865674, y: 0, z: 0.16335483}
    - {x: -0.9964845, y: 0, z: 0.08377741}
    - {x: -0.9995367, y: 0, z: -0.030436601}
    - {x: -0.9787254, y: 0, z: -0.20517458}
    - {x: -0.9196633, y: 0, z: -0.3927078}
    - {x: -0.83726233, y: 0.0000010550596, z: -0.5468014}
    - {x: -0.7482771, y: 0.000001053916, z: -0.6633863}
    - {x: -0.66289127, y: 0, z: -0.7487157}
    - {x: -0.5873372, y: 0, z: -0.8093424}
    - {x: -0.5197029, y: 0, z: -0.85434705}
    - {x: -0.46103656, y: 0, z: -0.88738114}
    - {x: -0.41184294, y: 0, z: -0.9112549}
    - {x: -0.36590293, y: 0, z: -0.930653}
    - {x: -0.32265282, y: 0, z: -0.9465174}
    - {x: -0.8065734, y: 0, z: -0.59113395}
    - {x: -0.80039793, y: 0, z: 0.59946895}
    - {x: -0.24393582, y: 0, z: 0.9697914}
    - {x: -0.16954261, y: 0, z: 0.98552287}
    - {x: -0.09717816, y: 0, z: 0.995267}
    - {x: -0.025560107, y: 0, z: 0.99967325}
    - {x: 0.046117216, y: -0.0000010494938, z: 0.99893606}
    - {x: 0.11393332, y: -0.0000010493809, z: 0.99348843}
    - {x: 0.17756236, y: 0, z: 0.9841096}
    - {x: 0.2421707, y: 0, z: 0.9702337}
    - {x: 0.30579782, y: 0, z: 0.9520965}
    - {x: 0.3869108, y: 0, z: 0.9221172}
    - {x: -0.62936026, y: 0, z: 0.7771136}
    - {x: -0.9783267, y: 0, z: -0.20706725}
    - {x: -0.9896997, y: 0, z: -0.14315897}
    - {x: -0.9967534, y: 0, z: -0.08051534}
    - {x: -0.99985933, y: 0, z: -0.016774077}
    - {x: -0.9987627, y: 0, z: 0.049728464}
    - {x: -0.9928155, y: 0, z: 0.11965546}
    - {x: -0.9808582, y: 0, z: 0.1947234}
    - {x: -0.9614444, y: 0, z: 0.2749995}
    - {x: -0.9329676, y: 0, z: 0.35996044}
    - {x: -0.89384556, y: 0, z: 0.44837502}
    - {x: -0.8436728, y: 0, z: 0.5368578}
    - {x: 0.0078740185, y: -0.0000012156221, z: 0.99996895}
    - {x: 0.83820105, y: -0.00000069809755, z: 0.5453614}
    - {x: 0.8650337, y: 0, z: 0.50171375}
    - {x: 0.88969135, y: 0, z: 0.4565625}
    - {x: 0.9136108, y: 0, z: 0.40658984}
    - {x: 0.9365586, y: 0, z: 0.35051098}
    - {x: 0.95837486, y: 0, z: 0.28551286}
    - {x: 0.97789073, y: 0, z: 0.20911658}
    - {x: 0.99318343, y: 0, z: 0.11656178}
    - {x: 0.99998546, y: 0, z: 0.0053931023}
    - {x: 0.99225456, y: 0, z: -0.12422111}
    - {x: 0.9625875, y: 0, z: -0.2709713}
    - {x: 0.67183256, y: 0, z: 0.7407031}
    - {x: -0.38691008, y: 0, z: 0.9221174}
    - {x: -0.30579796, y: 0, z: 0.9520964}
    - {x: -0.24217111, y: 0, z: 0.97023356}
    - {x: -0.17756222, y: 0, z: 0.9841096}
    - {x: -0.113933325, y: -0.00000034979413, z: 0.99348843}
    - {x: -0.046117272, y: -0.0000010037688, z: 0.99893606}
    - {x: 0.02563623, y: -0.0000006539504, z: 0.99967134}
    - {x: 0.0971008, y: 0, z: 0.99527454}
    - {x: 0.16939092, y: 0, z: 0.9855489}
    - {x: 0.24421878, y: -0.00000051504765, z: 0.9697202}
    - {x: 0.8005729, y: -0.00000064285985, z: 0.59923536}
    - {x: 0.81898767, y: 0, z: -0.5738111}
    - {x: 0.3499283, y: 0.00000078070246, z: -0.93677646}
    - {x: 0.37414944, y: 0.00000078078335, z: -0.9273684}
    - {x: 0.41129932, y: 0, z: -0.91150033}
    - {x: 0.46245077, y: 0, z: -0.88664496}
    - {x: 0.5272766, y: 0, z: -0.8496937}
    - {x: 0.60428, y: 0.0000007787922, z: -0.79677206}
    - {x: 0.69134957, y: 0.0000007792342, z: -0.7225204}
    - {x: 0.7831985, y: 0.00000039312255, z: -0.6217718}
    - {x: 0.871292, y: 0.00000039342004, z: -0.49076492}
    - {x: 0.94266456, y: 0, z: -0.33374166}
    - {x: 0.986231, y: 0, z: -0.16537327}
    - {x: 0.9998206, y: 0, z: -0.018941268}
    - {x: 0.9964846, y: 0, z: 0.0837767}
    - {x: 0.98656756, y: 0, z: 0.16335371}
    - {x: 0.97134227, y: 0, z: 0.23768498}
    - {x: 0.951461, y: 0, z: 0.30776927}
    - {x: 0.92741185, y: -0.00000027836992, z: 0.3740418}
    - {x: 0.9002816, y: -0.0000007960888, z: 0.43530792}
    - {x: 0.86981344, y: -0.0000005177301, z: 0.4933807}
    - {x: 0.8380273, y: 0, z: 0.5456283}
    - {x: 0.80498654, y: 0, z: 0.5932931}
    - {x: 0.7694503, y: 0, z: 0.63870674}
    - {x: 0.7344882, y: -0.00000036441543, z: 0.67862153}
    - {x: 0.92316186, y: -0.00000039171002, z: 0.3844115}
    - {x: 0.9994423, y: 0, z: -0.03339393}
    - {x: 0.99161714, y: 0, z: -0.12921093}
    - {x: 0.9758318, y: 0, z: -0.21852288}
    - {x: 0.9517751, y: 0, z: -0.3067968}
    - {x: 0.91949254, y: 0.00000064489035, z: -0.39310744}
    - {x: 0.8778813, y: 0.00000064494003, z: -0.4788784}
    - {x: 0.8263769, y: 0, z: -0.56311744}
    - {x: 0.76445234, y: 0, z: -0.6446802}
    - {x: 0.69361883, y: 0, z: -0.7203423}
    - {x: 0.61530864, y: 0.00000044979407, z: -0.7882863}
    - {x: 0.531712, y: 0.00000065714084, z: -0.84692526}
    - {x: 0.99955505, y: -0.000000049849607, z: -0.029825829}
    - {x: 0.59092134, y: -0.0000006611128, z: 0.8067292}
    - {x: 0.6878963, y: -0.0000004279475, z: 0.7258089}
    - {x: 0.78048694, y: 0, z: 0.6251721}
    - {x: 0.8674659, y: 0, z: 0.49749663}
    - {x: 0.940039, y: 0, z: 0.34106693}
    - {x: 0.98723215, y: 0, z: 0.15928812}
    - {x: 0.99930894, y: 0, z: -0.037171353}
    - {x: 0.97366065, y: 0, z: -0.2280019}
    - {x: 0.9180656, y: 0, z: -0.39642859}
    - {x: 0.84486747, y: 0.00000019777993, z: -0.5349757}
    - {x: 0.7665397, y: 0.0000002820031, z: -0.64219695}
    - {x: 0.8227367, y: 0.000000085229544, z: -0.5684227}
    - {x: 0.94186026, y: 0, z: -0.33600488}
    - {x: 0.9901232, y: 0, z: -0.14019991}
    - {x: 0.9992306, y: 0, z: 0.039219}
    - {x: 0.9789824, y: 0, z: 0.2039449}
    - {x: 0.93780774, y: 0, z: 0.34715515}
    - {x: 0.8844303, y: 0, z: 0.46667236}
    - {x: 0.82379, y: 0, z: 0.5668951}
    - {x: 0.7604696, y: -0.0000001994694, z: 0.64937353}
    - {x: 0.69900733, y: -0.0000005469722, z: 0.71511453}
    - {x: 0.6402372, y: -0.0000003474898, z: 0.7681772}
    - {x: 0.58561194, y: -0.0000002657648, z: 0.8105916}
    - {x: 0.8830013, y: -0.00000030082495, z: 0.46937057}
    - {x: 0.9757947, y: 0, z: -0.21868874}
    - {x: 0.88872033, y: 0, z: -0.45844966}
    - {x: 0.86134917, y: 0.0000006880366, z: -0.50801337}
    - {x: 0.8380057, y: 0.000000688062, z: -0.54566145}
    - {x: 0.81124914, y: 0, z: -0.58470064}
    - {x: 0.7807432, y: 0, z: -0.62485206}
    - {x: 0.7443904, y: 0, z: -0.66774464}
    - {x: 0.70114654, y: 0.0000005520691, z: -0.7130172}
    - {x: 0.64883554, y: 0.00000082403, z: -0.76092863}
    - {x: 0.58662343, y: 0.00000027186672, z: -0.8098598}
    - {x: 0.51194227, y: 0, z: -0.8590199}
    - {x: 0.993951, y: 0, z: -0.10982449}
    - {x: 0.6788274, y: -0.00000016271721, z: 0.7342979}
    - {x: 0.7331846, y: -0.00000047014638, z: 0.68002975}
    - {x: 0.7874322, y: -0.00000030747725, z: 0.61640126}
    - {x: 0.8433299, y: 0, z: 0.53739625}
    - {x: 0.9002253, y: -0.00000029860982, z: 0.43542445}
    - {x: 0.95285755, y: -0.00000029890376, z: 0.30341798}
    - {x: 0.9910326, y: 0, z: 0.13362041}
    - {x: 0.99740964, y: 0, z: -0.07193007}
    - {x: 0.9555373, y: 0.00000027817777, z: -0.29487017}
    - {x: 0.86246246, y: 0.000000278057, z: -0.50612104}
    - {x: 0.73557025, y: 0.00000021342962, z: -0.67744845}
    - {x: 0.9986813, y: -0.00000026229964, z: -0.051339105}
    bitangents:
    - {x: 0.051339105, y: -0, z: 0.9986813}
    - {x: -0.6426494, y: 0, z: 0.76616037}
    - {x: -0.5718399, y: 0, z: 0.8203652}
    - {x: -0.48924744, y: 0, z: 0.872145}
    - {x: -0.38876268, y: 0, z: 0.9213379}
    - {x: -0.263438, y: 0, z: 0.9646764}
    - {x: -0.10903865, y: 0, z: 0.9940375}
    - {x: 0.07451465, y: -0, z: 0.9972199}
    - {x: 0.27731773, y: -0, z: 0.96077824}
    - {x: 0.47548807, y: -0, z: 0.8797222}
    - {x: 0.6457691, y: -0, z: 0.7635327}
    - {x: 0.77499723, y: -0, z: 0.63196456}
    - {x: 0.5555519, y: -0, z: 0.8314819}
    - {x: 0.13841487, y: -0, z: 0.9903743}
    - {x: 0.010206882, y: -0, z: 0.9999479}
    - {x: -0.11115173, y: 0, z: 0.99380344}
    - {x: -0.23437187, y: 0, z: 0.97214705}
    - {x: -0.3557529, y: 0, z: 0.93458}
    - {x: -0.470629, y: 0, z: 0.8823312}
    - {x: -0.5808445, y: 0, z: 0.8140145}
    - {x: -0.6811306, y: 0, z: 0.73216194}
    - {x: -0.7653648, y: 0, z: 0.6435967}
    - {x: -0.8340899, y: 0, z: 0.55162865}
    - {x: -0.8881465, y: 0, z: 0.45956048}
    - {x: -0.26399985, y: 0, z: 0.9645227}
    - {x: 0.60197526, y: -0, z: 0.7985147}
    - {x: 0.65770054, y: -0, z: 0.7532795}
    - {x: 0.7104438, y: -0, z: 0.7037539}
    - {x: 0.7627967, y: -0, z: 0.64663845}
    - {x: 0.8150574, y: -0, z: 0.5793803}
    - {x: 0.8667047, y: -0, z: 0.49882153}
    - {x: 0.915398, y: -0, z: 0.4025501}
    - {x: 0.95750487, y: -0, z: 0.28841716}
    - {x: 0.9874265, y: -0, z: 0.15807843}
    - {x: 0.9999213, y: -0, z: 0.012543586}
    - {x: 0.99013364, y: 0, z: -0.14012605}
    - {x: 0.7254504, y: -0, z: 0.6882744}
    - {x: -0.13715297, y: 0, z: 0.9905499}
    - {x: -0.087525785, y: 0, z: 0.9961623}
    - {x: -0.04056917, y: 0, z: 0.99917674}
    - {x: 0.010031752, y: -0, z: 0.9999497}
    - {x: 0.06639372, y: -0, z: 0.9977935}
    - {x: 0.13088629, y: -0, z: 0.9913974}
    - {x: 0.20990725, y: -0, z: 0.9777213}
    - {x: 0.3069381, y: -0, z: 0.9517295}
    - {x: 0.42813557, y: -0, z: 0.9037145}
    - {x: 0.57430196, y: -0, z: 0.81864357}
    - {x: 0.73516107, y: -0, z: 0.6778925}
    - {x: 0.9999997, y: -0, z: 0.00076565216}
    - {x: 0.7376345, y: 0, z: -0.6752002}
    - {x: 0.58089435, y: 0, z: -0.813979}
    - {x: 0.43941873, y: 0, z: -0.89828235}
    - {x: 0.32078686, y: 0, z: -0.9471514}
    - {x: 0.2249372, y: 0, z: -0.9743733}
    - {x: 0.14598502, y: 0, z: -0.98928684}
    - {x: 0.0806083, y: 0, z: -0.9967458}
    - {x: 0.023489136, y: 0, z: -0.9997241}
    - {x: -0.028738406, y: 0, z: -0.999587}
    - {x: -0.07843213, y: 0, z: -0.99691945}
    - {x: -0.13093065, y: 0, z: -0.99139154}
    - {x: 0.72729903, y: 0, z: -0.68632066}
    - {x: 0.9901337, y: -0, z: 0.14012593}
    - {x: 0.9999228, y: 0, z: -0.012423041}
    - {x: 0.9873956, y: 0, z: -0.15827176}
    - {x: 0.95755684, y: 0, z: -0.2882446}
    - {x: 0.9153293, y: 0, z: -0.40270612}
    - {x: 0.8663716, y: 0, z: -0.49939993}
    - {x: 0.81505716, y: 0, z: -0.5793806}
    - {x: 0.7627969, y: 0, z: -0.64663815}
    - {x: 0.710444, y: 0, z: -0.7037537}
    - {x: 0.65770084, y: 0, z: -0.75327927}
    - {x: 0.60197616, y: 0, z: -0.79851407}
    - {x: -0.26399907, y: 0, z: -0.9645229}
    - {x: -0.8881464, y: 0, z: -0.4595606}
    - {x: -0.83408916, y: 0, z: -0.55162966}
    - {x: -0.7653651, y: 0, z: -0.6435963}
    - {x: -0.6811317, y: 0, z: -0.73216087}
    - {x: -0.58084583, y: 0, z: -0.8140136}
    - {x: -0.47062972, y: 0, z: -0.88233083}
    - {x: -0.35417303, y: 0, z: -0.9351799}
    - {x: -0.2345853, y: 0, z: -0.9720955}
    - {x: -0.11304944, y: 0, z: -0.99358934}
    - {x: 0.010204051, y: 0, z: -0.9999479}
    - {x: 0.13841312, y: 0, z: -0.99037457}
    - {x: 0.5555518, y: 0, z: -0.83148193}
    - {x: 0.7749966, y: 0, z: -0.6319654}
    - {x: 0.6457683, y: 0, z: -0.7635335}
    - {x: 0.47548833, y: 0, z: -0.879722}
    - {x: 0.27731767, y: 0, z: -0.9607783}
    - {x: 0.07515482, y: 0, z: -0.9971719}
    - {x: -0.10903128, y: 0, z: -0.9940383}
    - {x: -0.26405185, y: 0, z: -0.9645085}
    - {x: -0.38876492, y: 0, z: -0.921337}
    - {x: -0.48924822, y: 0, z: -0.8721446}
    - {x: -0.57183987, y: 0, z: -0.82036525}
    - {x: -0.64264977, y: 0, z: -0.7661601}
    - {x: 0.051338986, y: 0, z: -0.9986813}
    - {x: 0.6774485, y: 0, z: -0.7355702}
    - {x: 0.5061211, y: 0, z: -0.8624624}
    - {x: 0.2948691, y: 0, z: -0.9555377}
    - {x: 0.07192831, y: 0, z: -0.99740976}
    - {x: -0.13362102, y: 0, z: -0.9910325}
    - {x: -0.30341852, y: 0, z: -0.9528574}
    - {x: -0.43542564, y: 0, z: -0.9002247}
    - {x: -0.5373963, y: 0, z: -0.84332985}
    - {x: -0.61640126, y: 0, z: -0.7874322}
    - {x: -0.68003047, y: 0, z: -0.7331839}
    - {x: -0.73429817, y: 0, z: -0.67882705}
    - {x: 0.10982426, y: 0, z: -0.993951}
    - {x: 0.8593262, y: 0, z: -0.51142794}
    - {x: 0.8098132, y: 0, z: -0.58668774}
    - {x: 0.76048815, y: 0, z: -0.6493518}
    - {x: 0.7130165, y: 0, z: -0.70114726}
    - {x: 0.6684076, y: 0, z: -0.7437951}
    - {x: 0.6247892, y: 0, z: -0.7807935}
    - {x: 0.5839118, y: 0, z: -0.8118171}
    - {x: 0.54566145, y: 0, z: -0.8380057}
    - {x: 0.5080132, y: 0, z: -0.8613493}
    - {x: 0.45920455, y: 0, z: -0.8883306}
    - {x: 0.2195177, y: 0, z: -0.97560847}
    - {x: -0.4696361, y: 0, z: -0.88286006}
    - {x: -0.8105497, y: 0, z: -0.5856699}
    - {x: -0.768238, y: 0, z: -0.64016426}
    - {x: -0.71544075, y: 0, z: -0.6986734}
    - {x: -0.64937425, y: 0, z: -0.760469}
    - {x: -0.56689584, y: 0, z: -0.8237895}
    - {x: -0.46667224, y: 0, z: -0.88443035}
    - {x: -0.3471555, y: 0, z: -0.9378076}
    - {x: -0.20394483, y: 0, z: -0.9789824}
    - {x: -0.03921907, y: 0, z: -0.9992306}
    - {x: 0.14019997, y: 0, z: -0.9901232}
    - {x: 0.33600372, y: 0, z: -0.9418607}
    - {x: 0.56842107, y: 0, z: -0.8227378}
    - {x: 0.6421967, y: 0, z: -0.7665399}
    - {x: 0.53497547, y: 0, z: -0.8448676}
    - {x: 0.39689216, y: 0, z: -0.9178652}
    - {x: 0.22791158, y: 0, z: -0.9736818}
    - {x: 0.036573857, y: 0, z: -0.99933094}
    - {x: -0.15928812, y: 0, z: -0.98723215}
    - {x: -0.3410677, y: 0, z: -0.94003874}
    - {x: -0.4974976, y: 0, z: -0.8674653}
    - {x: -0.6247096, y: 0, z: -0.78085715}
    - {x: -0.725779, y: 0, z: -0.6879279}
    - {x: -0.80705476, y: 0, z: -0.59047663}
    - {x: 0.029822197, y: 0, z: -0.9995552}
    - {x: 0.84692425, y: 0, z: -0.53171355}
    - {x: 0.7882863, y: 0, z: -0.6153086}
    - {x: 0.7203419, y: 0, z: -0.6936191}
    - {x: 0.64467955, y: 0, z: -0.76445293}
    - {x: 0.56311804, y: 0, z: -0.8263765}
    - {x: 0.4788783, y: 0, z: -0.8778813}
    - {x: 0.39310843, y: 0, z: -0.9194921}
    - {x: 0.30679753, y: 0, z: -0.95177484}
    - {x: 0.22015277, y: 0, z: -0.9754654}
    - {x: 0.12895976, y: 0, z: -0.9916498}
    - {x: 0.033751816, y: 0, z: -0.99943024}
    - {x: -0.38278833, y: 0, z: -0.9238361}
    - {x: -0.6785743, y: 0, z: -0.7345317}
    - {x: -0.638763, y: 0, z: -0.7694035}
    - {x: -0.5938265, y: 0, z: -0.80459315}
    - {x: -0.5449347, y: 0, z: -0.8384785}
    - {x: -0.49346364, y: 0, z: -0.8697665}
    - {x: -0.43613747, y: 0, z: -0.89988005}
    - {x: -0.37404135, y: 0, z: -0.92741203}
    - {x: -0.30777013, y: 0, z: -0.9514608}
    - {x: -0.23768559, y: 0, z: -0.97134215}
    - {x: -0.16335483, y: 0, z: -0.9865674}
    - {x: -0.08377741, y: 0, z: -0.9964845}
    - {x: 0.030436601, y: 0, z: -0.9995367}
    - {x: 0.20517458, y: 0, z: -0.9787254}
    - {x: 0.3927078, y: 0, z: -0.9196633}
    - {x: 0.5468014, y: 0, z: -0.83726233}
    - {x: 0.6633863, y: 0, z: -0.7482771}
    - {x: 0.7487157, y: 0, z: -0.66289127}
    - {x: 0.8093424, y: 0, z: -0.5873372}
    - {x: 0.85434705, y: 0, z: -0.5197029}
    - {x: 0.88738114, y: 0, z: -0.46103656}
    - {x: 0.9112549, y: 0, z: -0.41184294}
    - {x: 0.930653, y: 0, z: -0.36590293}
    - {x: 0.9465174, y: 0, z: -0.32265282}
    - {x: 0.59113395, y: 0, z: -0.8065734}
    - {x: -0.59946895, y: 0, z: -0.80039793}
    - {x: -0.9697914, y: 0, z: -0.24393582}
    - {x: -0.98552287, y: 0, z: -0.16954261}
    - {x: -0.995267, y: 0, z: -0.09717816}
    - {x: -0.99967325, y: 0, z: -0.025560107}
    - {x: -0.99893606, y: 0, z: 0.046117216}
    - {x: -0.99348843, y: 0, z: 0.11393332}
    - {x: -0.9841096, y: 0, z: 0.17756236}
    - {x: -0.9702337, y: 0, z: 0.2421707}
    - {x: -0.9520965, y: 0, z: 0.30579782}
    - {x: -0.9221172, y: 0, z: 0.3869108}
    - {x: -0.7771136, y: 0, z: -0.62936026}
    - {x: 0.20706725, y: 0, z: -0.9783267}
    - {x: 0.14315897, y: 0, z: -0.9896997}
    - {x: 0.08051534, y: 0, z: -0.9967534}
    - {x: 0.016774077, y: 0, z: -0.99985933}
    - {x: -0.049728464, y: 0, z: -0.9987627}
    - {x: -0.11965546, y: 0, z: -0.9928155}
    - {x: -0.1947234, y: 0, z: -0.9808582}
    - {x: -0.2749995, y: 0, z: -0.9614444}
    - {x: -0.35996044, y: 0, z: -0.9329676}
    - {x: -0.44837502, y: 0, z: -0.89384556}
    - {x: -0.5368578, y: 0, z: -0.8436728}
    - {x: -0.99996895, y: 0, z: 0.0078740185}
    - {x: -0.5453614, y: 0, z: 0.83820105}
    - {x: -0.50171375, y: 0, z: 0.8650337}
    - {x: -0.4565625, y: 0, z: 0.88969135}
    - {x: -0.40658984, y: 0, z: 0.9136108}
    - {x: -0.35051098, y: 0, z: 0.9365586}
    - {x: -0.28551286, y: 0, z: 0.95837486}
    - {x: -0.20911658, y: 0, z: 0.97789073}
    - {x: -0.11656178, y: 0, z: 0.99318343}
    - {x: -0.0053931023, y: 0, z: 0.99998546}
    - {x: 0.12422111, y: -0, z: 0.99225456}
    - {x: 0.2709713, y: -0, z: 0.9625875}
    - {x: -0.7407031, y: 0, z: 0.67183256}
    - {x: -0.9221174, y: 0, z: -0.38691008}
    - {x: -0.9520964, y: 0, z: -0.30579796}
    - {x: -0.97023356, y: 0, z: -0.24217111}
    - {x: -0.9841096, y: 0, z: -0.17756222}
    - {x: -0.99348843, y: 0, z: -0.113933325}
    - {x: -0.99893606, y: 0, z: -0.046117272}
    - {x: -0.99967134, y: 0, z: 0.02563623}
    - {x: -0.99527454, y: 0, z: 0.0971008}
    - {x: -0.9855489, y: 0, z: 0.16939092}
    - {x: -0.9697202, y: 0, z: 0.24421878}
    - {x: -0.59923536, y: 0, z: 0.8005729}
    - {x: 0.5738111, y: -0, z: 0.81898767}
    - {x: 0.93677646, y: -0, z: 0.3499283}
    - {x: 0.9273684, y: -0, z: 0.37414944}
    - {x: 0.91150033, y: -0, z: 0.41129932}
    - {x: 0.88664496, y: -0, z: 0.46245077}
    - {x: 0.8496937, y: -0, z: 0.5272766}
    - {x: 0.79677206, y: -0, z: 0.60428}
    - {x: 0.7225204, y: -0, z: 0.69134957}
    - {x: 0.6217718, y: -0, z: 0.7831985}
    - {x: 0.49076492, y: -0, z: 0.871292}
    - {x: 0.33374166, y: -0, z: 0.94266456}
    - {x: 0.16537327, y: -0, z: 0.986231}
    - {x: 0.018941268, y: -0, z: 0.9998206}
    - {x: -0.0837767, y: 0, z: 0.9964846}
    - {x: -0.16335371, y: 0, z: 0.98656756}
    - {x: -0.23768498, y: 0, z: 0.97134227}
    - {x: -0.30776927, y: 0, z: 0.951461}
    - {x: -0.3740418, y: 0, z: 0.92741185}
    - {x: -0.43530792, y: 0, z: 0.9002816}
    - {x: -0.4933807, y: 0, z: 0.86981344}
    - {x: -0.5456283, y: 0, z: 0.8380273}
    - {x: -0.5932931, y: 0, z: 0.80498654}
    - {x: -0.63870674, y: 0, z: 0.7694503}
    - {x: -0.67862153, y: 0, z: 0.7344882}
    - {x: -0.3844115, y: 0, z: 0.92316186}
    - {x: 0.03339393, y: -0, z: 0.9994423}
    - {x: 0.12921093, y: -0, z: 0.99161714}
    - {x: 0.21852288, y: -0, z: 0.9758318}
    - {x: 0.3067968, y: -0, z: 0.9517751}
    - {x: 0.39310744, y: -0, z: 0.91949254}
    - {x: 0.4788784, y: -0, z: 0.8778813}
    - {x: 0.56311744, y: -0, z: 0.8263769}
    - {x: 0.6446802, y: -0, z: 0.76445234}
    - {x: 0.7203423, y: -0, z: 0.69361883}
    - {x: 0.7882863, y: -0, z: 0.61530864}
    - {x: 0.84692526, y: -0, z: 0.531712}
    - {x: 0.029825829, y: -0, z: 0.99955505}
    - {x: -0.8067292, y: 0, z: 0.59092134}
    - {x: -0.7258089, y: 0, z: 0.6878963}
    - {x: -0.6251721, y: 0, z: 0.78048694}
    - {x: -0.49749663, y: 0, z: 0.8674659}
    - {x: -0.34106693, y: 0, z: 0.940039}
    - {x: -0.15928812, y: 0, z: 0.98723215}
    - {x: 0.037171353, y: -0, z: 0.99930894}
    - {x: 0.2280019, y: -0, z: 0.97366065}
    - {x: 0.39642859, y: -0, z: 0.9180656}
    - {x: 0.5349757, y: -0, z: 0.84486747}
    - {x: 0.64219695, y: -0, z: 0.7665397}
    - {x: 0.5684227, y: -0, z: 0.8227367}
    - {x: 0.33600488, y: -0, z: 0.94186026}
    - {x: 0.14019991, y: -0, z: 0.9901232}
    - {x: -0.039219, y: 0, z: 0.9992306}
    - {x: -0.2039449, y: 0, z: 0.9789824}
    - {x: -0.34715515, y: 0, z: 0.93780774}
    - {x: -0.46667236, y: 0, z: 0.8844303}
    - {x: -0.5668951, y: 0, z: 0.82379}
    - {x: -0.64937353, y: 0, z: 0.7604696}
    - {x: -0.71511453, y: 0, z: 0.69900733}
    - {x: -0.7681772, y: 0, z: 0.6402372}
    - {x: -0.8105916, y: 0, z: 0.58561194}
    - {x: -0.46937057, y: 0, z: 0.8830013}
    - {x: 0.21868874, y: -0, z: 0.9757947}
    - {x: 0.45844966, y: -0, z: 0.88872033}
    - {x: 0.50801337, y: -0, z: 0.86134917}
    - {x: 0.54566145, y: -0, z: 0.8380057}
    - {x: 0.58470064, y: -0, z: 0.81124914}
    - {x: 0.62485206, y: -0, z: 0.7807432}
    - {x: 0.66774464, y: -0, z: 0.7443904}
    - {x: 0.7130172, y: -0, z: 0.70114654}
    - {x: 0.76092863, y: -0, z: 0.64883554}
    - {x: 0.8098598, y: -0, z: 0.58662343}
    - {x: 0.8590199, y: -0, z: 0.51194227}
    - {x: 0.10982449, y: -0, z: 0.993951}
    - {x: -0.7342979, y: 0, z: 0.6788274}
    - {x: -0.68002975, y: 0, z: 0.7331846}
    - {x: -0.61640126, y: 0, z: 0.7874322}
    - {x: -0.53739625, y: 0, z: 0.8433299}
    - {x: -0.43542445, y: 0, z: 0.9002253}
    - {x: -0.30341798, y: 0, z: 0.95285755}
    - {x: -0.13362041, y: 0, z: 0.9910326}
    - {x: 0.07193007, y: -0, z: 0.99740964}
    - {x: 0.29487017, y: -0, z: 0.9555373}
    - {x: 0.50612104, y: -0, z: 0.86246246}
    - {x: 0.67744845, y: -0, z: 0.73557025}
    - {x: 0.051339105, y: -0, z: 0.9986813}
    normals:
    - {x: 0, y: 1, z: 0}
    - {x: 0, y: 1, z: 0}
    - {x: 0, y: 1, z: 0}
    - {x: 0, y: 1, z: 0}
    - {x: 0, y: 1, z: 0}
    - {x: 0, y: 1, z: 0}
    - {x: 0, y: 1, z: 0}
    - {x: 0, y: 1, z: 0}
    - {x: 0, y: 1, z: 0}
    - {x: 0, y: 1, z: 0}
    - {x: 0, y: 1, z: 0}
    - {x: 0, y: 1, z: 0}
    - {x: 0, y: 1, z: 0}
    - {x: 0, y: 1, z: 0}
    - {x: 0, y: 1, z: 0}
    - {x: 0, y: 1, z: 0}
    - {x: 0, y: 1, z: 0}
    - {x: 0, y: 1, z: 0}
    - {x: 0, y: 1, z: 0}
    - {x: 0, y: 1, z: 0}
    - {x: 0, y: 1, z: 0}
    - {x: 0, y: 1, z: 0}
    - {x: 0, y: 1, z: 0}
    - {x: 0, y: 1, z: 0}
    - {x: 0, y: 1, z: 0}
    - {x: 0, y: 1, z: 0}
    - {x: 0, y: 1, z: 0}
    - {x: 0, y: 1, z: 0}
    - {x: 0, y: 1, z: 0}
    - {x: 0, y: 1, z: 0}
    - {x: 0, y: 1, z: 0}
    - {x: 0, y: 1, z: 0}
    - {x: 0, y: 1, z: 0}
    - {x: 0, y: 1, z: 0}
    - {x: 0, y: 1, z: 0}
    - {x: 0, y: 1, z: 0}
    - {x: 0, y: 1, z: 0}
    - {x: 0, y: 1, z: 0}
    - {x: 0, y: 1, z: 0}
    - {x: 0, y: 1, z: 0}
    - {x: 0, y: 1, z: 0}
    - {x: 0, y: 1, z: 0}
    - {x: 0, y: 1, z: 0}
    - {x: 0, y: 1, z: 0}
    - {x: 0, y: 1, z: 0}
    - {x: 0, y: 1, z: 0}
    - {x: 0, y: 1, z: 0}
    - {x: 0, y: 1, z: 0}
    - {x: 0, y: 1, z: 0}
    - {x: 0, y: 1, z: 0}
    - {x: 0, y: 1, z: 0}
    - {x: 0, y: 1, z: 0}
    - {x: 0, y: 1, z: 0}
    - {x: 0, y: 1, z: 0}
    - {x: 0, y: 1, z: 0}
    - {x: 0, y: 1, z: 0}
    - {x: 0, y: 1, z: 0}
    - {x: 0, y: 1, z: 0}
    - {x: 0, y: 1, z: 0}
    - {x: 0, y: 1, z: 0}
    - {x: 0, y: 1, z: 0}
    - {x: 0, y: 1, z: 0}
    - {x: 0, y: 1, z: 0}
    - {x: 0, y: 1, z: 0}
    - {x: 0, y: 1, z: 0}
    - {x: 0, y: 1, z: 0}
    - {x: 0, y: 1, z: 0}
    - {x: 0, y: 1, z: 0}
    - {x: 0, y: 1, z: 0}
    - {x: 0, y: 1, z: 0}
    - {x: 0, y: 1, z: 0}
    - {x: 0, y: 1, z: 0}
    - {x: 0, y: 1, z: 0}
    - {x: 0, y: 1, z: 0}
    - {x: 0, y: 1, z: 0}
    - {x: 0, y: 1, z: 0}
    - {x: 0, y: 1, z: 0}
    - {x: 0, y: 1, z: 0}
    - {x: 0, y: 1, z: 0}
    - {x: 0, y: 1, z: 0}
    - {x: 0, y: 1, z: 0}
    - {x: 0, y: 1, z: 0}
    - {x: 0, y: 1, z: 0}
    - {x: 0, y: 1, z: 0}
    - {x: 0, y: 1, z: 0}
    - {x: 0, y: 1, z: 0}
    - {x: 0, y: 1, z: 0}
    - {x: 0, y: 1, z: 0}
    - {x: 0, y: 1, z: 0}
    - {x: 0, y: 1, z: 0}
    - {x: 0, y: 1, z: 0}
    - {x: 0, y: 1, z: 0}
    - {x: 0, y: 1, z: 0}
    - {x: 0, y: 1, z: 0}
    - {x: 0, y: 1, z: 0}
    - {x: 0, y: 1, z: 0}
    - {x: 0, y: 1, z: 0}
    - {x: 0, y: 1, z: 0}
    - {x: 0, y: 1, z: 0}
    - {x: 0, y: 1, z: 0}
    - {x: 0, y: 1, z: 0}
    - {x: 0, y: 1, z: 0}
    - {x: 0, y: 1, z: 0}
    - {x: 0, y: 1, z: 0}
    - {x: 0, y: 1, z: 0}
    - {x: 0, y: 1, z: 0}
    - {x: 0, y: 1, z: 0}
    - {x: 0, y: 1, z: 0}
    - {x: 0, y: 1, z: 0}
    - {x: 0, y: 1, z: 0}
    - {x: 0, y: 1, z: 0}
    - {x: 0, y: 1, z: 0}
    - {x: 0, y: 1, z: 0}
    - {x: 0, y: 1, z: 0}
    - {x: 0, y: 1, z: 0}
    - {x: 0, y: 1, z: 0}
    - {x: 0, y: 1, z: 0}
    - {x: 0, y: 1, z: 0}
    - {x: 0, y: 1, z: 0}
    - {x: 0, y: 1, z: 0}
    - {x: 0, y: 1, z: 0}
    - {x: 0, y: 1, z: 0}
    - {x: 0, y: 1, z: 0}
    - {x: 0, y: 1, z: 0}
    - {x: 0, y: 1, z: 0}
    - {x: 0, y: 1, z: 0}
    - {x: 0, y: 1, z: 0}
    - {x: 0, y: 1, z: 0}
    - {x: 0, y: 1, z: 0}
    - {x: 0, y: 1, z: 0}
    - {x: 0, y: 1, z: 0}
    - {x: 0, y: 1, z: 0}
    - {x: 0, y: 1, z: 0}
    - {x: 0, y: 1, z: 0}
    - {x: 0, y: 1, z: 0}
    - {x: 0, y: 1, z: 0}
    - {x: 0, y: 1, z: 0}
    - {x: 0, y: 1, z: 0}
    - {x: 0, y: 1, z: 0}
    - {x: 0, y: 1, z: 0}
    - {x: 0, y: 1, z: 0}
    - {x: 0, y: 1, z: 0}
    - {x: 0, y: 1, z: 0}
    - {x: 0, y: 1, z: 0}
    - {x: 0, y: 1, z: 0}
    - {x: 0, y: 1, z: 0}
    - {x: 0, y: 1, z: 0}
    - {x: 0, y: 1, z: 0}
    - {x: 0, y: 1, z: 0}
    - {x: 0, y: 1, z: 0}
    - {x: 0, y: 1, z: 0}
    - {x: 0, y: 1, z: 0}
    - {x: 0, y: 1, z: 0}
    - {x: 0, y: 1, z: 0}
    - {x: 0, y: 1, z: 0}
    - {x: 0, y: 1, z: 0}
    - {x: 0, y: 1, z: 0}
    - {x: 0, y: 1, z: 0}
    - {x: 0, y: 1, z: 0}
    - {x: 0, y: 1, z: 0}
    - {x: 0, y: 1, z: 0}
    - {x: 0, y: 1, z: 0}
    - {x: 0, y: 1, z: 0}
    - {x: 0, y: 1, z: 0}
    - {x: 0, y: 1, z: 0}
    - {x: 0, y: 1, z: 0}
    - {x: 0, y: 1, z: 0}
    - {x: 0, y: 1, z: 0}
    - {x: 0, y: 1, z: 0}
    - {x: 0, y: 1, z: 0}
    - {x: 0, y: 1, z: 0}
    - {x: 0, y: 1, z: 0}
    - {x: 0, y: 1, z: 0}
    - {x: 0, y: 1, z: 0}
    - {x: 0, y: 1, z: 0}
    - {x: 0, y: 1, z: 0}
    - {x: 0, y: 1, z: 0}
    - {x: 0, y: 1, z: 0}
    - {x: 0, y: 1, z: 0}
    - {x: 0, y: 1, z: 0}
    - {x: 0, y: 1, z: 0}
    - {x: 0, y: 1, z: 0}
    - {x: 0, y: 1, z: 0}
    - {x: 0, y: 1, z: 0}
    - {x: 0, y: 1, z: 0}
    - {x: 0, y: 1, z: 0}
    - {x: 0, y: 1, z: 0}
    - {x: 0, y: 1, z: 0}
    - {x: 0, y: 1, z: 0}
    - {x: 0, y: 1, z: 0}
    - {x: 0, y: 1, z: 0}
    - {x: 0, y: 1, z: 0}
    - {x: 0, y: 1, z: 0}
    - {x: 0, y: 1, z: 0}
    - {x: 0, y: 1, z: 0}
    - {x: 0, y: 1, z: 0}
    - {x: 0, y: 1, z: 0}
    - {x: 0, y: 1, z: 0}
    - {x: 0, y: 1, z: 0}
    - {x: 0, y: 1, z: 0}
    - {x: 0, y: 1, z: 0}
    - {x: 0, y: 1, z: 0}
    - {x: 0, y: 1, z: 0}
    - {x: 0, y: 1, z: 0}
    - {x: 0, y: 1, z: 0}
    - {x: 0, y: 1, z: 0}
    - {x: 0, y: 1, z: 0}
    - {x: 0, y: 1, z: 0}
    - {x: 0, y: 1, z: 0}
    - {x: 0, y: 1, z: 0}
    - {x: 0, y: 1, z: 0}
    - {x: 0, y: 1, z: 0}
    - {x: 0, y: 1, z: 0}
    - {x: 0, y: 1, z: 0}
    - {x: 0, y: 1, z: 0}
    - {x: 0, y: 1, z: 0}
    - {x: 0, y: 1, z: 0}
    - {x: 0, y: 1, z: 0}
    - {x: 0, y: 1, z: 0}
    - {x: 0, y: 1, z: 0}
    - {x: 0, y: 1, z: 0}
    - {x: 0, y: 1, z: 0}
    - {x: 0, y: 1, z: 0}
    - {x: 0, y: 1, z: 0}
    - {x: 0, y: 1, z: 0}
    - {x: 0, y: 1, z: 0}
    - {x: 0, y: 1, z: 0}
    - {x: 0, y: 1, z: 0}
    - {x: 0, y: 1, z: 0}
    - {x: 0, y: 1, z: 0}
    - {x: 0, y: 1, z: 0}
    - {x: 0, y: 1, z: 0}
    - {x: 0, y: 1, z: 0}
    - {x: 0, y: 1, z: 0}
    - {x: 0, y: 1, z: 0}
    - {x: 0, y: 1, z: 0}
    - {x: 0, y: 1, z: 0}
    - {x: 0, y: 1, z: 0}
    - {x: 0, y: 1, z: 0}
    - {x: 0, y: 1, z: 0}
    - {x: 0, y: 1, z: 0}
    - {x: 0, y: 1, z: 0}
    - {x: 0, y: 1, z: 0}
    - {x: 0, y: 1, z: 0}
    - {x: 0, y: 1, z: 0}
    - {x: 0, y: 1, z: 0}
    - {x: 0, y: 1, z: 0}
    - {x: 0, y: 1, z: 0}
    - {x: 0, y: 1, z: 0}
    - {x: 0, y: 1, z: 0}
    - {x: 0, y: 1, z: 0}
    - {x: 0, y: 1, z: 0}
    - {x: 0, y: 1, z: 0}
    - {x: 0, y: 1, z: 0}
    - {x: 0, y: 1, z: 0}
    - {x: 0, y: 1, z: 0}
    - {x: 0, y: 1, z: 0}
    - {x: 0, y: 1, z: 0}
    - {x: 0, y: 1, z: 0}
    - {x: 0, y: 1, z: 0}
    - {x: 0, y: 1, z: 0}
    - {x: 0, y: 1, z: 0}
    - {x: 0, y: 1, z: 0}
    - {x: 0, y: 1, z: 0}
    - {x: 0, y: 1, z: 0}
    - {x: 0, y: 1, z: 0}
    - {x: 0, y: 1, z: 0}
    - {x: 0, y: 1, z: 0}
    - {x: 0, y: 1, z: 0}
    - {x: 0, y: 1, z: 0}
    - {x: 0, y: 1, z: 0}
    - {x: 0, y: 1, z: 0}
    - {x: 0, y: 1, z: 0}
    - {x: 0, y: 1, z: 0}
    - {x: 0, y: 1, z: 0}
    - {x: 0, y: 1, z: 0}
    - {x: 0, y: 1, z: 0}
    - {x: 0, y: 1, z: 0}
    - {x: 0, y: 1, z: 0}
    - {x: 0, y: 1, z: 0}
    - {x: 0, y: 1, z: 0}
    - {x: 0, y: 1, z: 0}
    - {x: 0, y: 1, z: 0}
    - {x: 0, y: 1, z: 0}
    - {x: 0, y: 1, z: 0}
    - {x: 0, y: 1, z: 0}
    - {x: 0, y: 1, z: 0}
    - {x: 0, y: 1, z: 0}
    - {x: 0, y: 1, z: 0}
    - {x: 0, y: 1, z: 0}
    - {x: 0, y: 1, z: 0}
    - {x: 0, y: 1, z: 0}
    - {x: 0, y: 1, z: 0}
    - {x: 0, y: 1, z: 0}
    - {x: 0, y: 1, z: 0}
    - {x: 0, y: 1, z: 0}
    - {x: 0, y: 1, z: 0}
    - {x: 0, y: 1, z: 0}
    - {x: 0, y: 1, z: 0}
    - {x: 0, y: 1, z: 0}
    - {x: 0, y: 1, z: 0}
    - {x: 0, y: 1, z: 0}
    - {x: 0, y: 1, z: 0}
    - {x: 0, y: 1, z: 0}
    - {x: 0, y: 1, z: 0}
    - {x: 0, y: 1, z: 0}
    - {x: 0, y: 1, z: 0}
    - {x: 0, y: 1, z: 0}
    - {x: 0, y: 1, z: 0}
    - {x: 0, y: 1, z: 0}
    - {x: 0, y: 1, z: 0}
    - {x: 0, y: 1, z: 0}
    - {x: 0, y: 1, z: 0}
    timeTable:
    - Index: 0
      Value: 0
    - Index: 1
      Value: 0.003830716
    - Index: 2
      Value: 0.008039648
    - Index: 3
      Value: 0.01250866
    - Index: 4
      Value: 0.017127978
    - Index: 5
      Value: 0.021816418
    - Index: 6
      Value: 0.026540656
    - Index: 7
      Value: 0.031299915
    - Index: 8
      Value: 0.03618623
    - Index: 9
      Value: 0.041353438
    - Index: 10
      Value: 0.047039483
    - Index: 11
      Value: 0.053509455
    - Index: 12
      Value: 0.061039016
    - Index: 13
      Value: 0.06214485
    - Index: 14
      Value: 0.06342627
    - Index: 15
      Value: 0.06485917
    - Index: 16
      Value: 0.066435635
    - Index: 17
      Value: 0.06816488
    - Index: 18
      Value: 0.07004511
    - Index: 19
      Value: 0.072102
    - Index: 20
      Value: 0.07435325
    - Index: 21
      Value: 0.07683636
    - Index: 22
      Value: 0.079598114
    - Index: 23
      Value: 0.08267029
    - Index: 24
      Value: 0.08612406
    - Index: 25
      Value: 0.087481275
    - Index: 26
      Value: 0.089041926
    - Index: 27
      Value: 0.09076823
    - Index: 28
      Value: 0.09262066
    - Index: 29
      Value: 0.0945682
    - Index: 30
      Value: 0.0965987
    - Index: 31
      Value: 0.09868551
    - Index: 32
      Value: 0.100819916
    - Index: 33
      Value: 0.103010945
    - Index: 34
      Value: 0.105270475
    - Index: 35
      Value: 0.1076482
    - Index: 36
      Value: 0.11017809
    - Index: 37
      Value: 0.11242211
    - Index: 38
      Value: 0.11496342
    - Index: 39
      Value: 0.11772109
    - Index: 40
      Value: 0.12063246
    - Index: 41
      Value: 0.123618856
    - Index: 42
      Value: 0.12661701
    - Index: 43
      Value: 0.12956882
    - Index: 44
      Value: 0.13241382
    - Index: 45
      Value: 0.13512023
    - Index: 46
      Value: 0.13766737
    - Index: 47
      Value: 0.14007057
    - Index: 48
      Value: 0.14240097
    - Index: 49
      Value: 0.14473632
    - Index: 50
      Value: 0.14715146
    - Index: 51
      Value: 0.14971387
    - Index: 52
      Value: 0.15243596
    - Index: 53
      Value: 0.15529212
    - Index: 54
      Value: 0.15825243
    - Index: 55
      Value: 0.16125499
    - Index: 56
      Value: 0.16424327
    - Index: 57
      Value: 0.16715425
    - Index: 58
      Value: 0.16991013
    - Index: 59
      Value: 0.17244948
    - Index: 60
      Value: 0.17469153
    - Index: 61
      Value: 0.17722143
    - Index: 62
      Value: 0.17959915
    - Index: 63
      Value: 0.18186477
    - Index: 64
      Value: 0.18404984
    - Index: 65
      Value: 0.18619
    - Index: 66
      Value: 0.18827136
    - Index: 67
      Value: 0.19030185
    - Index: 68
      Value: 0.19224939
    - Index: 69
      Value: 0.19410183
    - Index: 70
      Value: 0.19582814
    - Index: 71
      Value: 0.1973888
    - Index: 72
      Value: 0.198746
    - Index: 73
      Value: 0.20219977
    - Index: 74
      Value: 0.20527194
    - Index: 75
      Value: 0.2080337
    - Index: 76
      Value: 0.2105168
    - Index: 77
      Value: 0.21276803
    - Index: 78
      Value: 0.21482493
    - Index: 79
      Value: 0.21670514
    - Index: 80
      Value: 0.21843259
    - Index: 81
      Value: 0.22001009
    - Index: 82
      Value: 0.22144298
    - Index: 83
      Value: 0.22272441
    - Index: 84
      Value: 0.22383024
    - Index: 85
      Value: 0.23135981
    - Index: 86
      Value: 0.23782977
    - Index: 87
      Value: 0.2435158
    - Index: 88
      Value: 0.24868302
    - Index: 89
      Value: 0.25356933
    - Index: 90
      Value: 0.25832847
    - Index: 91
      Value: 0.2630539
    - Index: 92
      Value: 0.26774234
    - Index: 93
      Value: 0.27236167
    - Index: 94
      Value: 0.27683067
    - Index: 95
      Value: 0.2810396
    - Index: 96
      Value: 0.28487033
    - Index: 97
      Value: 0.29202205
    - Index: 98
      Value: 0.29818034
    - Index: 99
      Value: 0.3036781
    - Index: 100
      Value: 0.3088203
    - Index: 101
      Value: 0.31383857
    - Index: 102
      Value: 0.31887615
    - Index: 103
      Value: 0.32397288
    - Index: 104
      Value: 0.3291158
    - Index: 105
      Value: 0.3342102
    - Index: 106
      Value: 0.33915454
    - Index: 107
      Value: 0.34382477
    - Index: 108
      Value: 0.34806207
    - Index: 109
      Value: 0.35090178
    - Index: 110
      Value: 0.35372585
    - Index: 111
      Value: 0.35651666
    - Index: 112
      Value: 0.3592692
    - Index: 113
      Value: 0.36196402
    - Index: 114
      Value: 0.36458483
    - Index: 115
      Value: 0.36709097
    - Index: 116
      Value: 0.36946234
    - Index: 117
      Value: 0.37167028
    - Index: 118
      Value: 0.37366906
    - Index: 119
      Value: 0.37692434
    - Index: 120
      Value: 0.3939009
    - Index: 121
      Value: 0.39962372
    - Index: 122
      Value: 0.40464145
    - Index: 123
      Value: 0.40901977
    - Index: 124
      Value: 0.41283125
    - Index: 125
      Value: 0.41611812
    - Index: 126
      Value: 0.4189531
    - Index: 127
      Value: 0.42138904
    - Index: 128
      Value: 0.42347905
    - Index: 129
      Value: 0.42527908
    - Index: 130
      Value: 0.42682192
    - Index: 131
      Value: 0.42814207
    - Index: 132
      Value: 0.42927718
    - Index: 133
      Value: 0.4382925
    - Index: 134
      Value: 0.44599205
    - Index: 135
      Value: 0.45259675
    - Index: 136
      Value: 0.4583327
    - Index: 137
      Value: 0.46340606
    - Index: 138
      Value: 0.46802607
    - Index: 139
      Value: 0.4723455
    - Index: 140
      Value: 0.47646567
    - Index: 141
      Value: 0.48042318
    - Index: 142
      Value: 0.48420548
    - Index: 143
      Value: 0.48776662
    - Index: 144
      Value: 0.4910288
    - Index: 145
      Value: 0.49469492
    - Index: 146
      Value: 0.49807617
    - Index: 147
      Value: 0.5012104
    - Index: 148
      Value: 0.5041265
    - Index: 149
      Value: 0.50685036
    - Index: 150
      Value: 0.5093864
    - Index: 151
      Value: 0.5117441
    - Index: 152
      Value: 0.51393074
    - Index: 153
      Value: 0.5159276
    - Index: 154
      Value: 0.5177294
    - Index: 155
      Value: 0.5193124
    - Index: 156
      Value: 0.5206518
    - Index: 157
      Value: 0.5248251
    - Index: 158
      Value: 0.5287124
    - Index: 159
      Value: 0.5323447
    - Index: 160
      Value: 0.53572893
    - Index: 161
      Value: 0.5388796
    - Index: 162
      Value: 0.5418176
    - Index: 163
      Value: 0.5445472
    - Index: 164
      Value: 0.5470854
    - Index: 165
      Value: 0.54943746
    - Index: 166
      Value: 0.5516167
    - Index: 167
      Value: 0.55363214
    - Index: 168
      Value: 0.5554807
    - Index: 169
      Value: 0.5577803
    - Index: 170
      Value: 0.55996966
    - Index: 171
      Value: 0.56213427
    - Index: 172
      Value: 0.56430066
    - Index: 173
      Value: 0.5664758
    - Index: 174
      Value: 0.5686524
    - Index: 175
      Value: 0.57078785
    - Index: 176
      Value: 0.57285196
    - Index: 177
      Value: 0.57478845
    - Index: 178
      Value: 0.5765398
    - Index: 179
      Value: 0.57805085
    - Index: 180
      Value: 0.57926935
    - Index: 181
      Value: 0.58146477
    - Index: 182
      Value: 0.58442175
    - Index: 183
      Value: 0.58720917
    - Index: 184
      Value: 0.5898376
    - Index: 185
      Value: 0.5923191
    - Index: 186
      Value: 0.5946431
    - Index: 187
      Value: 0.5968153
    - Index: 188
      Value: 0.5988243
    - Index: 189
      Value: 0.60066915
    - Index: 190
      Value: 0.6023357
    - Index: 191
      Value: 0.60380965
    - Index: 192
      Value: 0.6061208
    - Index: 193
      Value: 0.60790366
    - Index: 194
      Value: 0.6100151
    - Index: 195
      Value: 0.6124092
    - Index: 196
      Value: 0.61505425
    - Index: 197
      Value: 0.61790437
    - Index: 198
      Value: 0.6209485
    - Index: 199
      Value: 0.6241488
    - Index: 200
      Value: 0.6274891
    - Index: 201
      Value: 0.6309624
    - Index: 202
      Value: 0.63456565
    - Index: 203
      Value: 0.638309
    - Index: 204
      Value: 0.64220697
    - Index: 205
      Value: 0.6443834
    - Index: 206
      Value: 0.646887
    - Index: 207
      Value: 0.64966214
    - Index: 208
      Value: 0.65264636
    - Index: 209
      Value: 0.6557808
    - Index: 210
      Value: 0.6590085
    - Index: 211
      Value: 0.66228056
    - Index: 212
      Value: 0.6655682
    - Index: 213
      Value: 0.6688408
    - Index: 214
      Value: 0.6720869
    - Index: 215
      Value: 0.67531556
    - Index: 216
      Value: 0.6785759
    - Index: 217
      Value: 0.68088704
    - Index: 218
      Value: 0.682361
    - Index: 219
      Value: 0.6840276
    - Index: 220
      Value: 0.6858724
    - Index: 221
      Value: 0.68788147
    - Index: 222
      Value: 0.6900536
    - Index: 223
      Value: 0.6923776
    - Index: 224
      Value: 0.694853
    - Index: 225
      Value: 0.6974875
    - Index: 226
      Value: 0.70027494
    - Index: 227
      Value: 0.70322603
    - Index: 228
      Value: 0.7054215
    - Index: 229
      Value: 0.70730186
    - Index: 230
      Value: 0.7092474
    - Index: 231
      Value: 0.71123964
    - Index: 232
      Value: 0.71324736
    - Index: 233
      Value: 0.7152491
    - Index: 234
      Value: 0.71723026
    - Index: 235
      Value: 0.71918315
    - Index: 236
      Value: 0.721122
    - Index: 237
      Value: 0.72305906
    - Index: 238
      Value: 0.72504306
    - Index: 239
      Value: 0.727133
    - Index: 240
      Value: 0.7294031
    - Index: 241
      Value: 0.73125166
    - Index: 242
      Value: 0.7332671
    - Index: 243
      Value: 0.73544633
    - Index: 244
      Value: 0.73779845
    - Index: 245
      Value: 0.74033666
    - Index: 246
      Value: 0.74306625
    - Index: 247
      Value: 0.74600136
    - Index: 248
      Value: 0.7491552
    - Index: 249
      Value: 0.7525396
    - Index: 250
      Value: 0.75616807
    - Index: 251
      Value: 0.76005936
    - Index: 252
      Value: 0.76422846
    - Index: 253
      Value: 0.76556796
    - Index: 254
      Value: 0.7671515
    - Index: 255
      Value: 0.7689522
    - Index: 256
      Value: 0.77094907
    - Index: 257
      Value: 0.7731357
    - Index: 258
      Value: 0.77549344
    - Index: 259
      Value: 0.77802944
    - Index: 260
      Value: 0.7807533
    - Index: 261
      Value: 0.7836695
    - Index: 262
      Value: 0.78680366
    - Index: 263
      Value: 0.7901849
    - Index: 264
      Value: 0.7938511
    - Index: 265
      Value: 0.79711324
    - Index: 266
      Value: 0.80066967
    - Index: 267
      Value: 0.80445606
    - Index: 268
      Value: 0.8084136
    - Index: 269
      Value: 0.81253374
    - Index: 270
      Value: 0.8168532
    - Index: 271
      Value: 0.82147324
    - Index: 272
      Value: 0.82654744
    - Index: 273
      Value: 0.8322815
    - Index: 274
      Value: 0.8388862
    - Index: 275
      Value: 0.84658575
    - Index: 276
      Value: 0.855601
    - Index: 277
      Value: 0.85673606
    - Index: 278
      Value: 0.8580562
    - Index: 279
      Value: 0.859599
    - Index: 280
      Value: 0.861399
    - Index: 281
      Value: 0.86348903
    - Index: 282
      Value: 0.8659251
    - Index: 283
      Value: 0.86876
    - Index: 284
      Value: 0.87204677
    - Index: 285
      Value: 0.8758583
    - Index: 286
      Value: 0.88023204
    - Index: 287
      Value: 0.8852546
    - Index: 288
      Value: 0.8909724
    - Index: 289
      Value: 0.907949
    - Index: 290
      Value: 0.9112017
    - Index: 291
      Value: 0.9132005
    - Index: 292
      Value: 0.91540843
    - Index: 293
      Value: 0.9177798
    - Index: 294
      Value: 0.9202897
    - Index: 295
      Value: 0.9229066
    - Index: 296
      Value: 0.9256014
    - Index: 297
      Value: 0.928354
    - Index: 298
      Value: 0.9311496
    - Index: 299
      Value: 0.9339686
    - Index: 300
      Value: 0.93680835
    - Index: 301
      Value: 0.94104564
    - Index: 302
      Value: 0.94571584
    - Index: 303
      Value: 0.95066017
    - Index: 304
      Value: 0.9557546
    - Index: 305
      Value: 0.9608975
    - Index: 306
      Value: 0.96599424
    - Index: 307
      Value: 0.9710318
    - Index: 308
      Value: 0.9760501
    - Index: 309
      Value: 0.9811923
    - Index: 310
      Value: 0.98669
    - Index: 311
      Value: 0.9928483
    - Index: 312
      Value: 1
    vertexPathDistance: 0.61319786
  meshThickness: 0.0035
  uvArea: 0.99999833
  uvSize: {x: 0, y: 0, z: 1, w: 1}
