%YAML 1.1
%TAG !u! tag:unity3d.com,2011:
--- !u!114 &11400000
MonoBehaviour:
  m_ObjectHideFlags: 0
  m_CorrespondingSourceObject: {fileID: 0}
  m_PrefabInstance: {fileID: 0}
  m_PrefabAsset: {fileID: 0}
  m_GameObject: {fileID: 0}
  m_Enabled: 1
  m_EditorHideFlags: 0
  m_Script: {fileID: 11500000, guid: 6bff880bde3de7743a01603c3cf96142, type: 3}
  m_Name: VertexSubPathConfig2
  m_EditorClassIdentifier: 
  vertexPathData:
    vertex:
    - {x: 0.07868625, y: 0.014999996, z: 0.013573111}
    - {x: 0.07737, y: 0.014999998, z: 0.010010601}
    - {x: 0.07551375, y: 0.014999999, z: 0.0065118675}
    - {x: 0.073256254, y: 0.014999999, z: 0.003193141}
    - {x: 0.07072501, y: 0.015, z: 0.0001556286}
    - {x: 0.068051256, y: 0.015, z: -0.0024881354}
    - {x: 0.06537001, y: 0.015000001, z: -0.004633128}
    - {x: 0.06281251, y: 0.015000001, z: -0.006174385}
    - {x: 0.060510002, y: 0.015000001, z: -0.006999373}
    - {x: 0.058590002, y: 0.015000001, z: -0.007003128}
    - {x: 0.057191253, y: 0.015000001, z: -0.006076872}
    - {x: 0.056445003, y: 0.015, z: -0.0041156407}
    - {x: 0.056478754, y: 0.015, z: -0.0010106554}
    - {x: 0.0569325, y: 0.015, z: 0.0012243399}
    - {x: 0.05770875, y: 0.014999999, z: 0.003369392}
    - {x: 0.05878125, y: 0.014999999, z: 0.00539434}
    - {x: 0.060138755, y: 0.014999999, z: 0.007265628}
    - {x: 0.06175125, y: 0.014999998, z: 0.008960606}
    - {x: 0.06360751, y: 0.014999998, z: 0.010453106}
    - {x: 0.065685004, y: 0.014999997, z: 0.011716903}
    - {x: 0.06796125, y: 0.014999997, z: 0.012714387}
    - {x: 0.070421256, y: 0.014999996, z: 0.013430656}
    - {x: 0.073042504, y: 0.014999996, z: 0.0138281}
    - {x: 0.075802505, y: 0.014999996, z: 0.013888122}
    - {x: 0.07868625, y: 0.014999996, z: 0.013573111}
    tangents:
    - {x: 0.5261252, y: 0.00000039849974, z: -0.8504072}
    - {x: -0.40853804, y: 0.0000003636068, z: -0.9127413}
    - {x: -0.5163306, y: 0.000000117748286, z: -0.85638934}
    - {x: -0.6020248, y: 0.00000011791111, z: -0.7984774}
    - {x: -0.67641675, y: 0.000000117907966, z: -0.7365191}
    - {x: -0.74700606, y: 0.0000001358034, z: -0.6648173}
    - {x: -0.820478, y: 0.00000013591385, z: -0.57167804}
    - {x: -0.90338194, y: 0, z: -0.4288368}
    - {x: -0.98507226, y: 0, z: -0.17214116}
    - {x: -0.957821, y: 0, z: 0.28736544}
    - {x: -0.6246923, y: -0.00000023310508, z: 0.780871}
    - {x: -0.17544477, y: -0.00000022585873, z: 0.98448926}
    - {x: 0.105387375, y: 0, z: 0.99443126}
    - {x: 0.2703512, y: -0.00000020468322, z: 0.96276176}
    - {x: 0.40515572, y: -0.00000020463133, z: 0.91424775}
    - {x: 0.5289286, y: 0, z: 0.84866637}
    - {x: 0.6396403, y: -0.00000019948621, z: 0.76867443}
    - {x: 0.7359249, y: -0.00000019948797, z: 0.6770632}
    - {x: 0.8185817, y: -0.00000019190547, z: 0.5743902}
    - {x: 0.8871036, y: -0.00000019192343, z: 0.4615703}
    - {x: 0.9399983, y: -0.00000018212843, z: 0.34117913}
    - {x: 0.97656816, y: -0.00000018214745, z: 0.2152083}
    - {x: 0.99629474, y: 0, z: 0.08600427}
    - {x: 0.9990527, y: 0, z: -0.043517005}
    - {x: 0.5261252, y: 0.00000039849974, z: -0.8504072}
    bitangents:
    - {x: 0.8504072, y: -0, z: 0.5261252}
    - {x: 0.9127413, y: 0, z: -0.40853804}
    - {x: 0.85638934, y: 0, z: -0.5163306}
    - {x: 0.7984774, y: 0, z: -0.6020248}
    - {x: 0.7365191, y: 0, z: -0.67641675}
    - {x: 0.6648173, y: 0, z: -0.74700606}
    - {x: 0.57167804, y: 0, z: -0.820478}
    - {x: 0.4288368, y: 0, z: -0.90338194}
    - {x: 0.17214116, y: 0, z: -0.98507226}
    - {x: -0.28736544, y: 0, z: -0.957821}
    - {x: -0.780871, y: 0, z: -0.6246923}
    - {x: -0.98448926, y: 0, z: -0.17544477}
    - {x: -0.99443126, y: 0, z: 0.105387375}
    - {x: -0.96276176, y: 0, z: 0.2703512}
    - {x: -0.91424775, y: 0, z: 0.40515572}
    - {x: -0.84866637, y: 0, z: 0.5289286}
    - {x: -0.76867443, y: 0, z: 0.6396403}
    - {x: -0.6770632, y: 0, z: 0.7359249}
    - {x: -0.5743902, y: 0, z: 0.8185817}
    - {x: -0.4615703, y: 0, z: 0.8871036}
    - {x: -0.34117913, y: 0, z: 0.9399983}
    - {x: -0.2152083, y: 0, z: 0.97656816}
    - {x: -0.08600427, y: 0, z: 0.99629474}
    - {x: 0.043517005, y: -0, z: 0.9990527}
    - {x: 0.8504072, y: -0, z: 0.5261252}
    normals:
    - {x: 0, y: 1, z: 0}
    - {x: 0, y: 1, z: 0}
    - {x: 0, y: 1, z: 0}
    - {x: 0, y: 1, z: 0}
    - {x: 0, y: 1, z: 0}
    - {x: 0, y: 1, z: 0}
    - {x: 0, y: 1, z: 0}
    - {x: 0, y: 1, z: 0}
    - {x: 0, y: 1, z: 0}
    - {x: 0, y: 1, z: 0}
    - {x: 0, y: 1, z: 0}
    - {x: 0, y: 1, z: 0}
    - {x: 0, y: 1, z: 0}
    - {x: 0, y: 1, z: 0}
    - {x: 0, y: 1, z: 0}
    - {x: 0, y: 1, z: 0}
    - {x: 0, y: 1, z: 0}
    - {x: 0, y: 1, z: 0}
    - {x: 0, y: 1, z: 0}
    - {x: 0, y: 1, z: 0}
    - {x: 0, y: 1, z: 0}
    - {x: 0, y: 1, z: 0}
    - {x: 0, y: 1, z: 0}
    - {x: 0, y: 1, z: 0}
    - {x: 0, y: 1, z: 0}
    timeTable:
    - Index: 0
      Value: 0
    - Index: 1
      Value: 0.05682807
    - Index: 2
      Value: 0.1160916
    - Index: 3
      Value: 0.17614964
    - Index: 4
      Value: 0.23531273
    - Index: 5
      Value: 0.2915755
    - Index: 6
      Value: 0.34295365
    - Index: 7
      Value: 0.38763356
    - Index: 8
      Value: 0.42423078
    - Index: 9
      Value: 0.4529599
    - Index: 10
      Value: 0.4780624
    - Index: 11
      Value: 0.509461
    - Index: 12
      Value: 0.55592376
    - Index: 13
      Value: 0.5900483
    - Index: 14
      Value: 0.62418187
    - Index: 15
      Value: 0.65846866
    - Index: 16
      Value: 0.69306064
    - Index: 17
      Value: 0.72806615
    - Index: 18
      Value: 0.763706
    - Index: 19
      Value: 0.8000917
    - Index: 20
      Value: 0.83727807
    - Index: 21
      Value: 0.8756158
    - Index: 22
      Value: 0.91528594
    - Index: 23
      Value: 0.9565937
    - Index: 24
      Value: 1
    vertexPathDistance: 0.06683128
  meshThickness: 0.0035
  uvArea: 0.17500004
  uvSize: {x: 0.4125, y: 0, z: 0.17500004, w: 1}
