%YAML 1.1
%TAG !u! tag:unity3d.com,2011:
--- !u!114 &11400000
MonoBehaviour:
  m_ObjectHideFlags: 0
  m_CorrespondingSourceObject: {fileID: 0}
  m_PrefabInstance: {fileID: 0}
  m_PrefabAsset: {fileID: 0}
  m_GameObject: {fileID: 0}
  m_Enabled: 1
  m_EditorHideFlags: 0
  m_Script: {fileID: 11500000, guid: fb5eabf1a0dd445d9fe7a7f1cb629ab2, type: 3}
  m_Name: VoiceConfig
  m_EditorClassIdentifier: 
  StateEnterClipsTerms:
  - pottery/voice/walls_polishing/enter
  StateInClipsTerms: []
  StateExitClipsTerms:
  - pottery/voice/walls_polishing/exit
  WrongClipsTerms: []
  GrandDadPrefab: {fileID: 4761596155152581344, guid: 98edeb202af9c8d41ac2190b4c191536, type: 3}
  StateEnterClips:
  - {fileID: 8300000, guid: 29ba08d2133859a4abffaa8aa08fa20e, type: 3}
  StateInClips: []
  StateExitClips:
  - {fileID: 8300000, guid: 375cf97474cc5d64bb3ab73b9f012d9d, type: 3}
  WrongClips: []
