{
    "name": "PWS.Pottery.Stages.ClayToWheelPlacingStage",
    "rootNamespace": "PWS.Pottery.Stages.ClayToWheelPlacingStage",
    "references": [
        "Leopotam.Ecs",
        "Unity.XR.Interaction.Toolkit",
        "Modules.StateGroup",
        "Modules.ViewHub",
        "Modules.Root.ContainerComponentModel",
        "Modules.Root.ECS",
        "Modules.Audio",
        "PWS.Common.UI",
        "PWS.Pottery.Common",
        "PWS.Common.Audio",
        "PWS.Pottery.Stages.ClayPreparationStage",
        "Modules.VRFeatures",
        "PWS.Common.TravelPoints"
    ],
    "includePlatforms": [],
    "excludePlatforms": [],
    "allowUnsafeCode": false,
    "overrideReferences": false,
    "precompiledReferences": [],
    "autoReferenced": true,
    "defineConstraints": [],
    "versionDefines": [],
    "noEngineReferences": false
}