%YAML 1.1
%TAG !u! tag:unity3d.com,2011:
--- !u!114 &11400000
MonoBehaviour:
  m_ObjectHideFlags: 0
  m_CorrespondingSourceObject: {fileID: 0}
  m_PrefabInstance: {fileID: 0}
  m_PrefabAsset: {fileID: 0}
  m_GameObject: {fileID: 0}
  m_Enabled: 1
  m_EditorHideFlags: 0
  m_Script: {fileID: 11500000, guid: 4f99f67bc9f9fde419ea7e38ccc7ff19, type: 3}
  m_Name: PotteryOnly
  m_EditorClassIdentifier: 
  ConfigurationEnabled: 1
  FeaturesToggleData:
  - Enabled: 1
    FeatureKey: pws.pottery.sceneloader
    Description: Loads only Pottery scene
  - Enabled: 1
    FeatureKey: ReinforcingMessages
    Description: Shows reinforcing messages when state ends
  - Enabled: 1
    FeatureKey: pws.common.confetti
    Description: Add confetti to final state
  - Enabled: 1
    FeatureKey: pws.common.ui.windowwithstars
    Description: Show window with stars instead of default progress bar
  - Enabled: 1
    FeatureKey: pws.achievements
    Description: Add achievements to game
  - Enabled: 1
    FeatureKey: pws.localization
    Description: Project localization
  Args:
  - Key: appType
    Value: pottery
