%YAML 1.1
%TAG !u! tag:unity3d.com,2011:
--- !u!114 &11400000
MonoBehaviour:
  m_ObjectHideFlags: 0
  m_CorrespondingSourceObject: {fileID: 0}
  m_PrefabInstance: {fileID: 0}
  m_PrefabAsset: {fileID: 0}
  m_GameObject: {fileID: 0}
  m_Enabled: 1
  m_EditorHideFlags: 0
  m_Script: {fileID: 11500000, guid: 5559264e5fb573b4baa0426489264ba9, type: 3}
  m_Name: SpriteConfig
  m_EditorClassIdentifier: 
  main: 1
  solidPattern: {fileID: 21300000, guid: c4147f10817b66140a8e42cfc4e545a3, type: 3}
  dashedPattern: {fileID: 21300000, guid: b5a4a569779df4146907d6fec683e9af, type: 3}
  solidRefPixelAmount: 620739
