{
    "name": "PWS.Tutorial",
    "rootNamespace": "PWS.Tutorial",
    "references": [
        "Modules.Root.ContainerComponentModel",
        "PWS.Common.SceneSwitchService",
        "Modules.Root.ECS",
        "Leopotam.Ecs",
        "Modules.StateGroup",
        "Modules.UIMessaging",
        "UniRx",
        "Modules.ViewHub",
        "Unity.XR.Interaction.Toolkit",
        "PWS.Common.QuickMenu",
        "Modules.VRFeatures",
        "Unity.InputSystem"
    ],
    "includePlatforms": [],
    "excludePlatforms": [],
    "allowUnsafeCode": false,
    "overrideReferences": false,
    "precompiledReferences": [],
    "autoReferenced": true,
    "defineConstraints": [],
    "versionDefines": [],
    "noEngineReferences": false
}