%YAML 1.1
%TAG !u! tag:unity3d.com,2011:
--- !u!1001 &1113353917173270648
PrefabInstance:
  m_ObjectHideFlags: 0
  serializedVersion: 2
  m_Modification:
    m_TransformParent: {fileID: 3366315905654130676}
    m_Modifications:
    - target: {fileID: -8679921383154817045, guid: e06ca3c3d2a8b564e86e9e84bccec14e, type: 3}
      propertyPath: m_RootOrder
      value: 0
      objectReference: {fileID: 0}
    - target: {fileID: -8679921383154817045, guid: e06ca3c3d2a8b564e86e9e84bccec14e, type: 3}
      propertyPath: m_LocalPosition.x
      value: 0
      objectReference: {fileID: 0}
    - target: {fileID: -8679921383154817045, guid: e06ca3c3d2a8b564e86e9e84bccec14e, type: 3}
      propertyPath: m_LocalPosition.y
      value: 0
      objectReference: {fileID: 0}
    - target: {fileID: -8679921383154817045, guid: e06ca3c3d2a8b564e86e9e84bccec14e, type: 3}
      propertyPath: m_LocalPosition.z
      value: 0
      objectReference: {fileID: 0}
    - target: {fileID: -8679921383154817045, guid: e06ca3c3d2a8b564e86e9e84bccec14e, type: 3}
      propertyPath: m_LocalRotation.w
      value: 1
      objectReference: {fileID: 0}
    - target: {fileID: -8679921383154817045, guid: e06ca3c3d2a8b564e86e9e84bccec14e, type: 3}
      propertyPath: m_LocalRotation.x
      value: 0
      objectReference: {fileID: 0}
    - target: {fileID: -8679921383154817045, guid: e06ca3c3d2a8b564e86e9e84bccec14e, type: 3}
      propertyPath: m_LocalRotation.y
      value: 0
      objectReference: {fileID: 0}
    - target: {fileID: -8679921383154817045, guid: e06ca3c3d2a8b564e86e9e84bccec14e, type: 3}
      propertyPath: m_LocalRotation.z
      value: 0
      objectReference: {fileID: 0}
    - target: {fileID: -8679921383154817045, guid: e06ca3c3d2a8b564e86e9e84bccec14e, type: 3}
      propertyPath: m_LocalEulerAnglesHint.x
      value: 0
      objectReference: {fileID: 0}
    - target: {fileID: -8679921383154817045, guid: e06ca3c3d2a8b564e86e9e84bccec14e, type: 3}
      propertyPath: m_LocalEulerAnglesHint.y
      value: 0
      objectReference: {fileID: 0}
    - target: {fileID: -8679921383154817045, guid: e06ca3c3d2a8b564e86e9e84bccec14e, type: 3}
      propertyPath: m_LocalEulerAnglesHint.z
      value: 0
      objectReference: {fileID: 0}
    - target: {fileID: -7511558181221131132, guid: e06ca3c3d2a8b564e86e9e84bccec14e, type: 3}
      propertyPath: m_Materials.Array.data[0]
      value: 
      objectReference: {fileID: 2100000, guid: ce09424022e6a0e4ca8aeb97faec5317, type: 2}
    - target: {fileID: 919132149155446097, guid: e06ca3c3d2a8b564e86e9e84bccec14e, type: 3}
      propertyPath: m_Name
      value: FinalView
      objectReference: {fileID: 0}
    - target: {fileID: 919132149155446097, guid: e06ca3c3d2a8b564e86e9e84bccec14e, type: 3}
      propertyPath: m_Layer
      value: 29
      objectReference: {fileID: 0}
    m_RemovedComponents: []
  m_SourcePrefab: {fileID: 100100000, guid: e06ca3c3d2a8b564e86e9e84bccec14e, type: 3}
--- !u!23 &1779758430647850236 stripped
MeshRenderer:
  m_CorrespondingSourceObject: {fileID: -7511558181221131132, guid: e06ca3c3d2a8b564e86e9e84bccec14e, type: 3}
  m_PrefabInstance: {fileID: 1113353917173270648}
  m_PrefabAsset: {fileID: 0}
--- !u!1001 &1194706134682336191
PrefabInstance:
  m_ObjectHideFlags: 0
  serializedVersion: 2
  m_Modification:
    m_TransformParent: {fileID: 0}
    m_Modifications:
    - target: {fileID: 4477700207370009672, guid: 589d96b8d8abae240ba4b881a11fde95, type: 3}
      propertyPath: renderers.Array.size
      value: 1
      objectReference: {fileID: 0}
    - target: {fileID: 4477700207370009672, guid: 589d96b8d8abae240ba4b881a11fde95, type: 3}
      propertyPath: renderers.Array.data[0]
      value: 
      objectReference: {fileID: 1779758430647850236}
    - target: {fileID: 4477700207370009673, guid: 589d96b8d8abae240ba4b881a11fde95, type: 3}
      propertyPath: m_Name
      value: Final
      objectReference: {fileID: 0}
    - target: {fileID: 4477700207370009673, guid: 589d96b8d8abae240ba4b881a11fde95, type: 3}
      propertyPath: m_Layer
      value: 29
      objectReference: {fileID: 0}
    - target: {fileID: 4477700207370009675, guid: 589d96b8d8abae240ba4b881a11fde95, type: 3}
      propertyPath: m_RootOrder
      value: 0
      objectReference: {fileID: 0}
    - target: {fileID: 4477700207370009675, guid: 589d96b8d8abae240ba4b881a11fde95, type: 3}
      propertyPath: m_LocalScale.x
      value: 1.25
      objectReference: {fileID: 0}
    - target: {fileID: 4477700207370009675, guid: 589d96b8d8abae240ba4b881a11fde95, type: 3}
      propertyPath: m_LocalScale.y
      value: 1.25
      objectReference: {fileID: 0}
    - target: {fileID: 4477700207370009675, guid: 589d96b8d8abae240ba4b881a11fde95, type: 3}
      propertyPath: m_LocalScale.z
      value: 1.25
      objectReference: {fileID: 0}
    - target: {fileID: 4477700207370009675, guid: 589d96b8d8abae240ba4b881a11fde95, type: 3}
      propertyPath: m_LocalPosition.x
      value: 0
      objectReference: {fileID: 0}
    - target: {fileID: 4477700207370009675, guid: 589d96b8d8abae240ba4b881a11fde95, type: 3}
      propertyPath: m_LocalPosition.y
      value: 0.05
      objectReference: {fileID: 0}
    - target: {fileID: 4477700207370009675, guid: 589d96b8d8abae240ba4b881a11fde95, type: 3}
      propertyPath: m_LocalPosition.z
      value: 0.015
      objectReference: {fileID: 0}
    - target: {fileID: 4477700207370009675, guid: 589d96b8d8abae240ba4b881a11fde95, type: 3}
      propertyPath: m_LocalRotation.w
      value: 1
      objectReference: {fileID: 0}
    - target: {fileID: 4477700207370009675, guid: 589d96b8d8abae240ba4b881a11fde95, type: 3}
      propertyPath: m_LocalRotation.x
      value: 0
      objectReference: {fileID: 0}
    - target: {fileID: 4477700207370009675, guid: 589d96b8d8abae240ba4b881a11fde95, type: 3}
      propertyPath: m_LocalRotation.y
      value: 0
      objectReference: {fileID: 0}
    - target: {fileID: 4477700207370009675, guid: 589d96b8d8abae240ba4b881a11fde95, type: 3}
      propertyPath: m_LocalRotation.z
      value: 0
      objectReference: {fileID: 0}
    - target: {fileID: 4477700207370009675, guid: 589d96b8d8abae240ba4b881a11fde95, type: 3}
      propertyPath: m_LocalEulerAnglesHint.x
      value: 0
      objectReference: {fileID: 0}
    - target: {fileID: 4477700207370009675, guid: 589d96b8d8abae240ba4b881a11fde95, type: 3}
      propertyPath: m_LocalEulerAnglesHint.y
      value: 0
      objectReference: {fileID: 0}
    - target: {fileID: 4477700207370009675, guid: 589d96b8d8abae240ba4b881a11fde95, type: 3}
      propertyPath: m_LocalEulerAnglesHint.z
      value: 0
      objectReference: {fileID: 0}
    m_RemovedComponents: []
  m_SourcePrefab: {fileID: 100100000, guid: 589d96b8d8abae240ba4b881a11fde95, type: 3}
--- !u!4 &3366315905654130676 stripped
Transform:
  m_CorrespondingSourceObject: {fileID: 4477700207370009675, guid: 589d96b8d8abae240ba4b881a11fde95, type: 3}
  m_PrefabInstance: {fileID: 1194706134682336191}
  m_PrefabAsset: {fileID: 0}
