%YAML 1.1
%TAG !u! tag:unity3d.com,2011:
--- !u!114 &11400000
MonoBehaviour:
  m_ObjectHideFlags: 0
  m_CorrespondingSourceObject: {fileID: 0}
  m_PrefabInstance: {fileID: 0}
  m_PrefabAsset: {fileID: 0}
  m_GameObject: {fileID: 0}
  m_Enabled: 1
  m_EditorHideFlags: 0
  m_Script: {fileID: 11500000, guid: d37520c57bd1b814fb0996c8fdf5f6e1, type: 3}
  m_Name: DefaultPatternConfig
  m_EditorClassIdentifier: 
  alphaThreshold: 0.35
  colliderThickness: 0.1
  meshThickness: 0.0035
