%YAML 1.1
%TAG !u! tag:unity3d.com,2011:
--- !u!114 &11400000
MonoBehaviour:
  m_ObjectHideFlags: 0
  m_CorrespondingSourceObject: {fileID: 0}
  m_PrefabInstance: {fileID: 0}
  m_PrefabAsset: {fileID: 0}
  m_GameObject: {fileID: 0}
  m_Enabled: 1
  m_EditorHideFlags: 0
  m_Script: {fileID: 11500000, guid: e11aa1783ad1764459fc536bf9f7a277, type: 3}
  m_Name: DefaultDrillToolConfig
  m_EditorClassIdentifier: 
  SquaredDistance: 0.1
  PixelSnapRadius: 12
  PixelBrushSize: 3
