%YAML 1.1
%TAG !u! tag:unity3d.com,2011:
--- !u!114 &11400000
MonoBehaviour:
  m_ObjectHideFlags: 0
  m_CorrespondingSourceObject: {fileID: 0}
  m_PrefabInstance: {fileID: 0}
  m_PrefabAsset: {fileID: 0}
  m_GameObject: {fileID: 0}
  m_Enabled: 1
  m_EditorHideFlags: 0
  m_Script: {fileID: 11500000, guid: 6bff880bde3de7743a01603c3cf96142, type: 3}
  m_Name: VertexSubPathConfig1
  m_EditorClassIdentifier: 
  vertexPathData:
    vertex:
    - {x: 0.20413105, y: 0.015, z: 0.0050493223}
    - {x: 0.19794355, y: 0.015, z: 0.0032230697}
    - {x: 0.1926298, y: 0.015000001, z: -0.00011442536}
    - {x: 0.1880623, y: 0.015000001, z: -0.0046556736}
    - {x: 0.1841173, y: 0.0150000015, z: -0.010089427}
    - {x: 0.18066354, y: 0.015000003, z: -0.01611568}
    - {x: 0.17757355, y: 0.015000004, z: -0.022423178}
    - {x: 0.1747198, y: 0.015000006, z: -0.02870068}
    - {x: 0.1719748, y: 0.015000008, z: -0.034640677}
    - {x: 0.16920729, y: 0.015000009, z: -0.039939426}
    - {x: 0.16629355, y: 0.015000009, z: -0.044285677}
    - {x: 0.16309856, y: 0.01500001, z: -0.04737568}
    - {x: 0.1595023, y: 0.01500001, z: -0.048894428}
    - {x: 0.15590979, y: 0.01500001, z: -0.047323182}
    - {x: 0.1527223, y: 0.015000009, z: -0.044203177}
    - {x: 0.1498048, y: 0.015000009, z: -0.039841928}
    - {x: 0.14704105, y: 0.015000008, z: -0.03453943}
    - {x: 0.14429231, y: 0.015000006, z: -0.028603174}
    - {x: 0.14143854, y: 0.015000004, z: -0.022340678}
    - {x: 0.1383448, y: 0.015000003, z: -0.016055673}
    - {x: 0.13489105, y: 0.0150000015, z: -0.010051928}
    - {x: 0.13094229, y: 0.015000001, z: -0.004636928}
    - {x: 0.1263748, y: 0.015000001, z: -0.000118180455}
    - {x: 0.12106104, y: 0.015, z: 0.0032080754}
    - {x: 0.1148698, y: 0.015, z: 0.0050268215}
    - {x: 0.11466354, y: 0.014999999, z: 0.0069805724}
    - {x: 0.115226045, y: 0.014999999, z: 0.008851823}
    - {x: 0.11649355, y: 0.014999999, z: 0.0104718255}
    - {x: 0.11840229, y: 0.014999998, z: 0.011671823}
    - {x: 0.120888546, y: 0.014999997, z: 0.012283073}
    - {x: 0.12388854, y: 0.014999997, z: 0.012129323}
    - {x: 0.1273348, y: 0.014999998, z: 0.011045572}
    - {x: 0.13116355, y: 0.014999999, z: 0.008859326}
    - {x: 0.13531105, y: 0.015, z: 0.005401824}
    - {x: 0.13971354, y: 0.015, z: 0.00050057535}
    - {x: 0.14430355, y: 0.0150000015, z: -0.006016932}
    - {x: 0.14902104, y: 0.015000003, z: -0.01431568}
    - {x: 0.15070479, y: 0.015000004, z: -0.017671928}
    - {x: 0.15250479, y: 0.015000004, z: -0.021264426}
    - {x: 0.15434605, y: 0.015000005, z: -0.024751931}
    - {x: 0.15617229, y: 0.015000005, z: -0.027796932}
    - {x: 0.1579123, y: 0.015000006, z: -0.030069433}
    - {x: 0.15872979, y: 0.015000006, z: -0.030804425}
    - {x: 0.1595023, y: 0.015000006, z: -0.031220675}
    - {x: 0.16027105, y: 0.015000006, z: -0.030804425}
    - {x: 0.16108854, y: 0.015000006, z: -0.030065678}
    - {x: 0.16282855, y: 0.015000005, z: -0.027793176}
    - {x: 0.16465479, y: 0.015000005, z: -0.024740674}
    - {x: 0.16649981, y: 0.015000004, z: -0.021245673}
    - {x: 0.16829605, y: 0.015000004, z: -0.017653175}
    - {x: 0.16998355, y: 0.015000003, z: -0.014296934}
    - {x: 0.1746973, y: 0.0150000015, z: -0.0059944238}
    - {x: 0.17929105, y: 0.015, z: 0.00052306865}
    - {x: 0.18368979, y: 0.015, z: 0.005424321}
    - {x: 0.18783729, y: 0.014999999, z: 0.008881823}
    - {x: 0.1916698, y: 0.014999998, z: 0.011068077}
    - {x: 0.19511606, y: 0.014999997, z: 0.012151823}
    - {x: 0.1981123, y: 0.014999997, z: 0.012305574}
    - {x: 0.20059855, y: 0.014999998, z: 0.0116943205}
    - {x: 0.20251104, y: 0.014999999, z: 0.0104943225}
    - {x: 0.20377855, y: 0.014999999, z: 0.008874324}
    - {x: 0.20434104, y: 0.014999999, z: 0.0069993255}
    - {x: 0.20413105, y: 0.015, z: 0.0050493223}
    tangents:
    - {x: -0.64079446, y: 0.00000028540157, z: -0.7677125}
    - {x: -0.9114879, y: 0.00000007491063, z: -0.41132686}
    - {x: -0.7827863, y: 0.00000007466798, z: -0.6222907}
    - {x: -0.65041244, y: 0.000000069571776, z: -0.7595812}
    - {x: -0.54316056, y: 0.00000020372711, z: -0.8396288}
    - {x: -0.4688375, y: 0.00000020048812, z: -0.8832844}
    - {x: -0.42693505, y: 0.0000002013775, z: -0.90428233}
    - {x: -0.41667134, y: 0.0000002773853, z: -0.90905726}
    - {x: -0.44135293, y: 0.000000220287, z: -0.89733356}
    - {x: -0.51066166, y: 0.000000078012945, z: -0.8597817}
    - {x: -0.64141643, y: 0.00000010535455, z: -0.7671929}
    - {x: -0.8341844, y: 0.00000010657571, z: -0.5514856}
    - {x: -0.9999798, y: 0, z: 0.00635322}
    - {x: -0.8289888, y: -0.000000106138316, z: 0.5592652}
    - {x: -0.63872707, y: -0.00000010495966, z: 0.7694334}
    - {x: -0.5098688, y: -0.00000007799195, z: 0.8602522}
    - {x: -0.44131348, y: -0.00000022030186, z: 0.897353}
    - {x: -0.41742715, y: -0.00000027769283, z: 0.9087104}
    - {x: -0.4281999, y: -0.00000020182233, z: 0.9036841}
    - {x: -0.47038606, y: -0.00000020104095, z: 0.8824607}
    - {x: -0.5447185, y: -0.00000020424251, z: 0.838619}
    - {x: -0.6521506, y: -0.00000006970724, z: 0.7580895}
    - {x: -0.7840293, y: -0.00000007473509, z: 0.6207238}
    - {x: -0.91206247, y: -0.00000007498075, z: 0.41005132}
    - {x: -0.64048356, y: -0.0000002852385, z: 0.7679719}
    - {x: 0.093277894, y: -0.00000024177726, z: 0.9956401}
    - {x: 0.4599748, y: 0, z: 0.88793194}
    - {x: 0.7424609, y: -0.00000020966037, z: 0.6698894}
    - {x: 0.9206093, y: -0.0000003934464, z: 0.39048502}
    - {x: 0.99549735, y: -0.00000018383757, z: 0.09478976}
    - {x: 0.98420995, y: 0.00000012993947, z: -0.17700483}
    - {x: 0.91642016, y: 0.00000023586499, z: -0.4002175}
    - {x: 0.8214355, y: 0.00000019260223, z: -0.57030135}
    - {x: 0.72004026, y: 0.00000008646351, z: -0.6939323}
    - {x: 0.6231073, y: 0.00000011703495, z: -0.7821364}
    - {x: 0.53561956, y: 0.00000021464378, z: -0.84445935}
    - {x: 0.4714597, y: 0.00000022165115, z: -0.8818876}
    - {x: 0.44818524, y: 0.00000012401381, z: -0.89394075}
    - {x: 0.45744827, y: 0.00000011808331, z: -0.8892363}
    - {x: 0.4907936, y: 0.00000011812043, z: -0.8712759}
    - {x: 0.56203866, y: 0.00000016295748, z: -0.82711095}
    - {x: 0.67868817, y: 0.00000016339516, z: -0.73442656}
    - {x: 0.81777215, y: 0, z: -0.57554215}
    - {x: 0.99999946, y: 0, z: 0.0010187671}
    - {x: 0.8164543, y: 0, z: 0.57741004}
    - {x: 0.67775697, y: -0.00000016337607, z: 0.73528594}
    - {x: 0.56159, y: -0.00000016296251, z: 0.82741565}
    - {x: 0.49030116, y: -0.000000117868275, z: 0.87155306}
    - {x: 0.45705646, y: -0.00000011783339, z: 0.8894377}
    - {x: 0.44821137, y: -0.00000012395846, z: 0.89392763}
    - {x: 0.47161743, y: -0.00000022157718, z: 0.8818033}
    - {x: 0.53555596, y: -0.00000021460257, z: 0.8444997}
    - {x: 0.6230923, y: -0.000000117000596, z: 0.78214836}
    - {x: 0.719893, y: -0.00000008646484, z: 0.6940851}
    - {x: 0.8215559, y: -0.0000001925271, z: 0.57012796}
    - {x: 0.91650456, y: -0.00000023578124, z: 0.40002415}
    - {x: 0.9842043, y: -0.0000001299395, z: 0.17703648}
    - {x: 0.99550027, y: 0.00000018383838, z: -0.09475858}
    - {x: 0.92078173, y: 0.00000039312357, z: -0.3900782}
    - {x: 0.74275774, y: 0.00000020938127, z: -0.66956025}
    - {x: 0.45972735, y: 0, z: -0.8880601}
    - {x: 0.09195962, y: 0.00000024222533, z: -0.99576277}
    - {x: -0.64079446, y: 0.00000028540157, z: -0.7677125}
    bitangents:
    - {x: 0.7677125, y: 0, z: -0.64079446}
    - {x: 0.41132686, y: 0, z: -0.9114879}
    - {x: 0.6222907, y: 0, z: -0.7827863}
    - {x: 0.7595812, y: 0, z: -0.65041244}
    - {x: 0.8396288, y: 0, z: -0.54316056}
    - {x: 0.8832844, y: 0, z: -0.4688375}
    - {x: 0.90428233, y: 0, z: -0.42693505}
    - {x: 0.90905726, y: 0, z: -0.41667134}
    - {x: 0.89733356, y: 0, z: -0.44135293}
    - {x: 0.8597817, y: 0, z: -0.51066166}
    - {x: 0.7671929, y: 0, z: -0.64141643}
    - {x: 0.5514856, y: 0, z: -0.8341844}
    - {x: -0.00635322, y: 0, z: -0.9999798}
    - {x: -0.5592652, y: 0, z: -0.8289888}
    - {x: -0.7694334, y: 0, z: -0.63872707}
    - {x: -0.8602522, y: 0, z: -0.5098688}
    - {x: -0.897353, y: 0, z: -0.44131348}
    - {x: -0.9087104, y: 0, z: -0.41742715}
    - {x: -0.9036841, y: 0, z: -0.4281999}
    - {x: -0.8824607, y: 0, z: -0.47038606}
    - {x: -0.838619, y: 0, z: -0.5447185}
    - {x: -0.7580895, y: 0, z: -0.6521506}
    - {x: -0.6207238, y: 0, z: -0.7840293}
    - {x: -0.41005132, y: 0, z: -0.91206247}
    - {x: -0.7679719, y: 0, z: -0.64048356}
    - {x: -0.9956401, y: 0, z: 0.093277894}
    - {x: -0.88793194, y: 0, z: 0.4599748}
    - {x: -0.6698894, y: 0, z: 0.7424609}
    - {x: -0.39048502, y: 0, z: 0.9206093}
    - {x: -0.09478976, y: 0, z: 0.99549735}
    - {x: 0.17700483, y: -0, z: 0.98420995}
    - {x: 0.4002175, y: -0, z: 0.91642016}
    - {x: 0.57030135, y: -0, z: 0.8214355}
    - {x: 0.6939323, y: -0, z: 0.72004026}
    - {x: 0.7821364, y: -0, z: 0.6231073}
    - {x: 0.84445935, y: -0, z: 0.53561956}
    - {x: 0.8818876, y: -0, z: 0.4714597}
    - {x: 0.89394075, y: -0, z: 0.44818524}
    - {x: 0.8892363, y: -0, z: 0.45744827}
    - {x: 0.8712759, y: -0, z: 0.4907936}
    - {x: 0.82711095, y: -0, z: 0.56203866}
    - {x: 0.73442656, y: -0, z: 0.67868817}
    - {x: 0.57554215, y: -0, z: 0.81777215}
    - {x: -0.0010187671, y: 0, z: 0.99999946}
    - {x: -0.57741004, y: 0, z: 0.8164543}
    - {x: -0.73528594, y: 0, z: 0.67775697}
    - {x: -0.82741565, y: 0, z: 0.56159}
    - {x: -0.87155306, y: 0, z: 0.49030116}
    - {x: -0.8894377, y: 0, z: 0.45705646}
    - {x: -0.89392763, y: 0, z: 0.44821137}
    - {x: -0.8818033, y: 0, z: 0.47161743}
    - {x: -0.8444997, y: 0, z: 0.53555596}
    - {x: -0.78214836, y: 0, z: 0.6230923}
    - {x: -0.6940851, y: 0, z: 0.719893}
    - {x: -0.57012796, y: 0, z: 0.8215559}
    - {x: -0.40002415, y: 0, z: 0.91650456}
    - {x: -0.17703648, y: 0, z: 0.9842043}
    - {x: 0.09475858, y: -0, z: 0.99550027}
    - {x: 0.3900782, y: -0, z: 0.92078173}
    - {x: 0.66956025, y: -0, z: 0.74275774}
    - {x: 0.8880601, y: -0, z: 0.45972735}
    - {x: 0.99576277, y: -0, z: 0.09195962}
    - {x: 0.7677125, y: 0, z: -0.64079446}
    normals:
    - {x: 0, y: 1, z: 0}
    - {x: 0, y: 1, z: 0}
    - {x: 0, y: 1, z: 0}
    - {x: 0, y: 1, z: 0}
    - {x: 0, y: 1, z: 0}
    - {x: 0, y: 1, z: 0}
    - {x: 0, y: 1, z: 0}
    - {x: 0, y: 1, z: 0}
    - {x: 0, y: 1, z: 0}
    - {x: 0, y: 1, z: 0}
    - {x: 0, y: 1, z: 0}
    - {x: 0, y: 1, z: 0}
    - {x: 0, y: 1, z: 0}
    - {x: 0, y: 1, z: 0}
    - {x: 0, y: 1, z: 0}
    - {x: 0, y: 1, z: 0}
    - {x: 0, y: 1, z: 0}
    - {x: 0, y: 1, z: 0}
    - {x: 0, y: 1, z: 0}
    - {x: 0, y: 1, z: 0}
    - {x: 0, y: 1, z: 0}
    - {x: 0, y: 1, z: 0}
    - {x: 0, y: 1, z: 0}
    - {x: 0, y: 1, z: 0}
    - {x: 0, y: 1, z: 0}
    - {x: 0, y: 1, z: 0}
    - {x: 0, y: 1, z: 0}
    - {x: 0, y: 1, z: 0}
    - {x: 0, y: 1, z: 0}
    - {x: 0, y: 1, z: 0}
    - {x: 0, y: 1, z: 0}
    - {x: 0, y: 1, z: 0}
    - {x: 0, y: 1, z: 0}
    - {x: 0, y: 1, z: 0}
    - {x: 0, y: 1, z: 0}
    - {x: 0, y: 1, z: 0}
    - {x: 0, y: 1, z: 0}
    - {x: 0, y: 1, z: 0}
    - {x: 0, y: 1, z: 0}
    - {x: 0, y: 1, z: 0}
    - {x: 0, y: 1, z: 0}
    - {x: 0, y: 1, z: 0}
    - {x: 0, y: 1, z: 0}
    - {x: 0, y: 1, z: 0}
    - {x: 0, y: 1, z: 0}
    - {x: 0, y: 1, z: 0}
    - {x: 0, y: 1, z: 0}
    - {x: 0, y: 1, z: 0}
    - {x: 0, y: 1, z: 0}
    - {x: 0, y: 1, z: 0}
    - {x: 0, y: 1, z: 0}
    - {x: 0, y: 1, z: 0}
    - {x: 0, y: 1, z: 0}
    - {x: 0, y: 1, z: 0}
    - {x: 0, y: 1, z: 0}
    - {x: 0, y: 1, z: 0}
    - {x: 0, y: 1, z: 0}
    - {x: 0, y: 1, z: 0}
    - {x: 0, y: 1, z: 0}
    - {x: 0, y: 1, z: 0}
    - {x: 0, y: 1, z: 0}
    - {x: 0, y: 1, z: 0}
    - {x: 0, y: 1, z: 0}
    timeTable:
    - Index: 0
      Value: 0
    - Index: 1
      Value: 0.022359056
    - Index: 2
      Value: 0.044106595
    - Index: 3
      Value: 0.06642928
    - Index: 4
      Value: 0.0897013
    - Index: 5
      Value: 0.11377391
    - Index: 6
      Value: 0.13811655
    - Index: 7
      Value: 0.16201557
    - Index: 8
      Value: 0.1846942
    - Index: 9
      Value: 0.20541243
    - Index: 10
      Value: 0.22354734
    - Index: 11
      Value: 0.23895195
    - Index: 12
      Value: 0.25248167
    - Index: 13
      Value: 0.2660713
    - Index: 14
      Value: 0.28152978
    - Index: 15
      Value: 0.29971516
    - Index: 16
      Value: 0.32043886
    - Index: 17
      Value: 0.34311116
    - Index: 18
      Value: 0.36696288
    - Index: 19
      Value: 0.39124128
    - Index: 20
      Value: 0.41524622
    - Index: 21
      Value: 0.43847337
    - Index: 22
      Value: 0.46074113
    - Index: 23
      Value: 0.48246795
    - Index: 24
      Value: 0.5048321
    - Index: 25
      Value: 0.51164097
    - Index: 26
      Value: 0.518413
    - Index: 27
      Value: 0.52554196
    - Index: 28
      Value: 0.5333559
    - Index: 29
      Value: 0.5422293
    - Index: 30
      Value: 0.5526402
    - Index: 31
      Value: 0.5651609
    - Index: 32
      Value: 0.58044136
    - Index: 33
      Value: 0.5991553
    - Index: 34
      Value: 0.6219884
    - Index: 35
      Value: 0.6496161
    - Index: 36
      Value: 0.68270004
    - Index: 37
      Value: 0.69571376
    - Index: 38
      Value: 0.70964
    - Index: 39
      Value: 0.7233081
    - Index: 40
      Value: 0.7356139
    - Index: 41
      Value: 0.74553347
    - Index: 42
      Value: 0.74934345
    - Index: 43
      Value: 0.7523847
    - Index: 44
      Value: 0.75541455
    - Index: 45
      Value: 0.7592333
    - Index: 46
      Value: 0.7691529
    - Index: 47
      Value: 0.78148097
    - Index: 48
      Value: 0.79517806
    - Index: 49
      Value: 0.8090985
    - Index: 50
      Value: 0.82211804
    - Index: 51
      Value: 0.85520685
    - Index: 52
      Value: 0.88284206
    - Index: 53
      Value: 0.9056666
    - Index: 54
      Value: 0.92438054
    - Index: 55
      Value: 0.93967235
    - Index: 56
      Value: 0.95219296
    - Index: 57
      Value: 0.9625909
    - Index: 58
      Value: 0.9714643
    - Index: 59
      Value: 0.9792893
    - Index: 60
      Value: 0.9864181
    - Index: 61
      Value: 0.9932026
    - Index: 62
      Value: 1
    vertexPathDistance: 0.28853557
  meshThickness: 0.0035
  uvArea: 0.14166667
  uvSize: {x: 0.17916667, y: 0, z: 0.14166668, w: 1}
