%YAML 1.1
%TAG !u! tag:unity3d.com,2011:
--- !u!114 &11400000
MonoBehaviour:
  m_ObjectHideFlags: 0
  m_CorrespondingSourceObject: {fileID: 0}
  m_PrefabInstance: {fileID: 0}
  m_PrefabAsset: {fileID: 0}
  m_GameObject: {fileID: 0}
  m_Enabled: 1
  m_EditorHideFlags: 0
  m_Script: {fileID: 11500000, guid: 5559264e5fb573b4baa0426489264ba9, type: 3}
  m_Name: SpriteConfig
  m_EditorClassIdentifier: 
  main: 0
  solidPattern: {fileID: 21300000, guid: 88d533e24b721854ba43edad1ad8e3aa, type: 3}
  dashedPattern: {fileID: 21300000, guid: 9b14073c24915674b83c54323f36f500, type: 3}
  solidRefPixelAmount: 5463
