%YAML 1.1
%TAG !u! tag:unity3d.com,2011:
--- !u!114 &11400000
MonoBehaviour:
  m_ObjectHideFlags: 0
  m_CorrespondingSourceObject: {fileID: 0}
  m_PrefabInstance: {fileID: 0}
  m_PrefabAsset: {fileID: 0}
  m_GameObject: {fileID: 0}
  m_Enabled: 1
  m_EditorHideFlags: 0
  m_Script: {fileID: 11500000, guid: 6bff880bde3de7743a01603c3cf96142, type: 3}
  m_Name: VertexSubPathConfig2
  m_EditorClassIdentifier: 
  vertexPathData:
    vertex:
    - {x: 0.15905036, y: 0.015000211, z: 0.03696719}
    - {x: 0.16187412, y: 0.015000211, z: 0.038973443}
    - {x: 0.1650391, y: 0.015000211, z: 0.04035719}
    - {x: 0.16841787, y: 0.015000209, z: 0.04113344}
    - {x: 0.1718791, y: 0.015000209, z: 0.041302193}
    - {x: 0.17529535, y: 0.015000209, z: 0.04087844}
    - {x: 0.17854285, y: 0.015000211, z: 0.03986594}
    - {x: 0.1814941, y: 0.015000211, z: 0.03827219}
    - {x: 0.18401785, y: 0.015000211, z: 0.03610844}
    - {x: 0.18598661, y: 0.015000211, z: 0.033382192}
    - {x: 0.18727662, y: 0.015000212, z: 0.03010094}
    - {x: 0.18775661, y: 0.015000214, z: 0.02627219}
    - {x: 0.18729912, y: 0.015000214, z: 0.021903438}
    - {x: 0.18601285, y: 0.015000214, z: 0.01978469}
    - {x: 0.1839991, y: 0.015000214, z: 0.01810844}
    - {x: 0.18141536, y: 0.015000216, z: 0.01692344}
    - {x: 0.17842661, y: 0.015000216, z: 0.01627844}
    - {x: 0.17519036, y: 0.015000216, z: 0.016229691}
    - {x: 0.17186786, y: 0.015000216, z: 0.016833441}
    - {x: 0.16861661, y: 0.015000214, z: 0.018130941}
    - {x: 0.16560161, y: 0.015000214, z: 0.020185938}
    - {x: 0.16297285, y: 0.015000214, z: 0.023043437}
    - {x: 0.1608991, y: 0.015000214, z: 0.026755942}
    - {x: 0.15953785, y: 0.015000212, z: 0.031379692}
    - {x: 0.15905036, y: 0.015000211, z: 0.03696719}
    tangents:
    - {x: 0.41961303, y: -0.000000095672696, z: 0.9077031}
    - {x: 0.8703188, y: 0, z: 0.49248877}
    - {x: 0.9495515, y: -0.00000026981164, z: 0.3136111}
    - {x: 0.9905932, y: -0.00000026969823, z: 0.13683999}
    - {x: 0.99930274, y: 0, z: -0.03733789}
    - {x: 0.97743946, y: 0.00000027488127, z: -0.21121559}
    - {x: 0.9215703, y: 0.00000027506206, z: -0.38821164}
    - {x: 0.82423264, y: 0, z: -0.5662514}
    - {x: 0.67704666, y: 0, z: -0.7359401}
    - {x: 0.4794341, y: 0.00000013312106, z: -0.87757784}
    - {x: 0.24706422, y: 0.00000037636406, z: -0.9689991}
    - {x: 0.010187842, y: 0.00000024294692, z: -0.9999481}
    - {x: -0.3192876, y: 0, z: -0.9476579}
    - {x: -0.65267575, y: 0, z: -0.7576373}
    - {x: -0.8461368, y: 0.00000033051833, z: -0.5329658}
    - {x: -0.94883156, y: 0.00000032958556, z: -0.31578255}
    - {x: -0.9935311, y: 0, z: -0.11356033}
    - {x: -0.99661154, y: 0, z: 0.082253024}
    - {x: -0.96112937, y: -0.0000002673822, z: 0.2760984}
    - {x: -0.882809, y: -0.00000026764343, z: 0.46973208}
    - {x: -0.7566215, y: 0, z: 0.6538531}
    - {x: -0.5863696, y: 0, z: 0.8100437}
    - {x: -0.38744897, y: -0.00000019443023, z: 0.92189115}
    - {x: -0.18558851, y: -0.00000027762337, z: 0.9826275}
    - {x: 0.41961303, y: -0.000000095672696, z: 0.9077031}
    bitangents:
    - {x: -0.9077031, y: 0, z: 0.41961303}
    - {x: -0.49248877, y: 0, z: 0.8703188}
    - {x: -0.3136111, y: 0, z: 0.9495515}
    - {x: -0.13683999, y: 0, z: 0.9905932}
    - {x: 0.03733789, y: -0, z: 0.99930274}
    - {x: 0.21121559, y: -0, z: 0.97743946}
    - {x: 0.38821164, y: -0, z: 0.9215703}
    - {x: 0.5662514, y: -0, z: 0.82423264}
    - {x: 0.7359401, y: -0, z: 0.67704666}
    - {x: 0.87757784, y: -0, z: 0.4794341}
    - {x: 0.9689991, y: -0, z: 0.24706422}
    - {x: 0.9999481, y: -0, z: 0.010187842}
    - {x: 0.9476579, y: 0, z: -0.3192876}
    - {x: 0.7576373, y: 0, z: -0.65267575}
    - {x: 0.5329658, y: 0, z: -0.8461368}
    - {x: 0.31578255, y: 0, z: -0.94883156}
    - {x: 0.11356033, y: 0, z: -0.9935311}
    - {x: -0.082253024, y: 0, z: -0.99661154}
    - {x: -0.2760984, y: 0, z: -0.96112937}
    - {x: -0.46973208, y: 0, z: -0.882809}
    - {x: -0.6538531, y: 0, z: -0.7566215}
    - {x: -0.8100437, y: 0, z: -0.5863696}
    - {x: -0.92189115, y: 0, z: -0.38744897}
    - {x: -0.9826275, y: 0, z: -0.18558851}
    - {x: -0.9077031, y: 0, z: 0.41961303}
    normals:
    - {x: 0, y: 1, z: 0}
    - {x: 0, y: 1, z: 0}
    - {x: 0, y: 1, z: 0}
    - {x: 0, y: 1, z: 0}
    - {x: 0, y: 1, z: 0}
    - {x: 0, y: 1, z: 0}
    - {x: 0, y: 1, z: 0}
    - {x: 0, y: 1, z: 0}
    - {x: 0, y: 1, z: 0}
    - {x: 0, y: 1, z: 0}
    - {x: 0, y: 1, z: 0}
    - {x: 0, y: 1, z: 0}
    - {x: 0, y: 1, z: 0}
    - {x: 0, y: 1, z: 0}
    - {x: 0, y: 1, z: 0}
    - {x: 0, y: 1, z: 0}
    - {x: 0, y: 1, z: 0}
    - {x: 0, y: 1, z: 0}
    - {x: 0, y: 1, z: 0}
    - {x: 0, y: 1, z: 0}
    - {x: 0, y: 1, z: 0}
    - {x: 0, y: 1, z: 0}
    - {x: 0, y: 1, z: 0}
    - {x: 0, y: 1, z: 0}
    - {x: 0, y: 1, z: 0}
    timeTable:
    - Index: 0
      Value: 0
    - Index: 1
      Value: 0.040353872
    - Index: 2
      Value: 0.08059541
    - Index: 3
      Value: 0.12098285
    - Index: 4
      Value: 0.16135341
    - Index: 5
      Value: 0.20145717
    - Index: 6
      Value: 0.24108611
    - Index: 7
      Value: 0.28016067
    - Index: 8
      Value: 0.3188884
    - Index: 9
      Value: 0.35806444
    - Index: 10
      Value: 0.3991385
    - Index: 11
      Value: 0.4440919
    - Index: 12
      Value: 0.4952654
    - Index: 13
      Value: 0.52414095
    - Index: 14
      Value: 0.55466473
    - Index: 15
      Value: 0.58777964
    - Index: 16
      Value: 0.6233997
    - Index: 17
      Value: 0.6611057
    - Index: 18
      Value: 0.70044607
    - Index: 19
      Value: 0.7412273
    - Index: 20
      Value: 0.7837344
    - Index: 21
      Value: 0.82896763
    - Index: 22
      Value: 0.8785077
    - Index: 23
      Value: 0.93465936
    - Index: 24
      Value: 1
    vertexPathDistance: 0.085838236
  meshThickness: 0.0035
  uvArea: 0.14166667
  uvSize: {x: 0.34583333, y: 0, z: 0.14166668, w: 1}
