%YAML 1.1
%TAG !u! tag:unity3d.com,2011:
--- !u!114 &11400000
MonoBehaviour:
  m_ObjectHideFlags: 0
  m_CorrespondingSourceObject: {fileID: 0}
  m_PrefabInstance: {fileID: 0}
  m_PrefabAsset: {fileID: 0}
  m_GameObject: {fileID: 0}
  m_Enabled: 1
  m_EditorHideFlags: 0
  m_Script: {fileID: 11500000, guid: 6bff880bde3de7743a01603c3cf96142, type: 3}
  m_Name: VertexSubPathConfig5
  m_EditorClassIdentifier: 
  vertexPathData:
    vertex:
    - {x: 0.083825365, y: 0.015000209, z: -0.007822792}
    - {x: 0.08129412, y: 0.015000209, z: -0.0067127906}
    - {x: 0.0793366, y: 0.015000209, z: -0.0039040444}
    - {x: 0.07815535, y: 0.015000207, z: 0.00089219975}
    - {x: 0.0779566, y: 0.015000207, z: 0.007979702}
    - {x: 0.078942865, y: 0.015000205, z: 0.017650954}
    - {x: 0.0796366, y: 0.015000205, z: 0.0131959515}
    - {x: 0.080746606, y: 0.015000207, z: 0.009663455}
    - {x: 0.082205355, y: 0.015000207, z: 0.0069672023}
    - {x: 0.08395286, y: 0.015000207, z: 0.005028453}
    - {x: 0.085925356, y: 0.015000207, z: 0.0037647043}
    - {x: 0.08805536, y: 0.015000207, z: 0.003089704}
    - {x: 0.09028286, y: 0.015000207, z: 0.0029247035}
    - {x: 0.09254411, y: 0.015000207, z: 0.0031834547}
    - {x: 0.09476785, y: 0.015000207, z: 0.0037909527}
    - {x: 0.09689787, y: 0.015000207, z: 0.0046534543}
    - {x: 0.09887037, y: 0.015000207, z: 0.0056959544}
    - {x: 0.100614116, y: 0.015000207, z: 0.006835953}
    - {x: 0.0997366, y: 0.015000207, z: 0.004417204}
    - {x: 0.09801535, y: 0.015000207, z: 0.0016122053}
    - {x: 0.09564911, y: 0.015000209, z: -0.0012827923}
    - {x: 0.092847854, y: 0.015000209, z: -0.003971547}
    - {x: 0.0898066, y: 0.015000209, z: -0.006157797}
    - {x: 0.08673161, y: 0.015000209, z: -0.0075415485}
    - {x: 0.083825365, y: 0.015000209, z: -0.007822792}
    tangents:
    - {x: -0.98748136, y: 0, z: 0.15773574}
    - {x: -0.7727096, y: 0, z: 0.63475966}
    - {x: -0.41238785, y: -0.0000001917663, z: 0.9110084}
    - {x: -0.13434987, y: -0.00000018962228, z: 0.99093395}
    - {x: 0.03678785, y: -0.00000014400428, z: 0.99932307}
    - {x: 0.9996509, y: -0.0000011252691, z: 0.02642305}
    - {x: 0.22746003, y: 0.0000003783422, z: -0.9737874}
    - {x: 0.38959593, y: 0.00000037901455, z: -0.92098594}
    - {x: 0.5767515, y: 0, z: -0.8169197}
    - {x: 0.7625726, y: 0, z: -0.6469026}
    - {x: 0.9054557, y: 0, z: -0.42444086}
    - {x: 0.98192585, y: 0, z: -0.18926582}
    - {x: 0.9998001, y: 0, z: 0.019995417}
    - {x: 0.98194635, y: 0, z: 0.18915968}
    - {x: 0.94742274, y: 0, z: 0.3199846}
    - {x: 0.9066703, y: 0, z: 0.42184004}
    - {x: 0.8614855, y: 0, z: 0.5077823}
    - {x: 0.7838808, y: 0, z: -0.6209114}
    - {x: -0.4342518, y: 0, z: -0.9007915}
    - {x: -0.5792516, y: 0.00000024965053, z: -0.8151488}
    - {x: -0.67838407, y: 0.0000002495372, z: -0.73470753}
    - {x: -0.76863474, y: 0, z: -0.63968796}
    - {x: -0.86629194, y: 0, z: -0.49953806}
    - {x: -0.9664764, y: 0, z: -0.25675556}
    - {x: -0.98748136, y: 0, z: 0.15773574}
    bitangents:
    - {x: -0.15773574, y: 0, z: -0.98748136}
    - {x: -0.63475966, y: 0, z: -0.7727096}
    - {x: -0.9110084, y: 0, z: -0.41238785}
    - {x: -0.99093395, y: 0, z: -0.13434987}
    - {x: -0.99932307, y: 0, z: 0.03678785}
    - {x: -0.02642305, y: 0, z: 0.9996509}
    - {x: 0.9737874, y: -0, z: 0.22746003}
    - {x: 0.92098594, y: -0, z: 0.38959593}
    - {x: 0.8169197, y: -0, z: 0.5767515}
    - {x: 0.6469026, y: -0, z: 0.7625726}
    - {x: 0.42444086, y: -0, z: 0.9054557}
    - {x: 0.18926582, y: -0, z: 0.98192585}
    - {x: -0.019995417, y: 0, z: 0.9998001}
    - {x: -0.18915968, y: 0, z: 0.98194635}
    - {x: -0.3199846, y: 0, z: 0.94742274}
    - {x: -0.42184004, y: 0, z: 0.9066703}
    - {x: -0.5077823, y: 0, z: 0.8614855}
    - {x: 0.6209114, y: -0, z: 0.7838808}
    - {x: 0.9007915, y: 0, z: -0.4342518}
    - {x: 0.8151488, y: 0, z: -0.5792516}
    - {x: 0.73470753, y: 0, z: -0.67838407}
    - {x: 0.63968796, y: 0, z: -0.76863474}
    - {x: 0.49953806, y: 0, z: -0.86629194}
    - {x: 0.25675556, y: 0, z: -0.9664764}
    - {x: -0.15773574, y: 0, z: -0.98748136}
    normals:
    - {x: 0, y: 1, z: 0}
    - {x: 0, y: 1, z: 0}
    - {x: 0, y: 1, z: 0}
    - {x: 0, y: 1, z: 0}
    - {x: 0, y: 1, z: 0}
    - {x: 0, y: 1, z: 0}
    - {x: 0, y: 1, z: 0}
    - {x: 0, y: 1, z: 0}
    - {x: 0, y: 1, z: 0}
    - {x: 0, y: 1, z: 0}
    - {x: 0, y: 1, z: 0}
    - {x: 0, y: 1, z: 0}
    - {x: 0, y: 1, z: 0}
    - {x: 0, y: 1, z: 0}
    - {x: 0, y: 1, z: 0}
    - {x: 0, y: 1, z: 0}
    - {x: 0, y: 1, z: 0}
    - {x: 0, y: 1, z: 0}
    - {x: 0, y: 1, z: 0}
    - {x: 0, y: 1, z: 0}
    - {x: 0, y: 1, z: 0}
    - {x: 0, y: 1, z: 0}
    - {x: 0, y: 1, z: 0}
    - {x: 0, y: 1, z: 0}
    - {x: 0, y: 1, z: 0}
    timeTable:
    - Index: 0
      Value: 0
    - Index: 1
      Value: 0.033159196
    - Index: 2
      Value: 0.07423238
    - Index: 3
      Value: 0.13349293
    - Index: 4
      Value: 0.21855599
    - Index: 5
      Value: 0.33518493
    - Index: 6
      Value: 0.3892763
    - Index: 7
      Value: 0.43369904
    - Index: 8
      Value: 0.47047707
    - Index: 9
      Value: 0.5017905
    - Index: 10
      Value: 0.52989507
    - Index: 11
      Value: 0.5567014
    - Index: 12
      Value: 0.58349824
    - Index: 13
      Value: 0.6108038
    - Index: 14
      Value: 0.6384599
    - Index: 15
      Value: 0.66602945
    - Index: 16
      Value: 0.6927956
    - Index: 17
      Value: 0.71778953
    - Index: 18
      Value: 0.74865824
    - Index: 19
      Value: 0.7881408
    - Index: 20
      Value: 0.832998
    - Index: 21
      Value: 0.8795809
    - Index: 22
      Value: 0.9245163
    - Index: 23
      Value: 0.9649705
    - Index: 24
      Value: 1
    vertexPathDistance: 0.08335333
  meshThickness: 0.0035
  uvArea: 0.12916665
  uvSize: {x: 0.84583336, y: 0, z: 0.12916666, w: 1}
