%YAML 1.1
%TAG !u! tag:unity3d.com,2011:
--- !u!114 &11400000
MonoBehaviour:
  m_ObjectHideFlags: 0
  m_CorrespondingSourceObject: {fileID: 0}
  m_PrefabInstance: {fileID: 0}
  m_PrefabAsset: {fileID: 0}
  m_GameObject: {fileID: 0}
  m_Enabled: 1
  m_EditorHideFlags: 0
  m_Script: {fileID: 11500000, guid: e06490a765654e35996c77717af6cd44, type: 3}
  m_Name: SoundClipsGluing
  m_EditorClassIdentifier: 
  Clips:
  - {fileID: 8300000, guid: 60f985c1e304f964abf801b6d78eccb6, type: 3}
  - {fileID: 8300000, guid: e5358baa6a6205b4f8766b47e54bff68, type: 3}
  - {fileID: 8300000, guid: 863731df4a7379648b27b903a9467ddf, type: 3}
  - {fileID: 8300000, guid: eeafbe21cf9520c49aff1235b817f09c, type: 3}
  - {fileID: 8300000, guid: 3e0ba6657feaa504389b742c4ecf1b9f, type: 3}
  - {fileID: 8300000, guid: 7d9224936f219fd48aaed866579db655, type: 3}
