{
    "name": "PWS.WoodCutting.Stages.FinalAssembling",
    "rootNamespace": "PWS.WoodCutting.Stages.FinalAssembling",
    "references": [
        "Leopotam.Ecs",
        "Unity.XR.Interaction.Toolkit",
        "Modules.Root.ECS",
        "Modules.Root.ContainerComponentModel",
        "Modules.StateGroup",
        "PWS.WoodCutting.Common",
        "PWS.Common.UI",
        "PWS.Common.SceneSwitchService"
    ],
    "includePlatforms": [],
    "excludePlatforms": [],
    "allowUnsafeCode": false,
    "overrideReferences": false,
    "precompiledReferences": [],
    "autoReferenced": true,
    "defineConstraints": [],
    "versionDefines": [],
    "noEngineReferences": false
}