%YAML 1.1
%TAG !u! tag:unity3d.com,2011:
--- !u!114 &11400000
MonoBehaviour:
  m_ObjectHideFlags: 0
  m_CorrespondingSourceObject: {fileID: 0}
  m_PrefabInstance: {fileID: 0}
  m_PrefabAsset: {fileID: 0}
  m_GameObject: {fileID: 0}
  m_Enabled: 1
  m_EditorHideFlags: 0
  m_Script: {fileID: 11500000, guid: 6bff880bde3de7743a01603c3cf96142, type: 3}
  m_Name: VertexPathConfig
  m_EditorClassIdentifier: 
  vertexPathData:
    vertex:
    - {x: 0.0000018600978, y: 0.015000178, z: -0.09681937}
    - {x: -0.105031885, y: 0.015000165, z: -0.038120624}
    - {x: -0.2682919, y: 0.015000165, z: -0.038120624}
    - {x: -0.2625056, y: 0.015000163, z: -0.03110437}
    - {x: -0.26028568, y: 0.015000163, z: -0.028329372}
    - {x: -0.25800192, y: 0.015000162, z: -0.02543062}
    - {x: -0.2557069, y: 0.015000162, z: -0.022456875}
    - {x: -0.25291318, y: 0.015000161, z: -0.018740617}
    - {x: -0.25026935, y: 0.015000161, z: -0.015099375}
    - {x: -0.24788062, y: 0.01500016, z: -0.011634371}
    - {x: -0.2458369, y: 0.015000158, z: -0.008454366}
    - {x: -0.24317436, y: 0.015000158, z: -0.0033581248}
    - {x: -0.21201564, y: 0.015000158, z: -0.0033581248}
    - {x: -0.21200061, y: 0.015000139, z: 0.08690062}
    - {x: -0.23706566, y: 0.015000139, z: 0.08690062}
    - {x: -0.22584938, y: 0.015000137, z: 0.09681937}
    - {x: 0.0000018600978, y: 0.015000137, z: 0.09681937}
    - {x: 0.22584938, y: 0.015000137, z: 0.09681937}
    - {x: 0.23866342, y: 0.015000139, z: 0.08690062}
    - {x: 0.21200061, y: 0.015000139, z: 0.08690062}
    - {x: 0.2120156, y: 0.015000158, z: -0.0033581248}
    - {x: 0.24317811, y: 0.015000158, z: -0.0033581248}
    - {x: 0.24583687, y: 0.015000158, z: -0.008454366}
    - {x: 0.24788062, y: 0.01500016, z: -0.011634371}
    - {x: 0.25026935, y: 0.015000161, z: -0.015099375}
    - {x: 0.25291312, y: 0.015000161, z: -0.018740617}
    - {x: 0.25570685, y: 0.015000162, z: -0.022456875}
    - {x: 0.25800186, y: 0.015000162, z: -0.02543062}
    - {x: 0.2602856, y: 0.015000163, z: -0.028329372}
    - {x: 0.2625056, y: 0.015000163, z: -0.03110437}
    - {x: 0.2682919, y: 0.015000165, z: -0.038120624}
    - {x: 0.10503186, y: 0.015000165, z: -0.038120624}
    - {x: 0.0000018600978, y: 0.015000178, z: -0.09681937}
    tangents:
    - {x: -1, y: 1.566905e-12, z: -0.0000075962957}
    - {x: -0.96771157, y: -0.000000051989876, z: 0.25206012}
    - {x: -0.4264711, y: -0.00000036018466, z: 0.90450114}
    - {x: 0.6304804, y: -0.00000015361259, z: 0.7762052}
    - {x: 0.6217714, y: -0.0000001261862, z: 0.7831988}
    - {x: 0.6149183, y: -0.0000001261869, z: 0.78859085}
    - {x: 0.60594577, y: -0.000000100160435, z: 0.79550594}
    - {x: 0.59423953, y: -0.000000100161884, z: 0.8042881}
    - {x: 0.5776044, y: -0.00000011065354, z: 0.81631684}
    - {x: 0.5541902, y: -0.00000035706634, z: 0.83239}
    - {x: 0.5023629, y: -0.0000002466227, z: 0.8646568}
    - {x: 0.8552959, y: 0, z: 0.5181398}
    - {x: 0.70716566, y: -0.00000014591156, z: 0.7070479}
    - {x: -0.7070479, y: -0.00000014593586, z: 0.70716566}
    - {x: -0.35418394, y: -0.00000026342545, z: 0.9351758}
    - {x: 0.9351758, y: -0.00000009976848, z: 0.35418394}
    - {x: 1, y: 0, z: 0}
    - {x: 0.94624984, y: 0.0000000911074, z: -0.32343662}
    - {x: -0.32343653, y: 0.00000026654484, z: -0.94624984}
    - {x: -0.70704806, y: 0.00000014593581, z: -0.7071655}
    - {x: 0.7071655, y: 0.00000014591159, z: -0.70704806}
    - {x: 0.85514474, y: 0, z: -0.51838934}
    - {x: 0.50211346, y: 0.00000024662495, z: -0.86480176}
    - {x: 0.554193, y: 0.00000035706526, z: -0.83238816}
    - {x: 0.5776001, y: 0.00000011065353, z: -0.8163199}
    - {x: 0.5942353, y: 0.00000010016189, z: -0.80429125}
    - {x: 0.60594577, y: 0.000000100160435, z: -0.79550594}
    - {x: 0.6149158, y: 0.00000012618753, z: -0.7885928}
    - {x: 0.62177664, y: 0.00000012618683, z: -0.78319466}
    - {x: 0.63048804, y: 0.00000015361259, z: -0.7761989}
    - {x: -0.4264711, y: 0.00000036018466, z: -0.90450114}
    - {x: -0.96770966, y: 0.000000051991396, z: -0.25206748}
    - {x: -1, y: 1.566905e-12, z: -0.0000075962957}
    bitangents:
    - {x: 0.0000075962957, y: 0, z: -1}
    - {x: -0.25206012, y: 0, z: -0.96771157}
    - {x: -0.90450114, y: 0, z: -0.4264711}
    - {x: -0.7762052, y: 0, z: 0.6304804}
    - {x: -0.7831988, y: 0, z: 0.6217714}
    - {x: -0.78859085, y: 0, z: 0.6149183}
    - {x: -0.79550594, y: 0, z: 0.60594577}
    - {x: -0.8042881, y: 0, z: 0.59423953}
    - {x: -0.81631684, y: 0, z: 0.5776044}
    - {x: -0.83239, y: 0, z: 0.5541902}
    - {x: -0.8646568, y: 0, z: 0.5023629}
    - {x: -0.5181398, y: 0, z: 0.8552959}
    - {x: -0.7070479, y: 0, z: 0.70716566}
    - {x: -0.70716566, y: 0, z: -0.7070479}
    - {x: -0.9351758, y: 0, z: -0.35418394}
    - {x: -0.35418394, y: 0, z: 0.9351758}
    - {x: 0, y: 0, z: 1}
    - {x: 0.32343662, y: -0, z: 0.94624984}
    - {x: 0.94624984, y: 0, z: -0.32343653}
    - {x: 0.7071655, y: 0, z: -0.70704806}
    - {x: 0.70704806, y: -0, z: 0.7071655}
    - {x: 0.51838934, y: -0, z: 0.85514474}
    - {x: 0.86480176, y: -0, z: 0.50211346}
    - {x: 0.83238816, y: -0, z: 0.554193}
    - {x: 0.8163199, y: -0, z: 0.5776001}
    - {x: 0.80429125, y: -0, z: 0.5942353}
    - {x: 0.79550594, y: -0, z: 0.60594577}
    - {x: 0.7885928, y: -0, z: 0.6149158}
    - {x: 0.78319466, y: -0, z: 0.62177664}
    - {x: 0.7761989, y: -0, z: 0.63048804}
    - {x: 0.90450114, y: 0, z: -0.4264711}
    - {x: 0.25206748, y: 0, z: -0.96770966}
    - {x: 0.0000075962957, y: 0, z: -1}
    normals:
    - {x: 0, y: 1, z: 0}
    - {x: 0, y: 1, z: 0}
    - {x: 0, y: 1, z: 0}
    - {x: 0, y: 1, z: 0}
    - {x: 0, y: 1, z: 0}
    - {x: 0, y: 1, z: 0}
    - {x: 0, y: 1, z: 0}
    - {x: 0, y: 1, z: 0}
    - {x: 0, y: 1, z: 0}
    - {x: 0, y: 1, z: 0}
    - {x: 0, y: 1, z: 0}
    - {x: 0, y: 1, z: 0}
    - {x: 0, y: 1, z: 0}
    - {x: 0, y: 1, z: 0}
    - {x: 0, y: 1, z: 0}
    - {x: 0, y: 1, z: 0}
    - {x: 0, y: 1, z: 0}
    - {x: 0, y: 1, z: 0}
    - {x: 0, y: 1, z: 0}
    - {x: 0, y: 1, z: 0}
    - {x: 0, y: 1, z: 0}
    - {x: 0, y: 1, z: 0}
    - {x: 0, y: 1, z: 0}
    - {x: 0, y: 1, z: 0}
    - {x: 0, y: 1, z: 0}
    - {x: 0, y: 1, z: 0}
    - {x: 0, y: 1, z: 0}
    - {x: 0, y: 1, z: 0}
    - {x: 0, y: 1, z: 0}
    - {x: 0, y: 1, z: 0}
    - {x: 0, y: 1, z: 0}
    - {x: 0, y: 1, z: 0}
    - {x: 0, y: 1, z: 0}
    timeTable:
    - Index: 0
      Value: 0
    - Index: 1
      Value: 0.08410854
    - Index: 2
      Value: 0.19823103
    - Index: 3
      Value: 0.20458825
    - Index: 4
      Value: 0.20707236
    - Index: 5
      Value: 0.20965196
    - Index: 6
      Value: 0.21227776
    - Index: 7
      Value: 0.21552768
    - Index: 8
      Value: 0.21867317
    - Index: 9
      Value: 0.22161506
    - Index: 10
      Value: 0.22425744
    - Index: 11
      Value: 0.22827671
    - Index: 12
      Value: 0.25005737
    - Index: 13
      Value: 0.3131503
    - Index: 14
      Value: 0.33067134
    - Index: 15
      Value: 0.3411377
    - Index: 16
      Value: 0.4990129
    - Index: 17
      Value: 0.65688545
    - Index: 18
      Value: 0.66821265
    - Index: 19
      Value: 0.68685055
    - Index: 20
      Value: 0.74994344
    - Index: 21
      Value: 0.7717268
    - Index: 22
      Value: 0.77574486
    - Index: 23
      Value: 0.77838725
    - Index: 24
      Value: 0.78132915
    - Index: 25
      Value: 0.7844746
    - Index: 26
      Value: 0.78772455
    - Index: 27
      Value: 0.7903504
    - Index: 28
      Value: 0.7929299
    - Index: 29
      Value: 0.7954141
    - Index: 30
      Value: 0.8017713
    - Index: 31
      Value: 0.9158938
    - Index: 32
      Value: 1
    vertexPathDistance: 1.4305685
  meshThickness: 0.0035
  uvArea: 1
  uvSize: {x: 0, y: 0, z: 1, w: 1}
