{
    "name": "Modules.PWS.Common",
    "rootNamespace": "",
    "references": [
        "Leopotam.Ecs",
        "Modules.Root.ContainerComponentModel",
        "UniRx",
        "PWS.Common.Messages",
        "PWS.Common.UserInfoService",
        "PWS.Common.SceneSwitchService",
        "PWS.Tutorial",
        "Unity.XR.Interaction.Toolkit",
        "Modules.StateGroup",
        "Modules.UIMessaging",
        "Unity.XR",
        "PWS.Features.Achivements"
    ],
    "includePlatforms": [],
    "excludePlatforms": [],
    "allowUnsafeCode": false,
    "overrideReferences": false,
    "precompiledReferences": [],
    "autoReferenced": true,
    "defineConstraints": [],
    "versionDefines": [],
    "noEngineReferences": false
}