%YAML 1.1
%TAG !u! tag:unity3d.com,2011:
--- !u!1001 &4107360670587405987
PrefabInstance:
  m_ObjectHideFlags: 0
  serializedVersion: 2
  m_Modification:
    m_TransformParent: {fileID: 0}
    m_Modifications:
    - target: {fileID: 4477700207370009672, guid: 589d96b8d8abae240ba4b881a11fde95, type: 3}
      propertyPath: renderers.Array.size
      value: 1
      objectReference: {fileID: 0}
    - target: {fileID: 4477700207370009672, guid: 589d96b8d8abae240ba4b881a11fde95, type: 3}
      propertyPath: renderers.Array.data[0]
      value: 
      objectReference: {fileID: 6019191496706949424}
    - target: {fileID: 4477700207370009673, guid: 589d96b8d8abae240ba4b881a11fde95, type: 3}
      propertyPath: m_Name
      value: Final
      objectReference: {fileID: 0}
    - target: {fileID: 4477700207370009673, guid: 589d96b8d8abae240ba4b881a11fde95, type: 3}
      propertyPath: m_Layer
      value: 29
      objectReference: {fileID: 0}
    - target: {fileID: 4477700207370009675, guid: 589d96b8d8abae240ba4b881a11fde95, type: 3}
      propertyPath: m_RootOrder
      value: 0
      objectReference: {fileID: 0}
    - target: {fileID: 4477700207370009675, guid: 589d96b8d8abae240ba4b881a11fde95, type: 3}
      propertyPath: m_LocalPosition.x
      value: 0
      objectReference: {fileID: 0}
    - target: {fileID: 4477700207370009675, guid: 589d96b8d8abae240ba4b881a11fde95, type: 3}
      propertyPath: m_LocalPosition.y
      value: 0.058
      objectReference: {fileID: 0}
    - target: {fileID: 4477700207370009675, guid: 589d96b8d8abae240ba4b881a11fde95, type: 3}
      propertyPath: m_LocalPosition.z
      value: 0.049
      objectReference: {fileID: 0}
    - target: {fileID: 4477700207370009675, guid: 589d96b8d8abae240ba4b881a11fde95, type: 3}
      propertyPath: m_LocalRotation.w
      value: 1
      objectReference: {fileID: 0}
    - target: {fileID: 4477700207370009675, guid: 589d96b8d8abae240ba4b881a11fde95, type: 3}
      propertyPath: m_LocalRotation.x
      value: 0
      objectReference: {fileID: 0}
    - target: {fileID: 4477700207370009675, guid: 589d96b8d8abae240ba4b881a11fde95, type: 3}
      propertyPath: m_LocalRotation.y
      value: 0
      objectReference: {fileID: 0}
    - target: {fileID: 4477700207370009675, guid: 589d96b8d8abae240ba4b881a11fde95, type: 3}
      propertyPath: m_LocalRotation.z
      value: 0
      objectReference: {fileID: 0}
    - target: {fileID: 4477700207370009675, guid: 589d96b8d8abae240ba4b881a11fde95, type: 3}
      propertyPath: m_LocalEulerAnglesHint.x
      value: 0
      objectReference: {fileID: 0}
    - target: {fileID: 4477700207370009675, guid: 589d96b8d8abae240ba4b881a11fde95, type: 3}
      propertyPath: m_LocalEulerAnglesHint.y
      value: 0
      objectReference: {fileID: 0}
    - target: {fileID: 4477700207370009675, guid: 589d96b8d8abae240ba4b881a11fde95, type: 3}
      propertyPath: m_LocalEulerAnglesHint.z
      value: 0
      objectReference: {fileID: 0}
    m_RemovedComponents: []
  m_SourcePrefab: {fileID: 100100000, guid: 589d96b8d8abae240ba4b881a11fde95, type: 3}
--- !u!4 &514459678030084840 stripped
Transform:
  m_CorrespondingSourceObject: {fileID: 4477700207370009675, guid: 589d96b8d8abae240ba4b881a11fde95, type: 3}
  m_PrefabInstance: {fileID: 4107360670587405987}
  m_PrefabAsset: {fileID: 0}
--- !u!1001 &4920714102200311220
PrefabInstance:
  m_ObjectHideFlags: 0
  serializedVersion: 2
  m_Modification:
    m_TransformParent: {fileID: 514459678030084840}
    m_Modifications:
    - target: {fileID: -8679921383154817045, guid: 6cb2acf4b75a11348952e1a5ef37b6c9, type: 3}
      propertyPath: m_RootOrder
      value: 0
      objectReference: {fileID: 0}
    - target: {fileID: -8679921383154817045, guid: 6cb2acf4b75a11348952e1a5ef37b6c9, type: 3}
      propertyPath: m_LocalPosition.x
      value: 0
      objectReference: {fileID: 0}
    - target: {fileID: -8679921383154817045, guid: 6cb2acf4b75a11348952e1a5ef37b6c9, type: 3}
      propertyPath: m_LocalPosition.y
      value: 0
      objectReference: {fileID: 0}
    - target: {fileID: -8679921383154817045, guid: 6cb2acf4b75a11348952e1a5ef37b6c9, type: 3}
      propertyPath: m_LocalPosition.z
      value: 0
      objectReference: {fileID: 0}
    - target: {fileID: -8679921383154817045, guid: 6cb2acf4b75a11348952e1a5ef37b6c9, type: 3}
      propertyPath: m_LocalRotation.w
      value: 1
      objectReference: {fileID: 0}
    - target: {fileID: -8679921383154817045, guid: 6cb2acf4b75a11348952e1a5ef37b6c9, type: 3}
      propertyPath: m_LocalRotation.x
      value: 0
      objectReference: {fileID: 0}
    - target: {fileID: -8679921383154817045, guid: 6cb2acf4b75a11348952e1a5ef37b6c9, type: 3}
      propertyPath: m_LocalRotation.y
      value: 0
      objectReference: {fileID: 0}
    - target: {fileID: -8679921383154817045, guid: 6cb2acf4b75a11348952e1a5ef37b6c9, type: 3}
      propertyPath: m_LocalRotation.z
      value: 0
      objectReference: {fileID: 0}
    - target: {fileID: -8679921383154817045, guid: 6cb2acf4b75a11348952e1a5ef37b6c9, type: 3}
      propertyPath: m_LocalEulerAnglesHint.x
      value: 0
      objectReference: {fileID: 0}
    - target: {fileID: -8679921383154817045, guid: 6cb2acf4b75a11348952e1a5ef37b6c9, type: 3}
      propertyPath: m_LocalEulerAnglesHint.y
      value: 0
      objectReference: {fileID: 0}
    - target: {fileID: -8679921383154817045, guid: 6cb2acf4b75a11348952e1a5ef37b6c9, type: 3}
      propertyPath: m_LocalEulerAnglesHint.z
      value: 0
      objectReference: {fileID: 0}
    - target: {fileID: -7511558181221131132, guid: 6cb2acf4b75a11348952e1a5ef37b6c9, type: 3}
      propertyPath: m_Materials.Array.data[0]
      value: 
      objectReference: {fileID: 2100000, guid: ce09424022e6a0e4ca8aeb97faec5317, type: 2}
    - target: {fileID: 919132149155446097, guid: 6cb2acf4b75a11348952e1a5ef37b6c9, type: 3}
      propertyPath: m_Name
      value: FinalView
      objectReference: {fileID: 0}
    - target: {fileID: 919132149155446097, guid: 6cb2acf4b75a11348952e1a5ef37b6c9, type: 3}
      propertyPath: m_Layer
      value: 29
      objectReference: {fileID: 0}
    m_RemovedComponents: []
  m_SourcePrefab: {fileID: 100100000, guid: 6cb2acf4b75a11348952e1a5ef37b6c9, type: 3}
--- !u!23 &6019191496706949424 stripped
MeshRenderer:
  m_CorrespondingSourceObject: {fileID: -7511558181221131132, guid: 6cb2acf4b75a11348952e1a5ef37b6c9, type: 3}
  m_PrefabInstance: {fileID: 4920714102200311220}
  m_PrefabAsset: {fileID: 0}
