%YAML 1.1
%TAG !u! tag:unity3d.com,2011:
--- !u!1001 &1734675098617705740
PrefabInstance:
  m_ObjectHideFlags: 0
  serializedVersion: 2
  m_Modification:
    m_TransformParent: {fileID: 0}
    m_Modifications:
    - target: {fileID: 4477700207370009672, guid: 589d96b8d8abae240ba4b881a11fde95, type: 3}
      propertyPath: renderers.Array.size
      value: 1
      objectReference: {fileID: 0}
    - target: {fileID: 4477700207370009672, guid: 589d96b8d8abae240ba4b881a11fde95, type: 3}
      propertyPath: renderers.Array.data[0]
      value: 
      objectReference: {fileID: 4674282971098721598}
    - target: {fileID: 4477700207370009673, guid: 589d96b8d8abae240ba4b881a11fde95, type: 3}
      propertyPath: m_Name
      value: Final
      objectReference: {fileID: 0}
    - target: {fileID: 4477700207370009673, guid: 589d96b8d8abae240ba4b881a11fde95, type: 3}
      propertyPath: m_Layer
      value: 29
      objectReference: {fileID: 0}
    - target: {fileID: 4477700207370009675, guid: 589d96b8d8abae240ba4b881a11fde95, type: 3}
      propertyPath: m_RootOrder
      value: 0
      objectReference: {fileID: 0}
    - target: {fileID: 4477700207370009675, guid: 589d96b8d8abae240ba4b881a11fde95, type: 3}
      propertyPath: m_LocalScale.x
      value: 1.65
      objectReference: {fileID: 0}
    - target: {fileID: 4477700207370009675, guid: 589d96b8d8abae240ba4b881a11fde95, type: 3}
      propertyPath: m_LocalScale.y
      value: 1.65
      objectReference: {fileID: 0}
    - target: {fileID: 4477700207370009675, guid: 589d96b8d8abae240ba4b881a11fde95, type: 3}
      propertyPath: m_LocalScale.z
      value: 1.65
      objectReference: {fileID: 0}
    - target: {fileID: 4477700207370009675, guid: 589d96b8d8abae240ba4b881a11fde95, type: 3}
      propertyPath: m_LocalPosition.x
      value: 0
      objectReference: {fileID: 0}
    - target: {fileID: 4477700207370009675, guid: 589d96b8d8abae240ba4b881a11fde95, type: 3}
      propertyPath: m_LocalPosition.y
      value: 0
      objectReference: {fileID: 0}
    - target: {fileID: 4477700207370009675, guid: 589d96b8d8abae240ba4b881a11fde95, type: 3}
      propertyPath: m_LocalPosition.z
      value: 0.036
      objectReference: {fileID: 0}
    - target: {fileID: 4477700207370009675, guid: 589d96b8d8abae240ba4b881a11fde95, type: 3}
      propertyPath: m_LocalRotation.w
      value: 1
      objectReference: {fileID: 0}
    - target: {fileID: 4477700207370009675, guid: 589d96b8d8abae240ba4b881a11fde95, type: 3}
      propertyPath: m_LocalRotation.x
      value: 0
      objectReference: {fileID: 0}
    - target: {fileID: 4477700207370009675, guid: 589d96b8d8abae240ba4b881a11fde95, type: 3}
      propertyPath: m_LocalRotation.y
      value: 0
      objectReference: {fileID: 0}
    - target: {fileID: 4477700207370009675, guid: 589d96b8d8abae240ba4b881a11fde95, type: 3}
      propertyPath: m_LocalRotation.z
      value: 0
      objectReference: {fileID: 0}
    - target: {fileID: 4477700207370009675, guid: 589d96b8d8abae240ba4b881a11fde95, type: 3}
      propertyPath: m_LocalEulerAnglesHint.x
      value: 0
      objectReference: {fileID: 0}
    - target: {fileID: 4477700207370009675, guid: 589d96b8d8abae240ba4b881a11fde95, type: 3}
      propertyPath: m_LocalEulerAnglesHint.y
      value: 0
      objectReference: {fileID: 0}
    - target: {fileID: 4477700207370009675, guid: 589d96b8d8abae240ba4b881a11fde95, type: 3}
      propertyPath: m_LocalEulerAnglesHint.z
      value: 0
      objectReference: {fileID: 0}
    m_RemovedComponents: []
  m_SourcePrefab: {fileID: 100100000, guid: 589d96b8d8abae240ba4b881a11fde95, type: 3}
--- !u!4 &2752035079368313159 stripped
Transform:
  m_CorrespondingSourceObject: {fileID: 4477700207370009675, guid: 589d96b8d8abae240ba4b881a11fde95, type: 3}
  m_PrefabInstance: {fileID: 1734675098617705740}
  m_PrefabAsset: {fileID: 0}
--- !u!1001 &6278007130609791418
PrefabInstance:
  m_ObjectHideFlags: 0
  serializedVersion: 2
  m_Modification:
    m_TransformParent: {fileID: 2752035079368313159}
    m_Modifications:
    - target: {fileID: -8679921383154817045, guid: 3cc9634cc8ecc2a4ca400a1bd171f492, type: 3}
      propertyPath: m_RootOrder
      value: 0
      objectReference: {fileID: 0}
    - target: {fileID: -8679921383154817045, guid: 3cc9634cc8ecc2a4ca400a1bd171f492, type: 3}
      propertyPath: m_LocalPosition.x
      value: 0
      objectReference: {fileID: 0}
    - target: {fileID: -8679921383154817045, guid: 3cc9634cc8ecc2a4ca400a1bd171f492, type: 3}
      propertyPath: m_LocalPosition.y
      value: 0
      objectReference: {fileID: 0}
    - target: {fileID: -8679921383154817045, guid: 3cc9634cc8ecc2a4ca400a1bd171f492, type: 3}
      propertyPath: m_LocalPosition.z
      value: 0
      objectReference: {fileID: 0}
    - target: {fileID: -8679921383154817045, guid: 3cc9634cc8ecc2a4ca400a1bd171f492, type: 3}
      propertyPath: m_LocalRotation.w
      value: 1
      objectReference: {fileID: 0}
    - target: {fileID: -8679921383154817045, guid: 3cc9634cc8ecc2a4ca400a1bd171f492, type: 3}
      propertyPath: m_LocalRotation.x
      value: 0
      objectReference: {fileID: 0}
    - target: {fileID: -8679921383154817045, guid: 3cc9634cc8ecc2a4ca400a1bd171f492, type: 3}
      propertyPath: m_LocalRotation.y
      value: 0
      objectReference: {fileID: 0}
    - target: {fileID: -8679921383154817045, guid: 3cc9634cc8ecc2a4ca400a1bd171f492, type: 3}
      propertyPath: m_LocalRotation.z
      value: 0
      objectReference: {fileID: 0}
    - target: {fileID: -8679921383154817045, guid: 3cc9634cc8ecc2a4ca400a1bd171f492, type: 3}
      propertyPath: m_LocalEulerAnglesHint.x
      value: 0
      objectReference: {fileID: 0}
    - target: {fileID: -8679921383154817045, guid: 3cc9634cc8ecc2a4ca400a1bd171f492, type: 3}
      propertyPath: m_LocalEulerAnglesHint.y
      value: 0
      objectReference: {fileID: 0}
    - target: {fileID: -8679921383154817045, guid: 3cc9634cc8ecc2a4ca400a1bd171f492, type: 3}
      propertyPath: m_LocalEulerAnglesHint.z
      value: 0
      objectReference: {fileID: 0}
    - target: {fileID: -7511558181221131132, guid: 3cc9634cc8ecc2a4ca400a1bd171f492, type: 3}
      propertyPath: m_Materials.Array.data[0]
      value: 
      objectReference: {fileID: 2100000, guid: ce09424022e6a0e4ca8aeb97faec5317, type: 2}
    - target: {fileID: 919132149155446097, guid: 3cc9634cc8ecc2a4ca400a1bd171f492, type: 3}
      propertyPath: m_Name
      value: FinalView
      objectReference: {fileID: 0}
    - target: {fileID: 919132149155446097, guid: 3cc9634cc8ecc2a4ca400a1bd171f492, type: 3}
      propertyPath: m_Layer
      value: 29
      objectReference: {fileID: 0}
    m_RemovedComponents: []
  m_SourcePrefab: {fileID: 100100000, guid: 3cc9634cc8ecc2a4ca400a1bd171f492, type: 3}
--- !u!23 &4674282971098721598 stripped
MeshRenderer:
  m_CorrespondingSourceObject: {fileID: -7511558181221131132, guid: 3cc9634cc8ecc2a4ca400a1bd171f492, type: 3}
  m_PrefabInstance: {fileID: 6278007130609791418}
  m_PrefabAsset: {fileID: 0}
