{
    "name": "PWS.HUB.Simulation",
    "rootNamespace": "PWS.HUB.Simulation",
    "references": [
        "Modules.Root.ECS",
        "Leopotam.Ecs",
        "Modules.Root.ContainerComponentModel",
        "PWS.Common.UserInfoService",
        "Modules.StateGroup",
        "Modules.UIMessaging",
        "PWS.Tutorial",
        "PWS.HUB.UserRegistrtationPad",
        "UniRx",
        "PWS.Common.SceneSwitchService",
        "Unity.TextMeshPro",
        "PWS.FeatureToggles",
        "I2.Loc"
    ],
    "includePlatforms": [],
    "excludePlatforms": [],
    "allowUnsafeCode": false,
    "overrideReferences": false,
    "precompiledReferences": [],
    "autoReferenced": true,
    "defineConstraints": [],
    "versionDefines": [],
    "noEngineReferences": false
}