%YAML 1.1
%TAG !u! tag:unity3d.com,2011:
--- !u!114 &11400000
MonoBehaviour:
  m_ObjectHideFlags: 0
  m_CorrespondingSourceObject: {fileID: 0}
  m_PrefabInstance: {fileID: 0}
  m_PrefabAsset: {fileID: 0}
  m_GameObject: {fileID: 0}
  m_Enabled: 1
  m_EditorHideFlags: 0
  m_Script: {fileID: 11500000, guid: a4ce93d37ebfeec498fdc2a303fd09bd, type: 3}
  m_Name: InitialTemplateData
  m_EditorClassIdentifier: 
  Data:
    ProductHeight: 0.2
    BottomClosureHeight: 0
    TopClosureHeight: 0.2
    Rings:
    - Position: {x: 0.1, y: 0}
      Width: 0.02
    - Position: {x: 0.1, y: 0.01}
      Width: 0.02
    - Position: {x: 0.1, y: 0.02}
      Width: 0.02
    - Position: {x: 0.1, y: 0.03}
      Width: 0.02
    - Position: {x: 0.1, y: 0.04}
      Width: 0.02
    - Position: {x: 0.1, y: 0.049999997}
      Width: 0.02
    - Position: {x: 0.1, y: 0.059999995}
      Width: 0.02
    - Position: {x: 0.1, y: 0.06999999}
      Width: 0.02
    - Position: {x: 0.1, y: 0.07999999}
      Width: 0.02
    - Position: {x: 0.1, y: 0.08999999}
      Width: 0.02
    - Position: {x: 0.1, y: 0.09999999}
      Width: 0.02
    - Position: {x: 0.1, y: 0.109999985}
      Width: 0.02
    - Position: {x: 0.1, y: 0.11999998}
      Width: 0.02
    - Position: {x: 0.09905872, y: 0.12999998}
      Width: 0.02
    - Position: {x: 0.09404313, y: 0.13999999}
      Width: 0.02
    - Position: {x: 0.08804313, y: 0.14999999}
      Width: 0.02
    - Position: {x: 0.08325442, y: 0.16}
      Width: 0.02
    - Position: {x: 0.07257443, y: 0.17}
      Width: 0.02
    - Position: {x: 0.061986003, y: 0.18}
      Width: 0.02
    - Position: {x: 0.04038443, y: 0.2}
      Width: 0.02
